Vcdwavedir/TestBench.sim__test_stack_8bit_basic_8x8.vcd
$date
  Tue Mar 22 19:59:03 2022
$end
$version
  PyMTL 3 (Mamba)
$end
$timescale
 10ps
$end

$scope module top $end
  $var reg 1 $ clk $end
  $var reg 1 " reset $end
  $scope module master $end
    $var reg 1 6 sclk_en $end
    $var reg 8 . req.msg $end
    $var reg 4 7 sclk_cntr $end
    $var reg 1 8 result_read $end
    $var reg 1 " reset $end
    $var reg 1 / req.val $end
    $var reg 1 % master_infer.cs $end
    $var reg 1 0 req.rdy $end
    $var reg 1 ' master_infer.miso $end
    $var reg 1 9 val_progressing $end
    $var reg 1 & master_infer.sclk $end
    $var reg 1 : msg_from_slave $end
    $var reg 1 ( master_infer.mosi $end
    $var reg 8 2 resp.msg $end
    $var reg 1 3 resp.val $end
    $var reg 1 4 resp.rdy $end
    $var reg 3 ; state $end
    $var reg 8 < cntr $end
    $var reg 8 = cntr_max $end
    $var reg 4 > mosi_reg_pointer $end
    $var reg 1 $ clk $end
    $var reg 8 2 miso_reg $end
    $scope module mosi_reg $end
      $var reg 8 . in_ $end
      $var reg 1 $ clk $end
      $var reg 1 ? en $end
      $var reg 1 " reset $end
      $var reg 8 @ out $end
    $upscope $end
  $upscope $end
  $scope module sink $end
    $var reg 1 $ clk $end
    $var reg 1 4 recv.rdy $end
    $var reg 8 2 recv.msg $end
    $var reg 1 " reset $end
    $var reg 1 3 recv.val $end
  $upscope $end
  $scope module src $end
    $var reg 8 . send.msg $end
    $var reg 1 / send.val $end
    $var reg 1 " reset $end
    $var reg 1 $ clk $end
    $var reg 1 0 send.rdy $end
  $upscope $end
  $scope module slave $end
    $var reg 1 ) push.en $end
    $var reg 1 " reset $end
    $var reg 1 & slave_inter.sclk $end
    $var reg 1 ' slave_inter.miso $end
    $var reg 1 , pull.en $end
    $var reg 1 $ clk $end
    $var reg 8 ! push.msg $end
    $var reg 1 ( slave_inter.mosi $end
    $var reg 8 A pull.msg $end
    $var reg 1 % slave_inter.cs $end
    $scope module sclk_sync $end
      $var reg 1 " reset $end
      $var reg 1 - out $end
      $var reg 1 $ clk $end
      $var reg 1 B posedge_ $end
      $var reg 1 C negedge_ $end
      $var reg 3 D shreg $end
      $var reg 1 & in_ $end
    $upscope $end
    $scope module shreg_in $end
      $var reg 1 E shift_en $end
      $var reg 8 * load_data $end
      $var reg 8 ! out $end
      $var reg 1 + load_en $end
      $var reg 1 " reset $end
      $var reg 1 $ clk $end
      $var reg 1 # in_ $end
    $upscope $end
    $scope module cs_sync $end
      $var reg 1 1 out $end
      $var reg 1 $ clk $end
      $var reg 1 ) posedge_ $end
      $var reg 1 " reset $end
      $var reg 1 , negedge_ $end
      $var reg 3 F shreg $end
      $var reg 1 G in_ $end
    $upscope $end
    $scope module shreg_out $end
      $var reg 8 H out $end
      $var reg 1 I shift_en $end
      $var reg 1 " reset $end
      $var reg 1 , load_en $end
      $var reg 1 $ clk $end
      $var reg 1 5 in_ $end
      $var reg 8 ! load_data $end
    $upscope $end
    $scope module mosi_sync $end
      $var reg 1 " reset $end
      $var reg 3 J shreg $end
      $var reg 1 ( in_ $end
      $var reg 1 # out $end
      $var reg 1 $ clk $end
      $var reg 1 K negedge_ $end
      $var reg 1 L posedge_ $end
    $upscope $end
  $upscope $end
$upscope $end
$enddefinitions $end

b0b00000000 !
b0b0 "
b0b0 #
b0b0 $
b0b0 %
b0b0 &
b0b0 '
b0b0 (
b0b0 )
b0b00000000 *
b0b0 +
b0b0 ,
b0b0 -
b0b00000000 .
b0b0 /
b0b0 0
b0b0 1
b0b00000000 2
b0b0 3
b0b0 4
b0b0 5
b0b0 6
b0b0000 7
b0b0 8
b0b0 9
b0b0 :
b0b000 ;
b0b00000000 <
b0b00000000 =
b0b0000 >
b0b0 ?
b0b00000000 @
b0b00000000 A
b0b0 B
b0b0 C
b0b000 D
b0b0 E
b0b000 F
b0b0 G
b0b00000000 H
b0b0 I
b0b000 J
b0b0 K
b0b0 L

#0
b0b1 $

b0b1 "
b0b1 %
b0b00000000 *
b0b0 +
b0b00000000 .
b0b0 /
b0b00000000 2
b0b0 3
b0b0000 7
b0b0 8
b0b000 ;
b0b00000000 <
b0b00000100 =
b0b0000 >
b0b0 ?
b0b00000000 @
b0b0 B
b0b000 D
b0b0 E
b0b000 F
b0b1 G
b0b00000000 H
b0b0 I
b0b000 J
b0b0 K

#50
b0b0 $
#100
b0b1 $

b0b001 ;
b0b00000001 <
b0b001 F

#150
b0b0 $
#200
b0b1 $

b0b1 )
b0b1 1
b0b000 ;
b0b00000000 <
b0b0111 >
b0b011 F

#250
b0b0 $
#300
b0b1 $

b0b0 "
b0b0 )
b0b001 ;
b0b00000001 <
b0b111 F

#350
b0b0 $
#400
b0b1 $

b0b00000000 <

#450
b0b0 $
#500
b0b1 $


#550
b0b0 $
#600
b0b1 $


#650
b0b0 $
#700
b0b1 $


#750
b0b0 $
#800
b0b1 $


#850
b0b0 $
#900
b0b1 $


#950
b0b0 $
#1000
b0b1 $


#1050
b0b0 $
#1100
b0b1 $


#1150
b0b0 $
#1200
b0b1 $

b0b00000100 .
b0b1 /
b0b1 0
b0b1 4
b0b1 8
b0b1 9
b0b1 ?

#1250
b0b0 $
#1300
b0b1 $

b0b0 %
b0b0 /
b0b0 0
b0b0 8
b0b010 ;
b0b0 ?
b0b00000100 @
b0b0 G

#1350
b0b0 $
#1400
b0b1 $

b0b00000001 <
b0b110 F

#1450
b0b0 $
#1500
b0b1 $

b0b1 ,
b0b0 1
b0b00000010 <
b0b100 F

#1550
b0b0 $
#1600
b0b1 $

b0b0 ,
b0b00000011 <
b0b000 F

#1650
b0b0 $
#1700
b0b1 $

b0b00000100 <

#1750
b0b0 $
#1800
b0b1 $

b0b1 6
b0b011 ;
b0b00000000 <
b0b00111111 =

#1850
b0b0 $
#1900
b0b1 $

b0b1 &
b0b0001 7
b0b00000001 <

#1950
b0b0 $
#2000
b0b1 $

b0b0010 7
b0b00000010 <
b0b001 D

#2050
b0b0 $
#2100
b0b1 $

b0b1 -
b0b00000111 .
b0b1 /
b0b0011 7
b0b00000011 <
b0b1 B
b0b011 D
b0b1 E

#2150
b0b0 $
#2200
b0b1 $

b0b0000 7
b0b00000100 <
b0b0 B
b0b111 D
b0b0 E

#2250
b0b0 $
#2300
b0b1 $

b0b0 &
b0b0001 7
b0b00000101 <
b0b0110 >

#2350
b0b0 $
#2400
b0b1 $

b0b0010 7
b0b00000110 <
b0b110 D

#2450
b0b0 $
#2500
b0b1 $

b0b0 -
b0b0011 7
b0b00000111 <
b0b1 C
b0b100 D
b0b1 I

#2550
b0b0 $
#2600
b0b1 $

b0b0000 7
b0b00001000 <
b0b0 C
b0b000 D
b0b0 I

#2650
b0b0 $
#2700
b0b1 $

b0b1 &
b0b0001 7
b0b00001001 <

#2750
b0b0 $
#2800
b0b1 $

b0b0010 7
b0b00001010 <
b0b001 D

#2850
b0b0 $
#2900
b0b1 $

b0b1 -
b0b0011 7
b0b00001011 <
b0b1 B
b0b011 D
b0b1 E

#2950
b0b0 $
#3000
b0b1 $

b0b0000 7
b0b00001100 <
b0b0 B
b0b111 D
b0b0 E

#3050
b0b0 $
#3100
b0b1 $

b0b0 &
b0b0001 7
b0b00001101 <
b0b0101 >

#3150
b0b0 $
#3200
b0b1 $

b0b0010 7
b0b00001110 <
b0b110 D

#3250
b0b0 $
#3300
b0b1 $

b0b0 -
b0b0011 7
b0b00001111 <
b0b1 C
b0b100 D
b0b1 I

#3350
b0b0 $
#3400
b0b1 $

b0b0000 7
b0b00010000 <
b0b0 C
b0b000 D
b0b0 I

#3450
b0b0 $
#3500
b0b1 $

b0b1 &
b0b0001 7
b0b00010001 <

#3550
b0b0 $
#3600
b0b1 $

b0b0010 7
b0b00010010 <
b0b001 D

#3650
b0b0 $
#3700
b0b1 $

b0b1 -
b0b0011 7
b0b00010011 <
b0b1 B
b0b011 D
b0b1 E

#3750
b0b0 $
#3800
b0b1 $

b0b0000 7
b0b00010100 <
b0b0 B
b0b111 D
b0b0 E

#3850
b0b0 $
#3900
b0b1 $

b0b0 &
b0b0001 7
b0b00010101 <
b0b0100 >

#3950
b0b0 $
#4000
b0b1 $

b0b0010 7
b0b00010110 <
b0b110 D

#4050
b0b0 $
#4100
b0b1 $

b0b0 -
b0b0011 7
b0b00010111 <
b0b1 C
b0b100 D
b0b1 I

#4150
b0b0 $
#4200
b0b1 $

b0b0000 7
b0b00011000 <
b0b0 C
b0b000 D
b0b0 I

#4250
b0b0 $
#4300
b0b1 $

b0b1 &
b0b0001 7
b0b00011001 <

#4350
b0b0 $
#4400
b0b1 $

b0b0010 7
b0b00011010 <
b0b001 D

#4450
b0b0 $
#4500
b0b1 $

b0b1 -
b0b0011 7
b0b00011011 <
b0b1 B
b0b011 D
b0b1 E

#4550
b0b0 $
#4600
b0b1 $

b0b0000 7
b0b00011100 <
b0b0 B
b0b111 D
b0b0 E

#4650
b0b0 $
#4700
b0b1 $

b0b0 &
b0b0001 7
b0b00011101 <
b0b0011 >

#4750
b0b0 $
#4800
b0b1 $

b0b0010 7
b0b00011110 <
b0b110 D

#4850
b0b0 $
#4900
b0b1 $

b0b0 -
b0b0011 7
b0b00011111 <
b0b1 C
b0b100 D
b0b1 I

#4950
b0b0 $
#5000
b0b1 $

b0b0000 7
b0b00100000 <
b0b0 C
b0b000 D
b0b0 I

#5050
b0b0 $
#5100
b0b1 $

b0b1 &
b0b0001 7
b0b00100001 <

#5150
b0b0 $
#5200
b0b1 $

b0b0010 7
b0b00100010 <
b0b001 D

#5250
b0b0 $
#5300
b0b1 $

b0b1 -
b0b0011 7
b0b00100011 <
b0b1 B
b0b011 D
b0b1 E

#5350
b0b0 $
#5400
b0b1 $

b0b0000 7
b0b00100100 <
b0b0 B
b0b111 D
b0b0 E

#5450
b0b0 $
#5500
b0b1 $

b0b0 &
b0b1 (
b0b0001 7
b0b00100101 <
b0b0010 >

#5550
b0b0 $
#5600
b0b1 $

b0b0010 7
b0b00100110 <
b0b110 D
b0b001 J

#5650
b0b0 $
#5700
b0b1 $

b0b1 #
b0b0 -
b0b0011 7
b0b00100111 <
b0b1 C
b0b100 D
b0b1 I
b0b011 J
b0b1 L

#5750
b0b0 $
#5800
b0b1 $

b0b0000 7
b0b00101000 <
b0b0 C
b0b000 D
b0b0 I
b0b111 J
b0b0 L

#5850
b0b0 $
#5900
b0b1 $

b0b1 &
b0b0001 7
b0b00101001 <

#5950
b0b0 $
#6000
b0b1 $

b0b0010 7
b0b00101010 <
b0b001 D

#6050
b0b0 $
#6100
b0b1 $

b0b1 -
b0b0011 7
b0b00101011 <
b0b1 B
b0b011 D
b0b1 E

#6150
b0b0 $
#6200
b0b1 $

b0b00000001 !
b0b0000 7
b0b00101100 <
b0b0 B
b0b111 D
b0b0 E

#6250
b0b0 $
#6300
b0b1 $

b0b0 &
b0b0 (
b0b0001 7
b0b00101101 <
b0b0001 >

#6350
b0b0 $
#6400
b0b1 $

b0b0010 7
b0b00101110 <
b0b110 D
b0b110 J

#6450
b0b0 $
#6500
b0b1 $

b0b0 #
b0b0 -
b0b0011 7
b0b00101111 <
b0b1 C
b0b100 D
b0b1 I
b0b100 J
b0b1 K

#6550
b0b0 $
#6600
b0b1 $

b0b0000 7
b0b00110000 <
b0b0 C
b0b000 D
b0b0 I
b0b000 J
b0b0 K

#6650
b0b0 $
#6700
b0b1 $

b0b1 &
b0b0001 7
b0b00110001 <

#6750
b0b0 $
#6800
b0b1 $

b0b0010 7
b0b00110010 <
b0b001 D

#6850
b0b0 $
#6900
b0b1 $

b0b1 -
b0b0011 7
b0b00110011 <
b0b1 B
b0b011 D
b0b1 E

#6950
b0b0 $
#7000
b0b1 $

b0b00000010 !
b0b0000 7
b0b00110100 <
b0b0 B
b0b111 D
b0b0 E

#7050
b0b0 $
#7100
b0b1 $

b0b0 &
b0b0001 7
b0b00110101 <
b0b0000 >

#7150
b0b0 $
#7200
b0b1 $

b0b0010 7
b0b00110110 <
b0b110 D

#7250
b0b0 $
#7300
b0b1 $

b0b0 -
b0b0011 7
b0b00110111 <
b0b1 C
b0b100 D
b0b1 I

#7350
b0b0 $
#7400
b0b1 $

b0b0000 7
b0b00111000 <
b0b0 C
b0b000 D
b0b0 I

#7450
b0b0 $
#7500
b0b1 $

b0b1 &
b0b0001 7
b0b00111001 <

#7550
b0b0 $
#7600
b0b1 $

b0b0010 7
b0b00111010 <
b0b001 D

#7650
b0b0 $
#7700
b0b1 $

b0b1 -
b0b0011 7
b0b00111011 <
b0b1 B
b0b011 D
b0b1 E

#7750
b0b0 $
#7800
b0b1 $

b0b00000100 !
b0b0000 7
b0b00111100 <
b0b0 B
b0b111 D
b0b0 E

#7850
b0b0 $
#7900
b0b1 $

b0b0 &
b0b0001 7
b0b00111101 <

#7950
b0b0 $
#8000
b0b1 $

b0b0010 7
b0b00111110 <
b0b110 D

#8050
b0b0 $
#8100
b0b1 $

b0b0 -
b0b0011 7
b0b00111111 <
b0b1 C
b0b100 D
b0b1 I

#8150
b0b0 $
#8200
b0b1 $

b0b0 6
b0b0000 7
b0b100 ;
b0b00000000 <
b0b00000100 =
b0b0 C
b0b000 D
b0b0 I

#8250
b0b0 $
#8300
b0b1 $

b0b00000001 <

#8350
b0b0 $
#8400
b0b1 $

b0b00000010 <

#8450
b0b0 $
#8500
b0b1 $

b0b00000011 <

#8550
b0b0 $
#8600
b0b1 $

b0b00000100 <

#8650
b0b0 $
#8700
b0b1 $

b0b1 %
b0b1 3
b0b1 :
b0b101 ;
b0b00000000 <
b0b1 G

#8750
b0b0 $
#8800
b0b1 $

b0b0 4
b0b00000001 <
b0b001 F

#8850
b0b0 $
#8900
b0b1 $

b0b1 )
b0b1 1
b0b00000010 <
b0b011 F

#8950
b0b0 $
#9000
b0b1 $

b0b0 )
b0b00000011 <
b0b111 F

#9050
b0b0 $
#9100
b0b1 $

b0b00000100 <

#9150
b0b0 $
#9200
b0b1 $

b0b0 3
b0b0 :
b0b001 ;
b0b00000000 <
b0b1 ?

#9250
b0b0 $
#9300
b0b1 $

b0b0111 >
b0b00000111 @

#9350
b0b0 $
#9400
b0b1 $


#9450
b0b0 $
#9500
b0b1 $


#9550
b0b0 $
#9600
b0b1 $

b0b1 0
b0b1 4
b0b1 8

#9650
b0b0 $
#9700
b0b1 $

b0b0 %
b0b0 /
b0b0 0
b0b0 8
b0b010 ;
b0b0 ?
b0b0 G

#9750
b0b0 $
#9800
b0b1 $

b0b00000001 <
b0b110 F

#9850
b0b0 $
#9900
b0b1 $

b0b1 ,
b0b0 1
b0b00000010 <
b0b100 F

#9950
b0b0 $
#10000
b0b1 $

b0b0 ,
b0b00000011 <
b0b000 F
b0b00000100 H

#10050
b0b0 $
#10100
b0b1 $

b0b00000100 <

#10150
b0b0 $
#10200
b0b1 $

b0b1 6
b0b011 ;
b0b00000000 <
b0b00111111 =

#10250
b0b0 $
#10300
b0b1 $

b0b1 &
b0b0001 7
b0b00000001 <

#10350
b0b0 $
#10400
b0b1 $

b0b0010 7
b0b00000010 <
b0b001 D

#10450
b0b0 $
#10500
b0b1 $

b0b1 -
b0b00000110 .
b0b1 /
b0b0011 7
b0b00000011 <
b0b1 B
b0b011 D
b0b1 E

#10550
b0b0 $
#10600
b0b1 $

b0b00001000 !
b0b0000 7
b0b00000100 <
b0b0 B
b0b111 D
b0b0 E

#10650
b0b0 $
#10700
b0b1 $

b0b0 &
b0b0001 7
b0b00000101 <
b0b0110 >

#10750
b0b0 $
#10800
b0b1 $

b0b0010 7
b0b00000110 <
b0b110 D

#10850
b0b0 $
#10900
b0b1 $

b0b0 -
b0b0011 7
b0b00000111 <
b0b1 C
b0b100 D
b0b1 I

#10950
b0b0 $
#11000
b0b1 $

b0b0000 7
b0b00001000 <
b0b0 C
b0b000 D
b0b00001000 H
b0b0 I

#11050
b0b0 $
#11100
b0b1 $

b0b1 &
b0b0001 7
b0b00001001 <

#11150
b0b0 $
#11200
b0b1 $

b0b0010 7
b0b00001010 <
b0b001 D

#11250
b0b0 $
#11300
b0b1 $

b0b1 -
b0b0011 7
b0b00001011 <
b0b1 B
b0b011 D
b0b1 E

#11350
b0b0 $
#11400
b0b1 $

b0b00010000 !
b0b0000 7
b0b00001100 <
b0b0 B
b0b111 D
b0b0 E

#11450
b0b0 $
#11500
b0b1 $

b0b0 &
b0b0001 7
b0b00001101 <
b0b0101 >

#11550
b0b0 $
#11600
b0b1 $

b0b0010 7
b0b00001110 <
b0b110 D

#11650
b0b0 $
#11700
b0b1 $

b0b0 -
b0b0011 7
b0b00001111 <
b0b1 C
b0b100 D
b0b1 I

#11750
b0b0 $
#11800
b0b1 $

b0b0000 7
b0b00010000 <
b0b0 C
b0b000 D
b0b00010000 H
b0b0 I

#11850
b0b0 $
#11900
b0b1 $

b0b1 &
b0b0001 7
b0b00010001 <

#11950
b0b0 $
#12000
b0b1 $

b0b0010 7
b0b00010010 <
b0b001 D

#12050
b0b0 $
#12100
b0b1 $

b0b1 -
b0b0011 7
b0b00010011 <
b0b1 B
b0b011 D
b0b1 E

#12150
b0b0 $
#12200
b0b1 $

b0b00100000 !
b0b0000 7
b0b00010100 <
b0b0 B
b0b111 D
b0b0 E

#12250
b0b0 $
#12300
b0b1 $

b0b0 &
b0b0001 7
b0b00010101 <
b0b0100 >

#12350
b0b0 $
#12400
b0b1 $

b0b0010 7
b0b00010110 <
b0b110 D

#12450
b0b0 $
#12500
b0b1 $

b0b0 -
b0b0011 7
b0b00010111 <
b0b1 C
b0b100 D
b0b1 I

#12550
b0b0 $
#12600
b0b1 $

b0b0000 7
b0b00011000 <
b0b0 C
b0b000 D
b0b00100000 H
b0b0 I

#12650
b0b0 $
#12700
b0b1 $

b0b1 &
b0b0001 7
b0b00011001 <

#12750
b0b0 $
#12800
b0b1 $

b0b0010 7
b0b00011010 <
b0b001 D

#12850
b0b0 $
#12900
b0b1 $

b0b1 -
b0b0011 7
b0b00011011 <
b0b1 B
b0b011 D
b0b1 E

#12950
b0b0 $
#13000
b0b1 $

b0b01000000 !
b0b0000 7
b0b00011100 <
b0b0 B
b0b111 D
b0b0 E

#13050
b0b0 $
#13100
b0b1 $

b0b0 &
b0b0001 7
b0b00011101 <
b0b0011 >

#13150
b0b0 $
#13200
b0b1 $

b0b0010 7
b0b00011110 <
b0b110 D

#13250
b0b0 $
#13300
b0b1 $

b0b0 -
b0b0011 7
b0b00011111 <
b0b1 C
b0b100 D
b0b1 I

#13350
b0b0 $
#13400
b0b1 $

b0b0000 7
b0b00100000 <
b0b0 C
b0b000 D
b0b01000000 H
b0b0 I

#13450
b0b0 $
#13500
b0b1 $

b0b1 &
b0b0001 7
b0b00100001 <

#13550
b0b0 $
#13600
b0b1 $

b0b0010 7
b0b00100010 <
b0b001 D

#13650
b0b0 $
#13700
b0b1 $

b0b1 -
b0b0011 7
b0b00100011 <
b0b1 B
b0b011 D
b0b1 E

#13750
b0b0 $
#13800
b0b1 $

b0b10000000 !
b0b0000 7
b0b00100100 <
b0b0 B
b0b111 D
b0b0 E

#13850
b0b0 $
#13900
b0b1 $

b0b0 &
b0b1 (
b0b0001 7
b0b00100101 <
b0b0010 >

#13950
b0b0 $
#14000
b0b1 $

b0b0010 7
b0b00100110 <
b0b110 D
b0b001 J

#14050
b0b0 $
#14100
b0b1 $

b0b1 #
b0b0 -
b0b0011 7
b0b00100111 <
b0b1 C
b0b100 D
b0b1 I
b0b011 J
b0b1 L

#14150
b0b0 $
#14200
b0b1 $

b0b1 '
b0b0000 7
b0b00101000 <
b0b0 C
b0b000 D
b0b10000000 H
b0b0 I
b0b111 J
b0b0 L

#14250
b0b0 $
#14300
b0b1 $

b0b1 &
b0b00000001 2
b0b0001 7
b0b00101001 <

#14350
b0b0 $
#14400
b0b1 $

b0b0010 7
b0b00101010 <
b0b001 D

#14450
b0b0 $
#14500
b0b1 $

b0b1 -
b0b0011 7
b0b00101011 <
b0b1 B
b0b011 D
b0b1 E

#14550
b0b0 $
#14600
b0b1 $

b0b00000001 !
b0b0000 7
b0b00101100 <
b0b0 B
b0b111 D
b0b0 E

#14650
b0b0 $
#14700
b0b1 $

b0b0 &
b0b0001 7
b0b00101101 <
b0b0001 >

#14750
b0b0 $
#14800
b0b1 $

b0b0010 7
b0b00101110 <
b0b110 D

#14850
b0b0 $
#14900
b0b1 $

b0b0 -
b0b0011 7
b0b00101111 <
b0b1 C
b0b100 D
b0b1 I

#14950
b0b0 $
#15000
b0b1 $

b0b0 '
b0b0000 7
b0b00110000 <
b0b0 C
b0b000 D
b0b00000000 H
b0b0 I

#15050
b0b0 $
#15100
b0b1 $

b0b1 &
b0b00000010 2
b0b0001 7
b0b00110001 <

#15150
b0b0 $
#15200
b0b1 $

b0b0010 7
b0b00110010 <
b0b001 D

#15250
b0b0 $
#15300
b0b1 $

b0b1 -
b0b0011 7
b0b00110011 <
b0b1 B
b0b011 D
b0b1 E

#15350
b0b0 $
#15400
b0b1 $

b0b00000011 !
b0b0000 7
b0b00110100 <
b0b0 B
b0b111 D
b0b0 E

#15450
b0b0 $
#15500
b0b1 $

b0b0 &
b0b0001 7
b0b00110101 <
b0b0000 >

#15550
b0b0 $
#15600
b0b1 $

b0b0010 7
b0b00110110 <
b0b110 D

#15650
b0b0 $
#15700
b0b1 $

b0b0 -
b0b0011 7
b0b00110111 <
b0b1 C
b0b100 D
b0b1 I

#15750
b0b0 $
#15800
b0b1 $

b0b0000 7
b0b00111000 <
b0b0 C
b0b000 D
b0b0 I

#15850
b0b0 $
#15900
b0b1 $

b0b1 &
b0b00000100 2
b0b0001 7
b0b00111001 <

#15950
b0b0 $
#16000
b0b1 $

b0b0010 7
b0b00111010 <
b0b001 D

#16050
b0b0 $
#16100
b0b1 $

b0b1 -
b0b0011 7
b0b00111011 <
b0b1 B
b0b011 D
b0b1 E

#16150
b0b0 $
#16200
b0b1 $

b0b00000111 !
b0b0000 7
b0b00111100 <
b0b0 B
b0b111 D
b0b0 E

#16250
b0b0 $
#16300
b0b1 $

b0b0 &
b0b0001 7
b0b00111101 <

#16350
b0b0 $
#16400
b0b1 $

b0b0010 7
b0b00111110 <
b0b110 D

#16450
b0b0 $
#16500
b0b1 $

b0b0 -
b0b0011 7
b0b00111111 <
b0b1 C
b0b100 D
b0b1 I

#16550
b0b0 $
#16600
b0b1 $

b0b0 6
b0b0000 7
b0b100 ;
b0b00000000 <
b0b00000100 =
b0b0 C
b0b000 D
b0b0 I

#16650
b0b0 $
#16700
b0b1 $

b0b00000001 <

#16750
b0b0 $
#16800
b0b1 $

b0b00000010 <

#16850
b0b0 $
#16900
b0b1 $

b0b00000011 <

#16950
b0b0 $
#17000
b0b1 $

b0b00000100 <

#17050
b0b0 $
#17100
b0b1 $

b0b1 %
b0b1 3
b0b1 :
b0b101 ;
b0b00000000 <
b0b1 G

#17150
b0b0 $
#17200
b0b1 $

b0b0 4
b0b00000001 <
b0b001 F

#17250
b0b0 $
#17300
b0b1 $

b0b1 )
b0b1 1
b0b00000010 <
b0b011 F

#17350
b0b0 $
#17400
b0b1 $

b0b0 )
b0b00000011 <
b0b111 F

#17450
b0b0 $
#17500
b0b1 $

b0b00000100 <

#17550
b0b0 $
#17600
b0b1 $

b0b0 3
b0b0 :
b0b001 ;
b0b00000000 <
b0b1 ?

#17650
b0b0 $
#17700
b0b1 $

b0b0 (
b0b00000000 2
b0b0111 >
b0b00000110 @

#17750
b0b0 $
#17800
b0b1 $

b0b110 J

#17850
b0b0 $
#17900
b0b1 $

b0b0 #
b0b100 J
b0b1 K

#17950
b0b0 $
#18000
b0b1 $

b0b1 0
b0b1 4
b0b1 8
b0b000 J
b0b0 K

#18050
b0b0 $
#18100
b0b1 $

b0b0 %
b0b0 /
b0b0 0
b0b0 8
b0b010 ;
b0b0 ?
b0b0 G

#18150
b0b0 $
#18200
b0b1 $

b0b00000001 <
b0b110 F

#18250
b0b0 $
#18300
b0b1 $

b0b1 ,
b0b0 1
b0b00000010 <
b0b100 F

#18350
b0b0 $
#18400
b0b1 $

b0b0 ,
b0b00000011 <
b0b000 F
b0b00000111 H

#18450
b0b0 $
#18500
b0b1 $

b0b00000100 <

#18550
b0b0 $
#18600
b0b1 $

b0b1 6
b0b011 ;
b0b00000000 <
b0b00111111 =

#18650
b0b0 $
#18700
b0b1 $

b0b1 &
b0b0001 7
b0b00000001 <

#18750
b0b0 $
#18800
b0b1 $

b0b0010 7
b0b00000010 <
b0b001 D

#18850
b0b0 $
#18900
b0b1 $

b0b1 -
b0b00001000 .
b0b1 /
b0b0011 7
b0b00000011 <
b0b1 B
b0b011 D
b0b1 E

#18950
b0b0 $
#19000
b0b1 $

b0b00001110 !
b0b0000 7
b0b00000100 <
b0b0 B
b0b111 D
b0b0 E

#19050
b0b0 $
#19100
b0b1 $

b0b0 &
b0b0001 7
b0b00000101 <
b0b0110 >

#19150
b0b0 $
#19200
b0b1 $

b0b0010 7
b0b00000110 <
b0b110 D

#19250
b0b0 $
#19300
b0b1 $

b0b0 -
b0b0011 7
b0b00000111 <
b0b1 C
b0b100 D
b0b1 I

#19350
b0b0 $
#19400
b0b1 $

b0b0000 7
b0b00001000 <
b0b0 C
b0b000 D
b0b00001110 H
b0b0 I

#19450
b0b0 $
#19500
b0b1 $

b0b1 &
b0b0001 7
b0b00001001 <

#19550
b0b0 $
#19600
b0b1 $

b0b0010 7
b0b00001010 <
b0b001 D

#19650
b0b0 $
#19700
b0b1 $

b0b1 -
b0b0011 7
b0b00001011 <
b0b1 B
b0b011 D
b0b1 E

#19750
b0b0 $
#19800
b0b1 $

b0b00011100 !
b0b0000 7
b0b00001100 <
b0b0 B
b0b111 D
b0b0 E

#19850
b0b0 $
#19900
b0b1 $

b0b0 &
b0b0001 7
b0b00001101 <
b0b0101 >

#19950
b0b0 $
#20000
b0b1 $

b0b0010 7
b0b00001110 <
b0b110 D

#20050
b0b0 $
#20100
b0b1 $

b0b0 -
b0b0011 7
b0b00001111 <
b0b1 C
b0b100 D
b0b1 I

#20150
b0b0 $
#20200
b0b1 $

b0b0000 7
b0b00010000 <
b0b0 C
b0b000 D
b0b00011100 H
b0b0 I

#20250
b0b0 $
#20300
b0b1 $

b0b1 &
b0b0001 7
b0b00010001 <

#20350
b0b0 $
#20400
b0b1 $

b0b0010 7
b0b00010010 <
b0b001 D

#20450
b0b0 $
#20500
b0b1 $

b0b1 -
b0b0011 7
b0b00010011 <
b0b1 B
b0b011 D
b0b1 E

#20550
b0b0 $
#20600
b0b1 $

b0b00111000 !
b0b0000 7
b0b00010100 <
b0b0 B
b0b111 D
b0b0 E

#20650
b0b0 $
#20700
b0b1 $

b0b0 &
b0b0001 7
b0b00010101 <
b0b0100 >

#20750
b0b0 $
#20800
b0b1 $

b0b0010 7
b0b00010110 <
b0b110 D

#20850
b0b0 $
#20900
b0b1 $

b0b0 -
b0b0011 7
b0b00010111 <
b0b1 C
b0b100 D
b0b1 I

#20950
b0b0 $
#21000
b0b1 $

b0b0000 7
b0b00011000 <
b0b0 C
b0b000 D
b0b00111000 H
b0b0 I

#21050
b0b0 $
#21100
b0b1 $

b0b1 &
b0b0001 7
b0b00011001 <

#21150
b0b0 $
#21200
b0b1 $

b0b0010 7
b0b00011010 <
b0b001 D

#21250
b0b0 $
#21300
b0b1 $

b0b1 -
b0b0011 7
b0b00011011 <
b0b1 B
b0b011 D
b0b1 E

#21350
b0b0 $
#21400
b0b1 $

b0b01110000 !
b0b0000 7
b0b00011100 <
b0b0 B
b0b111 D
b0b0 E

#21450
b0b0 $
#21500
b0b1 $

b0b0 &
b0b0001 7
b0b00011101 <
b0b0011 >

#21550
b0b0 $
#21600
b0b1 $

b0b0010 7
b0b00011110 <
b0b110 D

#21650
b0b0 $
#21700
b0b1 $

b0b0 -
b0b0011 7
b0b00011111 <
b0b1 C
b0b100 D
b0b1 I

#21750
b0b0 $
#21800
b0b1 $

b0b0000 7
b0b00100000 <
b0b0 C
b0b000 D
b0b01110000 H
b0b0 I

#21850
b0b0 $
#21900
b0b1 $

b0b1 &
b0b0001 7
b0b00100001 <

#21950
b0b0 $
#22000
b0b1 $

b0b0010 7
b0b00100010 <
b0b001 D

#22050
b0b0 $
#22100
b0b1 $

b0b1 -
b0b0011 7
b0b00100011 <
b0b1 B
b0b011 D
b0b1 E

#22150
b0b0 $
#22200
b0b1 $

b0b11100000 !
b0b0000 7
b0b00100100 <
b0b0 B
b0b111 D
b0b0 E

#22250
b0b0 $
#22300
b0b1 $

b0b0 &
b0b1 (
b0b0001 7
b0b00100101 <
b0b0010 >

#22350
b0b0 $
#22400
b0b1 $

b0b0010 7
b0b00100110 <
b0b110 D
b0b001 J

#22450
b0b0 $
#22500
b0b1 $

b0b1 #
b0b0 -
b0b0011 7
b0b00100111 <
b0b1 C
b0b100 D
b0b1 I
b0b011 J
b0b1 L

#22550
b0b0 $
#22600
b0b1 $

b0b1 '
b0b0000 7
b0b00101000 <
b0b0 C
b0b000 D
b0b11100000 H
b0b0 I
b0b111 J
b0b0 L

#22650
b0b0 $
#22700
b0b1 $

b0b1 &
b0b00000001 2
b0b0001 7
b0b00101001 <

#22750
b0b0 $
#22800
b0b1 $

b0b0010 7
b0b00101010 <
b0b001 D

#22850
b0b0 $
#22900
b0b1 $

b0b1 -
b0b0011 7
b0b00101011 <
b0b1 B
b0b011 D
b0b1 E

#22950
b0b0 $
#23000
b0b1 $

b0b11000001 !
b0b0000 7
b0b00101100 <
b0b0 B
b0b111 D
b0b0 E

#23050
b0b0 $
#23100
b0b1 $

b0b0 &
b0b0001 7
b0b00101101 <
b0b0001 >

#23150
b0b0 $
#23200
b0b1 $

b0b0010 7
b0b00101110 <
b0b110 D

#23250
b0b0 $
