Vcdwavedir/TestBench.sim__test_stack_12bit_larger_0x0.vcd
$date
  Tue Mar 22 19:59:04 2022
$end
$version
  PyMTL 3 (Mamba)
$end
$timescale
 10ps
$end

$scope module top $end
  $var reg 1 % clk $end
  $var reg 1 & reset $end
  $scope module slave $end
    $var reg 12 6 pull.msg $end
    $var reg 1 , slave_inter.cs $end
    $var reg 1 ) push.en $end
    $var reg 1 + slave_inter.sclk $end
    $var reg 1 & reset $end
    $var reg 1 - slave_inter.miso $end
    $var reg 1 # pull.en $end
    $var reg 12 0 push.msg $end
    $var reg 1 / slave_inter.mosi $end
    $var reg 1 % clk $end
    $scope module mosi_sync $end
      $var reg 1 & reset $end
      $var reg 1 / in_ $end
      $var reg 1 % clk $end
      $var reg 1 7 posedge_ $end
      $var reg 1 8 negedge_ $end
      $var reg 3 9 shreg $end
      $var reg 1 4 out $end
    $upscope $end
    $scope module cs_sync $end
      $var reg 3 : shreg $end
      $var reg 1 ' out $end
      $var reg 1 % clk $end
      $var reg 1 ) posedge_ $end
      $var reg 1 & reset $end
      $var reg 1 # negedge_ $end
      $var reg 1 ; in_ $end
    $upscope $end
    $scope module shreg_out $end
      $var reg 1 # load_en $end
      $var reg 1 & reset $end
      $var reg 1 3 in_ $end
      $var reg 1 % clk $end
      $var reg 1 < shift_en $end
      $var reg 12 0 load_data $end
      $var reg 12 = out $end
    $upscope $end
    $scope module shreg_in $end
      $var reg 1 4 in_ $end
      $var reg 1 2 load_en $end
      $var reg 12 5 load_data $end
      $var reg 12 0 out $end
      $var reg 1 > shift_en $end
      $var reg 1 % clk $end
      $var reg 1 & reset $end
    $upscope $end
    $scope module sclk_sync $end
      $var reg 3 ? shreg $end
      $var reg 1 1 out $end
      $var reg 1 % clk $end
      $var reg 1 @ posedge_ $end
      $var reg 1 + in_ $end
      $var reg 1 A negedge_ $end
      $var reg 1 & reset $end
    $upscope $end
  $upscope $end
  $scope module src $end
    $var reg 1 ( send.val $end
    $var reg 1 & reset $end
    $var reg 1 " send.rdy $end
    $var reg 12 * send.msg $end
    $var reg 1 % clk $end
  $upscope $end
  $scope module master $end
    $var reg 1 ! resp.val $end
    $var reg 4 B mosi_reg_pointer $end
    $var reg 1 & reset $end
    $var reg 1 - master_infer.miso $end
    $var reg 12 $ miso_reg $end
    $var reg 8 C cntr_max $end
    $var reg 1 D result_read $end
    $var reg 8 E cntr $end
    $var reg 1 " req.rdy $end
    $var reg 12 * req.msg $end
    $var reg 1 F val_progressing $end
    $var reg 12 $ resp.msg $end
    $var reg 3 G state $end
    $var reg 1 H msg_from_slave $end
    $var reg 1 , master_infer.cs $end
    $var reg 1 I sclk_en $end
    $var reg 1 . resp.rdy $end
    $var reg 1 % clk $end
    $var reg 4 J sclk_cntr $end
    $var reg 1 ( req.val $end
    $var reg 1 / master_infer.mosi $end
    $var reg 1 + master_infer.sclk $end
    $scope module mosi_reg $end
      $var reg 1 K en $end
      $var reg 1 % clk $end
      $var reg 1 & reset $end
      $var reg 12 L out $end
      $var reg 12 * in_ $end
    $upscope $end
  $upscope $end
  $scope module sink $end
    $var reg 1 ! recv.val $end
    $var reg 1 % clk $end
    $var reg 12 $ recv.msg $end
    $var reg 1 . recv.rdy $end
    $var reg 1 & reset $end
  $upscope $end
$upscope $end
$enddefinitions $end

b0b0 !
b0b0 "
b0b0 #
b0b000000000000 $
b0b0 %
b0b0 &
b0b0 '
b0b0 (
b0b0 )
b0b000000000000 *
b0b0 +
b0b0 ,
b0b0 -
b0b0 .
b0b0 /
b0b000000000000 0
b0b0 1
b0b0 2
b0b0 3
b0b0 4
b0b000000000000 5
b0b000000000000 6
b0b0 7
b0b0 8
b0b000 9
b0b000 :
b0b0 ;
b0b0 <
b0b000000000000 =
b0b0 >
b0b000 ?
b0b0 @
b0b0 A
b0b0000 B
b0b00000000 C
b0b0 D
b0b00000000 E
b0b0 F
b0b000 G
b0b0 H
b0b0 I
b0b0000 J
b0b0 K
b0b000000000000 L

#0
b0b1 %

b0b1 &
b0b000000000000 *
b0b0 +
b0b1 ,
b0b000000000000 0
b0b0 1
b0b000000000000 5
b0b0 7
b0b000 9
b0b1 ;
b0b000000000000 =
b0b0 >
b0b000 ?
b0b0 @
b0b0000 B
b0b00000100 C
b0b0 D
b0b00000000 E
b0b0 F
b0b000 G
b0b0 H
b0b0000 J
b0b0 K
b0b000000000000 L

#50
b0b0 %
#100
b0b1 %

b0b1 "
b0b1 .
b0b001 :
b0b1 D
b0b00000001 E
b0b001 G

#150
b0b0 %
#200
b0b1 %

b0b0 "
b0b1 '
b0b1 )
b0b011 :
b0b1011 B
b0b0 D
b0b00000000 E
b0b000 G

#250
b0b0 %
#300
b0b1 %

b0b1 "
b0b0 &
b0b0 )
b0b111 :
b0b1 D
b0b00000001 E
b0b001 G

#350
b0b0 %
#400
b0b1 %

b0b1 (
b0b000101001101 *
b0b00000000 E
b0b1 F
b0b1 K

#450
b0b0 %
#500
b0b1 %

b0b0 "
b0b000011011110 *
b0b0 ,
b0b0 ;
b0b0 D
b0b010 G
b0b0 K
b0b000101001101 L

#550
b0b0 %
#600
b0b1 %

b0b110 :
b0b00000001 E

#650
b0b0 %
#700
b0b1 %

b0b1 #
b0b0 '
b0b100 :
b0b00000010 E

#750
b0b0 %
#800
b0b1 %

b0b0 #
b0b000 :
b0b00000011 E

#850
b0b0 %
#900
b0b1 %

b0b00000100 E

#950
b0b0 %
#1000
b0b1 %

b0b01011111 C
b0b00000000 E
b0b011 G
b0b1 I

#1050
b0b0 %
#1100
b0b1 %

b0b1 +
b0b00000001 E
b0b0001 J

#1150
b0b0 %
#1200
b0b1 %

b0b001 ?
b0b00000010 E
b0b0010 J

#1250
b0b0 %
#1300
b0b1 %

b0b1 1
b0b1 >
b0b011 ?
b0b1 @
b0b00000011 E
b0b0011 J

#1350
b0b0 %
#1400
b0b1 %

b0b0 >
b0b111 ?
b0b0 @
b0b00000100 E
b0b0000 J

#1450
b0b0 %
#1500
b0b1 %

b0b0 +
b0b1010 B
b0b00000101 E
b0b0001 J

#1550
b0b0 %
#1600
b0b1 %

b0b110 ?
b0b00000110 E
b0b0010 J

#1650
b0b0 %
#1700
b0b1 %

b0b0 1
b0b1 <
b0b100 ?
b0b1 A
b0b00000111 E
b0b0011 J

#1750
b0b0 %
#1800
b0b1 %

b0b0 <
b0b000 ?
b0b0 A
b0b00001000 E
b0b0000 J

#1850
b0b0 %
#1900
b0b1 %

b0b1 +
b0b00001001 E
b0b0001 J

#1950
b0b0 %
#2000
b0b1 %

b0b001 ?
b0b00001010 E
b0b0010 J

#2050
b0b0 %
#2100
b0b1 %

b0b1 1
b0b1 >
b0b011 ?
b0b1 @
b0b00001011 E
b0b0011 J

#2150
b0b0 %
#2200
b0b1 %

b0b0 >
b0b111 ?
b0b0 @
b0b00001100 E
b0b0000 J

#2250
b0b0 %
#2300
b0b1 %

b0b0 +
b0b1001 B
b0b00001101 E
b0b0001 J

#2350
b0b0 %
#2400
b0b1 %

b0b110 ?
b0b00001110 E
b0b0010 J

#2450
b0b0 %
#2500
b0b1 %

b0b0 1
b0b1 <
b0b100 ?
b0b1 A
b0b00001111 E
b0b0011 J

#2550
b0b0 %
#2600
b0b1 %

b0b0 <
b0b000 ?
b0b0 A
b0b00010000 E
b0b0000 J

#2650
b0b0 %
#2700
b0b1 %

b0b1 +
b0b00010001 E
b0b0001 J

#2750
b0b0 %
#2800
b0b1 %

b0b001 ?
b0b00010010 E
b0b0010 J

#2850
b0b0 %
#2900
b0b1 %

b0b1 1
b0b1 >
b0b011 ?
b0b1 @
b0b00010011 E
b0b0011 J

#2950
b0b0 %
#3000
b0b1 %

b0b0 >
b0b111 ?
b0b0 @
b0b00010100 E
b0b0000 J

#3050
b0b0 %
#3100
b0b1 %

b0b0 +
b0b1 /
b0b1000 B
b0b00010101 E
b0b0001 J

#3150
b0b0 %
#3200
b0b1 %

b0b001 9
b0b110 ?
b0b00010110 E
b0b0010 J

#3250
b0b0 %
#3300
b0b1 %

b0b0 1
b0b1 4
b0b1 7
b0b011 9
b0b1 <
b0b100 ?
b0b1 A
b0b00010111 E
b0b0011 J

#3350
b0b0 %
#3400
b0b1 %

b0b0 7
b0b111 9
b0b0 <
b0b000 ?
b0b0 A
b0b00011000 E
b0b0000 J

#3450
b0b0 %
#3500
b0b1 %

b0b1 +
b0b00011001 E
b0b0001 J

#3550
b0b0 %
#3600
b0b1 %

b0b001 ?
b0b00011010 E
b0b0010 J

#3650
b0b0 %
#3700
b0b1 %

b0b1 1
b0b1 >
b0b011 ?
b0b1 @
b0b00011011 E
b0b0011 J

#3750
b0b0 %
#3800
b0b1 %

b0b000000000001 0
b0b0 >
b0b111 ?
b0b0 @
b0b00011100 E
b0b0000 J

#3850
b0b0 %
#3900
b0b1 %

b0b0 +
b0b0 /
b0b0111 B
b0b00011101 E
b0b0001 J

#3950
b0b0 %
#4000
b0b1 %

b0b110 9
b0b110 ?
b0b00011110 E
b0b0010 J

#4050
b0b0 %
#4100
b0b1 %

b0b0 1
b0b0 4
b0b1 8
b0b100 9
b0b1 <
b0b100 ?
b0b1 A
b0b00011111 E
b0b0011 J

#4150
b0b0 %
#4200
b0b1 %

b0b0 8
b0b000 9
b0b0 <
b0b000 ?
b0b0 A
b0b00100000 E
b0b0000 J

#4250
b0b0 %
#4300
b0b1 %

b0b1 +
b0b00100001 E
b0b0001 J

#4350
b0b0 %
#4400
b0b1 %

b0b001 ?
b0b00100010 E
b0b0010 J

#4450
b0b0 %
#4500
b0b1 %

b0b1 1
b0b1 >
b0b011 ?
b0b1 @
b0b00100011 E
b0b0011 J

#4550
b0b0 %
#4600
b0b1 %

b0b000000000010 0
b0b0 >
b0b111 ?
b0b0 @
b0b00100100 E
b0b0000 J

#4650
b0b0 %
#4700
b0b1 %

b0b0 +
b0b1 /
b0b0110 B
b0b00100101 E
b0b0001 J

#4750
b0b0 %
#4800
b0b1 %

b0b001 9
b0b110 ?
b0b00100110 E
b0b0010 J

#4850
b0b0 %
#4900
b0b1 %

b0b0 1
b0b1 4
b0b1 7
b0b011 9
b0b1 <
b0b100 ?
b0b1 A
b0b00100111 E
b0b0011 J

#4950
b0b0 %
#5000
b0b1 %

b0b0 7
b0b111 9
b0b0 <
b0b000 ?
b0b0 A
b0b00101000 E
b0b0000 J

#5050
b0b0 %
#5100
b0b1 %

b0b1 +
b0b00101001 E
b0b0001 J

#5150
b0b0 %
#5200
b0b1 %

b0b001 ?
b0b00101010 E
b0b0010 J

#5250
b0b0 %
#5300
b0b1 %

b0b1 1
b0b1 >
b0b011 ?
b0b1 @
b0b00101011 E
b0b0011 J

#5350
b0b0 %
#5400
b0b1 %

b0b000000000101 0
b0b0 >
b0b111 ?
b0b0 @
b0b00101100 E
b0b0000 J

#5450
b0b0 %
#5500
b0b1 %

b0b0 +
b0b0 /
b0b0101 B
b0b00101101 E
b0b0001 J

#5550
b0b0 %
#5600
b0b1 %

b0b110 9
b0b110 ?
b0b00101110 E
b0b0010 J

#5650
b0b0 %
#5700
b0b1 %

b0b0 1
b0b0 4
b0b1 8
b0b100 9
b0b1 <
b0b100 ?
b0b1 A
b0b00101111 E
b0b0011 J

#5750
b0b0 %
#5800
b0b1 %

b0b0 8
b0b000 9
b0b0 <
b0b000 ?
b0b0 A
b0b00110000 E
b0b0000 J

#5850
b0b0 %
#5900
b0b1 %

b0b1 +
b0b00110001 E
b0b0001 J

#5950
b0b0 %
#6000
b0b1 %

b0b001 ?
b0b00110010 E
b0b0010 J

#6050
b0b0 %
#6100
b0b1 %

b0b1 1
b0b1 >
b0b011 ?
b0b1 @
b0b00110011 E
b0b0011 J

#6150
b0b0 %
#6200
b0b1 %

b0b000000001010 0
b0b0 >
b0b111 ?
b0b0 @
b0b00110100 E
b0b0000 J

#6250
b0b0 %
#6300
b0b1 %

b0b0 +
b0b0100 B
b0b00110101 E
b0b0001 J

#6350
b0b0 %
#6400
b0b1 %

b0b110 ?
b0b00110110 E
b0b0010 J

#6450
b0b0 %
#6500
b0b1 %

b0b0 1
b0b1 <
b0b100 ?
b0b1 A
b0b00110111 E
b0b0011 J

#6550
b0b0 %
#6600
b0b1 %

b0b0 <
b0b000 ?
b0b0 A
b0b00111000 E
b0b0000 J

#6650
b0b0 %
#6700
b0b1 %

b0b1 +
b0b00111001 E
b0b0001 J

#6750
b0b0 %
#6800
b0b1 %

b0b001 ?
b0b00111010 E
b0b0010 J

#6850
b0b0 %
#6900
b0b1 %

b0b1 1
b0b1 >
b0b011 ?
b0b1 @
b0b00111011 E
b0b0011 J

#6950
b0b0 %
#7000
b0b1 %

b0b000000010100 0
b0b0 >
b0b111 ?
b0b0 @
b0b00111100 E
b0b0000 J

#7050
b0b0 %
#7100
b0b1 %

b0b0 +
b0b1 /
b0b0011 B
b0b00111101 E
b0b0001 J

#7150
b0b0 %
#7200
b0b1 %

b0b001 9
b0b110 ?
b0b00111110 E
b0b0010 J

#7250
b0b0 %
#7300
b0b1 %

b0b0 1
b0b1 4
b0b1 7
b0b011 9
b0b1 <
b0b100 ?
b0b1 A
b0b00111111 E
b0b0011 J

#7350
b0b0 %
#7400
b0b1 %

b0b0 7
b0b111 9
b0b0 <
b0b000 ?
b0b0 A
b0b01000000 E
b0b0000 J

#7450
b0b0 %
#7500
b0b1 %

b0b1 +
b0b01000001 E
b0b0001 J

#7550
b0b0 %
#7600
b0b1 %

b0b001 ?
b0b01000010 E
b0b0010 J

#7650
b0b0 %
#7700
b0b1 %

b0b1 1
b0b1 >
b0b011 ?
b0b1 @
b0b01000011 E
b0b0011 J

#7750
b0b0 %
#7800
b0b1 %

b0b000000101001 0
b0b0 >
b0b111 ?
b0b0 @
b0b01000100 E
b0b0000 J

#7850
b0b0 %
#7900
b0b1 %

b0b0 +
b0b0010 B
b0b01000101 E
b0b0001 J

#7950
b0b0 %
#8000
b0b1 %

b0b110 ?
b0b01000110 E
b0b0010 J

#8050
b0b0 %
#8100
b0b1 %

b0b0 1
b0b1 <
b0b100 ?
b0b1 A
b0b01000111 E
b0b0011 J

#8150
b0b0 %
#8200
b0b1 %

b0b0 <
b0b000 ?
b0b0 A
b0b01001000 E
b0b0000 J

#8250
b0b0 %
#8300
b0b1 %

b0b1 +
b0b01001001 E
b0b0001 J

#8350
b0b0 %
#8400
b0b1 %

b0b001 ?
b0b01001010 E
b0b0010 J

#8450
b0b0 %
#8500
b0b1 %

b0b1 1
b0b1 >
b0b011 ?
b0b1 @
b0b01001011 E
b0b0011 J

#8550
b0b0 %
#8600
b0b1 %

b0b000001010011 0
b0b0 >
b0b111 ?
b0b0 @
b0b01001100 E
b0b0000 J

#8650
b0b0 %
#8700
b0b1 %

b0b0 +
b0b0 /
b0b0001 B
b0b01001101 E
b0b0001 J

#8750
b0b0 %
#8800
b0b1 %

b0b110 9
b0b110 ?
b0b01001110 E
b0b0010 J

#8850
b0b0 %
#8900
b0b1 %

b0b0 1
b0b0 4
b0b1 8
b0b100 9
b0b1 <
b0b100 ?
b0b1 A
b0b01001111 E
b0b0011 J

#8950
b0b0 %
#9000
b0b1 %

b0b0 8
b0b000 9
b0b0 <
b0b000 ?
b0b0 A
b0b01010000 E
b0b0000 J

#9050
b0b0 %
#9100
b0b1 %

b0b1 +
b0b01010001 E
b0b0001 J

#9150
b0b0 %
#9200
b0b1 %

b0b001 ?
b0b01010010 E
b0b0010 J

#9250
b0b0 %
#9300
b0b1 %

b0b1 1
b0b1 >
b0b011 ?
b0b1 @
b0b01010011 E
b0b0011 J

#9350
b0b0 %
#9400
b0b1 %

b0b000010100110 0
b0b0 >
b0b111 ?
b0b0 @
b0b01010100 E
b0b0000 J

#9450
b0b0 %
#9500
b0b1 %

b0b0 +
b0b1 /
b0b0000 B
b0b01010101 E
b0b0001 J

#9550
b0b0 %
#9600
b0b1 %

b0b001 9
b0b110 ?
b0b01010110 E
b0b0010 J

#9650
b0b0 %
#9700
b0b1 %

b0b0 1
b0b1 4
b0b1 7
b0b011 9
b0b1 <
b0b100 ?
b0b1 A
b0b01010111 E
b0b0011 J

#9750
b0b0 %
#9800
b0b1 %

b0b0 7
b0b111 9
b0b0 <
b0b000 ?
b0b0 A
b0b01011000 E
b0b0000 J

#9850
b0b0 %
#9900
b0b1 %

b0b1 +
b0b01011001 E
b0b0001 J

#9950
b0b0 %
#10000
b0b1 %

b0b001 ?
b0b01011010 E
b0b0010 J

#10050
b0b0 %
#10100
b0b1 %

b0b1 1
b0b1 >
b0b011 ?
b0b1 @
b0b01011011 E
b0b0011 J

#10150
b0b0 %
#10200
b0b1 %

b0b000101001101 0
b0b0 >
b0b111 ?
b0b0 @
b0b01011100 E
b0b0000 J

#10250
b0b0 %
#10300
b0b1 %

b0b0 +
b0b01011101 E
b0b0001 J

#10350
b0b0 %
#10400
b0b1 %

b0b110 ?
b0b01011110 E
b0b0010 J

#10450
b0b0 %
#10500
b0b1 %

b0b0 1
b0b1 <
b0b100 ?
b0b1 A
b0b01011111 E
b0b0011 J

#10550
b0b0 %
#10600
b0b1 %

b0b0 <
b0b000 ?
b0b0 A
b0b00000100 C
b0b00000000 E
b0b100 G
b0b0 I
b0b0000 J

#10650
b0b0 %
#10700
b0b1 %

b0b00000001 E

#10750
b0b0 %
#10800
b0b1 %

b0b00000010 E

#10850
b0b0 %
#10900
b0b1 %

b0b00000011 E

#10950
b0b0 %
#11000
b0b1 %

b0b00000100 E

#11050
b0b0 %
#11100
b0b1 %

b0b1 !
b0b1 ,
b0b1 ;
b0b00000000 E
b0b101 G
b0b1 H

#11150
b0b0 %
#11200
b0b1 %

b0b0 !
b0b001 :
b0b1 D
b0b00000001 E

#11250
b0b0 %
#11300
b0b1 %

b0b1 '
b0b1 )
b0b011 :
b0b00000010 E

#11350
b0b0 %
#11400
b0b1 %

b0b0 )
b0b111 :
b0b00000011 E

#11450
b0b0 %
#11500
b0b1 %

b0b00000100 E

#11550
b0b0 %
#11600
b0b1 %

b0b1 "
b0b00000000 E
b0b001 G
b0b0 H
b0b1 K

#11650
b0b0 %
#11700
b0b1 %

b0b0 "
b0b001000101011 *
b0b0 ,
b0b0 /
b0b0 ;
b0b1011 B
b0b0 D
b0b010 G
b0b0 K
b0b000011011110 L

#11750
b0b0 %
#11800
b0b1 %

b0b110 9
b0b110 :
b0b00000001 E

#11850
b0b0 %
#11900
b0b1 %

b0b1 #
b0b0 '
b0b0 4
b0b1 8
b0b100 9
b0b100 :
b0b00000010 E

#11950
b0b0 %
#12000
b0b1 %

b0b0 #
b0b0 8
b0b000 9
b0b000 :
b0b000101001101 =
b0b00000011 E

#12050
b0b0 %
#12100
b0b1 %

b0b00000100 E

#12150
b0b0 %
#12200
b0b1 %

b0b01011111 C
b0b00000000 E
b0b011 G
b0b1 I

#12250
b0b0 %
#12300
b0b1 %

b0b1 +
b0b00000001 E
b0b0001 J

#12350
b0b0 %
#12400
b0b1 %

b0b001 ?
b0b00000010 E
b0b0010 J

#12450
b0b0 %
#12500
b0b1 %

b0b1 1
b0b1 >
b0b011 ?
b0b1 @
b0b00000011 E
b0b0011 J

#12550
b0b0 %
#12600
b0b1 %

b0b001010011010 0
b0b0 >
b0b111 ?
b0b0 @
b0b00000100 E
b0b0000 J

#12650
b0b0 %
#12700
b0b1 %

b0b0 +
b0b1010 B
b0b00000101 E
b0b0001 J

#12750
b0b0 %
#12800
b0b1 %

b0b110 ?
b0b00000110 E
b0b0010 J

#12850
b0b0 %
#12900
b0b1 %

b0b0 1
b0b1 <
b0b100 ?
b0b1 A
b0b00000111 E
b0b0011 J

#12950
b0b0 %
#13000
b0b1 %

b0b0 <
b0b001010011010 =
b0b000 ?
b0b0 A
b0b00001000 E
b0b0000 J

#13050
b0b0 %
#13100
b0b1 %

b0b1 +
b0b00001001 E
b0b0001 J

#13150
b0b0 %
#13200
b0b1 %

b0b001 ?
b0b00001010 E
b0b0010 J

#13250
b0b0 %
#13300
b0b1 %

b0b1 1
b0b1 >
b0b011 ?
b0b1 @
b0b00001011 E
b0b0011 J

#13350
b0b0 %
#13400
b0b1 %

b0b010100110100 0
b0b0 >
b0b111 ?
b0b0 @
b0b00001100 E
b0b0000 J

#13450
b0b0 %
#13500
b0b1 %

b0b0 +
b0b1001 B
b0b00001101 E
b0b0001 J

#13550
b0b0 %
#13600
b0b1 %

b0b110 ?
b0b00001110 E
b0b0010 J

#13650
b0b0 %
#13700
b0b1 %

b0b0 1
b0b1 <
b0b100 ?
b0b1 A
b0b00001111 E
b0b0011 J

#13750
b0b0 %
#13800
b0b1 %

b0b0 <
b0b010100110100 =
b0b000 ?
b0b0 A
b0b00010000 E
b0b0000 J

#13850
b0b0 %
#13900
b0b1 %

b0b1 +
b0b00010001 E
b0b0001 J

#13950
b0b0 %
#14000
b0b1 %

b0b001 ?
b0b00010010 E
b0b0010 J

#14050
b0b0 %
#14100
b0b1 %

b0b1 1
b0b1 >
b0b011 ?
b0b1 @
b0b00010011 E
b0b0011 J

#14150
b0b0 %
#14200
b0b1 %

b0b101001101000 0
b0b0 >
b0b111 ?
b0b0 @
b0b00010100 E
b0b0000 J

#14250
b0b0 %
#14300
b0b1 %

b0b0 +
b0b1000 B
b0b00010101 E
b0b0001 J

#14350
b0b0 %
#14400
b0b1 %

b0b110 ?
b0b00010110 E
b0b0010 J

#14450
b0b0 %
#14500
b0b1 %

b0b0 1
b0b1 <
b0b100 ?
b0b1 A
b0b00010111 E
b0b0011 J

#14550
b0b0 %
#14600
b0b1 %

b0b1 -
b0b0 <
b0b101001101000 =
b0b000 ?
b0b0 A
b0b00011000 E
b0b0000 J

#14650
b0b0 %
#14700
b0b1 %

b0b000000000001 $
b0b1 +
b0b00011001 E
b0b0001 J

#14750
b0b0 %
#14800
b0b1 %

b0b001 ?
b0b00011010 E
b0b0010 J

#14850
b0b0 %
#14900
b0b1 %

b0b1 1
b0b1 >
b0b011 ?
b0b1 @
b0b00011011 E
b0b0011 J

#14950
b0b0 %
#15000
b0b1 %

b0b010011010000 0
b0b0 >
b0b111 ?
b0b0 @
b0b00011100 E
b0b0000 J

#15050
b0b0 %
#15100
b0b1 %

b0b0 +
b0b1 /
b0b0111 B
b0b00011101 E
b0b0001 J

#15150
b0b0 %
#15200
b0b1 %

b0b001 9
b0b110 ?
b0b00011110 E
b0b0010 J

#15250
b0b0 %
#15300
b0b1 %

b0b0 1
b0b1 4
b0b1 7
b0b011 9
b0b1 <
b0b100 ?
b0b1 A
b0b00011111 E
b0b0011 J

#15350
b0b0 %
#15400
b0b1 %

b0b0 -
b0b0 7
b0b111 9
b0b0 <
b0b010011010000 =
b0b000 ?
b0b0 A
b0b00100000 E
b0b0000 J

#15450
b0b0 %
#15500
b0b1 %

b0b000000000010 $
b0b1 +
b0b00100001 E
b0b0001 J

#15550
b0b0 %
#15600
b0b1 %

b0b001 ?
b0b00100010 E
b0b0010 J

#15650
b0b0 %
#15700
b0b1 %

b0b1 1
b0b1 >
b0b011 ?
b0b1 @
b0b00100011 E
b0b0011 J

#15750
b0b0 %
#15800
b0b1 %

b0b100110100001 0
b0b0 >
b0b111 ?
b0b0 @
b0b00100100 E
b0b0000 J

#15850
b0b0 %
#15900
b0b1 %

b0b0 +
b0b0110 B
b0b00100101 E
b0b0001 J

#15950
b0b0 %
#16000
b0b1 %

b0b110 ?
b0b00100110 E
b0b0010 J

#16050
b0b0 %
#16100
b0b1 %

b0b0 1
b0b1 <
b0b100 ?
b0b1 A
b0b00100111 E
b0b0011 J

#16150
b0b0 %
#16200
b0b1 %

b0b1 -
b0b0 <
b0b100110100000 =
b0b000 ?
b0b0 A
b0b00101000 E
b0b0000 J

#16250
b0b0 %
#16300
b0b1 %

b0b000000000101 $
b0b1 +
b0b00101001 E
b0b0001 J

#16350
b0b0 %
#16400
b0b1 %

b0b001 ?
b0b00101010 E
b0b0010 J

#16450
b0b0 %
#16500
b0b1 %

b0b1 1
b0b1 >
b0b011 ?
b0b1 @
b0b00101011 E
b0b0011 J

#16550
b0b0 %
#16600
b0b1 %

b0b001101000011 0
b0b0 >
b0b111 ?
b0b0 @
b0b00101100 E
b0b0000 J

#16650
b0b0 %
#16700
b0b1 %

b0b0 +
b0b0 /
b0b0101 B
b0b00101101 E
b0b0001 J

#16750
b0b0 %
#16800
b0b1 %

b0b110 9
b0b110 ?
b0b00101110 E
b0b0010 J

#16850
b0b0 %
#16900
b0b1 %

b0b0 1
b0b0 4
b0b1 8
b0b100 9
b0b1 <
b0b100 ?
b0b1 A
b0b00101111 E
b0b0011 J

#16950
b0b0 %
#17000
b0b1 %

b0b0 -
b0b0 8
b0b000 9
b0b0 <
b0b001101000000 =
b0b000 ?
b0b0 A
b0b00110000 E
b0b0000 J

#17050
b0b0 %
#17100
b0b1 %

b0b000000001010 $
b0b1 +
b0b00110001 E
b0b0001 J

#17150
b0b0 %
#17200
b0b1 %

b0b001 ?
b0b00110010 E
b0b0010 J

#17250
b0b0 %
#17300
b0b1 %

b0b1 1
b0b1 >
b0b011 ?
b0b1 @
b0b00110011 E
b0b0011 J

#17350
b0b0 %
#17400
b0b1 %

b0b011010000110 0
b0b0 >
b0b111 ?
b0b0 @
b0b00110100 E
b0b0000 J

#17450
b0b0 %
#17500
b0b1 %

b0b0 +
b0b1 /
b0b0100 B
b0b00110101 E
b0b0001 J

#17550
b0b0 %
#17600
b0b1 %

b0b001 9
b0b110 ?
b0b00110110 E
b0b0010 J

#17650
b0b0 %
#17700
b0b1 %

b0b0 1
b0b1 4
b0b1 7
b0b011 9
b0b1 <
b0b100 ?
b0b1 A
b0b00110111 E
b0b0011 J

#17750
b0b0 %
#17800
b0b1 %

b0b0 7
b0b111 9
b0b0 <
b0b011010000000 =
b0b000 ?
b0b0 A
b0b00111000 E
b0b0000 J

#17850
b0b0 %
#17900
b0b1 %

b0b000000010100 $
b0b1 +
b0b00111001 E
b0b0001 J

#17950
b0b0 %
#18000
b0b1 %

b0b001 ?
b0b00111010 E
b0b0010 J

#18050
b0b0 %
#18100
b0b1 %

b0b1 1
b0b1 >
b0b011 ?
b0b1 @
b0b00111011 E
b0b0011 J

#18150
b0b0 %
#18200
b0b1 %

b0b110100001101 0
b0b0 >
b0b111 ?
b0b0 @
b0b00111100 E
b0b0000 J

#18250
b0b0 %
#18300
b0b1 %

b0b0 +
b0b0011 B
b0b00111101 E
b0b0001 J

#18350
b0b0 %
#18400
b0b1 %

b0b110 ?
b0b00111110 E
b0b0010 J

#18450
b0b0 %
#18500
b0b1 %

b0b0 1
b0b1 <
b0b100 ?
b0b1 A
b0b00111111 E
b0b0011 J

#18550
b0b0 %
#18600
b0b1 %

b0b1 -
b0b0 <
b0b110100000000 =
b0b000 ?
b0b0 A
b0b01000000 E
b0b0000 J

#18650
b0b0 %
#18700
b0b1 %

b0b000000101001 $
b0b1 +
b0b01000001 E
b0b0001 J

#18750
b0b0 %
#18800
b0b1 %

b0b001 ?
b0b01000010 E
b0b0010 J

#18850
b0b0 %
#18900
b0b1 %

b0b1 1
b0b1 >
b0b011 ?
b0b1 @
b0b01000011 E
b0b0011 J

#18950
b0b0 %
#19000
b0b1 %

b0b101000011011 0
b0b0 >
b0b111 ?
b0b0 @
b0b01000100 E
b0b0000 J

#19050
b0b0 %
#19100
b0b1 %

b0b0 +
b0b0010 B
b0b01000101 E
b0b0001 J

#19150
b0b0 %
#19200
b0b1 %

b0b110 ?
b0b01000110 E
b0b0010 J

#19250
b0b0 %
#19300
b0b1 %

b0b0 1
b0b1 <
b0b100 ?
b0b1 A
b0b01000111 E
b0b0011 J

#19350
b0b0 %
#19400
b0b1 %

b0b0 <
b0b101000000000 =
b0b000 ?
b0b0 A
b0b01001000 E
b0b0000 J

#19450
b0b0 %
#19500
b0b1 %

b0b000001010011 $
b0b1 +
b0b01001001 E
b0b0001 J

#19550
b0b0 %
#19600
b0b1 %

b0b001 ?
b0b01001010 E
b0b0010 J

#19650
b0b0 %
#19700
b0b1 %

b0b1 1
b0b1 >
b0b011 ?
b0b1 @
b0b01001011 E
b0b0011 J

#19750
b0b0 %
#19800
b0b1 %

b0b010000110111 0
b0b0 >
b0b111 ?
b0b0 @
b0b01001100 E
b0b0000 J

#19850
b0b0 %
#19900
b0b1 %

b0b0 +
b0b0001 B
b0b01001101 E
b0b0001 J

#19950
b0b0 %
#20000
b0b1 %

b0b110 ?
b0b01001110 E
b0b0010 J

#20050
b0b0 %
#20100
b0b1 %

b0b0 1
b0b1 <
b0b100 ?
b0b1 A
b0b01001111 E
b0b0011 J

#20150
b0b0 %
#20200
b0b1 %

b0b0 -
b0b0 <
b0b010000000000 =
b0b000 ?
b0b0 A
b0b01010000 E
b0b0000 J

#20250
b0b0 %
#20300
b0b1 %

b0b000010100110 $
b0b1 +
b0b01010001 E
b0b0001 J

#20350
b0b0 %
#20400
b0b1 %

b0b001 ?
b0b01010010 E
b0b0010 J

#20450
b0b0 %
#20500
b0b1 %

b0b1 1
b0b1 >
b0b011 ?
b0b1 @
b0b01010011 E
b0b0011 J

#20550
b0b0 %
#20600
b0b1 %

b0b100001101111 0
b0b0 >
b0b111 ?
b0b0 @
b0b01010100 E
b0b0000 J

#20650
b0b0 %
#20700
b0b1 %

b0b0 +
b0b0 /
b0b0000 B
b0b01010101 E
b0b0001 J

#20750
b0b0 %
#20800
b0b1 %

b0b110 9
b0b110 ?
b0b01010110 E
b0b0010 J

#20850
b0b0 %
#20900
b0b1 %

b0b0 1
b0b0 4
b0b1 8
b0b100 9
b0b1 <
b0b100 ?
b0b1 A
b0b01010111 E
b0b0011 J

#20950
b0b0 %
#21000
b0b1 %

b0b1 -
b0b0 8
b0b000 9
b0b0 <
b0b100000000000 =
b0b000 ?
b0b0 A
b0b01011000 E
b0b0000 J

#21050
b0b0 %
