Vcdwavedir/TestBench.sim__test_stack_8bit_basic_7x7.vcd
$date
  Tue Mar 22 19:59:04 2022
$end
$version
  PyMTL 3 (Mamba)
$end
$timescale
 10ps
$end

$scope module top $end
  $var reg 1 ! reset $end
  $var reg 1 " clk $end
  $scope module sink $end
    $var reg 1 ! reset $end
    $var reg 1 " clk $end
    $var reg 1 ' recv.val $end
    $var reg 1 + recv.rdy $end
    $var reg 8 ( recv.msg $end
  $upscope $end
  $scope module master $end
    $var reg 1 6 msg_from_slave $end
    $var reg 1 7 result_read $end
    $var reg 1 * req.val $end
    $var reg 4 8 mosi_reg_pointer $end
    $var reg 3 9 state $end
    $var reg 1 + resp.rdy $end
    $var reg 1 ) master_infer.sclk $end
    $var reg 1 , master_infer.mosi $end
    $var reg 8 : cntr_max $end
    $var reg 8 & req.msg $end
    $var reg 1 ' resp.val $end
    $var reg 1 . master_infer.cs $end
    $var reg 8 ( resp.msg $end
    $var reg 8 ( miso_reg $end
    $var reg 8 ; cntr $end
    $var reg 1 " clk $end
    $var reg 1 % master_infer.miso $end
    $var reg 4 < sclk_cntr $end
    $var reg 1 = val_progressing $end
    $var reg 1 > sclk_en $end
    $var reg 1 ! reset $end
    $var reg 1 0 req.rdy $end
    $scope module mosi_reg $end
      $var reg 8 & in_ $end
      $var reg 1 ! reset $end
      $var reg 1 " clk $end
      $var reg 8 ? out $end
      $var reg 1 @ en $end
    $upscope $end
  $upscope $end
  $scope module src $end
    $var reg 1 0 send.rdy $end
    $var reg 1 ! reset $end
    $var reg 1 " clk $end
    $var reg 8 & send.msg $end
    $var reg 1 * send.val $end
  $upscope $end
  $scope module slave $end
    $var reg 1 . slave_inter.cs $end
    $var reg 1 % slave_inter.miso $end
    $var reg 1 ) slave_inter.sclk $end
    $var reg 8 A pull.msg $end
    $var reg 1 1 pull.en $end
    $var reg 8 / push.msg $end
    $var reg 1 4 push.en $end
    $var reg 1 " clk $end
    $var reg 1 , slave_inter.mosi $end
    $var reg 1 ! reset $end
    $scope module shreg_in $end
      $var reg 1 B shift_en $end
      $var reg 1 # in_ $end
      $var reg 8 / out $end
      $var reg 1 " clk $end
      $var reg 8 - load_data $end
      $var reg 1 ! reset $end
      $var reg 1 $ load_en $end
    $upscope $end
    $scope module sclk_sync $end
      $var reg 1 C negedge_ $end
      $var reg 1 ! reset $end
      $var reg 1 D posedge_ $end
      $var reg 3 E shreg $end
      $var reg 1 " clk $end
      $var reg 1 5 out $end
      $var reg 1 ) in_ $end
    $upscope $end
    $scope module mosi_sync $end
      $var reg 3 F shreg $end
      $var reg 1 # out $end
      $var reg 1 G posedge_ $end
      $var reg 1 ! reset $end
      $var reg 1 H negedge_ $end
      $var reg 1 , in_ $end
      $var reg 1 " clk $end
    $upscope $end
    $scope module cs_sync $end
      $var reg 1 3 out $end
      $var reg 1 I in_ $end
      $var reg 1 ! reset $end
      $var reg 1 4 posedge_ $end
      $var reg 1 " clk $end
      $var reg 3 J shreg $end
      $var reg 1 1 negedge_ $end
    $upscope $end
    $scope module shreg_out $end
      $var reg 1 2 in_ $end
      $var reg 1 K shift_en $end
      $var reg 8 L out $end
      $var reg 1 ! reset $end
      $var reg 8 / load_data $end
      $var reg 1 1 load_en $end
      $var reg 1 " clk $end
    $upscope $end
  $upscope $end
$upscope $end
$enddefinitions $end

b0b0 !
b0b0 "
b0b0 #
b0b0 $
b0b0 %
b0b00000000 &
b0b0 '
b0b00000000 (
b0b0 )
b0b0 *
b0b0 +
b0b0 ,
b0b00000000 -
b0b0 .
b0b00000000 /
b0b0 0
b0b0 1
b0b0 2
b0b0 3
b0b0 4
b0b0 5
b0b0 6
b0b0 7
b0b0000 8
b0b000 9
b0b00000000 :
b0b00000000 ;
b0b0000 <
b0b0 =
b0b0 >
b0b00000000 ?
b0b0 @
b0b00000000 A
b0b0 B
b0b0 C
b0b0 D
b0b000 E
b0b000 F
b0b0 G
b0b0 H
b0b0 I
b0b000 J
b0b0 K
b0b00000000 L

#0
b0b1 "

b0b1 !
b0b00000000 &
b0b0 '
b0b00000000 (
b0b0 )
b0b00000000 -
b0b1 .
b0b00000000 /
b0b0 0
b0b0000 8
b0b000 9
b0b00000100 :
b0b0000 <
b0b0 =
b0b00000000 ?
b0b0 @
b0b00000000 A
b0b0 B
b0b000 E
b0b0 G
b0b1 I
b0b000 J
b0b0 K
b0b00000000 L

#50
b0b0 "
#100
b0b1 "

b0b001 9
b0b00000001 ;
b0b001 J

#150
b0b0 "
#200
b0b1 "

b0b1 3
b0b1 4
b0b0111 8
b0b000 9
b0b00000000 ;
b0b011 J

#250
b0b0 "
#300
b0b1 "

b0b0 !
b0b0 4
b0b001 9
b0b00000001 ;
b0b111 J

#350
b0b0 "
#400
b0b1 "

b0b00000000 ;

#450
b0b0 "
#500
b0b1 "


#550
b0b0 "
#600
b0b1 "


#650
b0b0 "
#700
b0b1 "


#750
b0b0 "
#800
b0b1 "


#850
b0b0 "
#900
b0b1 "


#950
b0b0 "
#1000
b0b1 "


#1050
b0b0 "
#1100
b0b1 "

b0b00000100 &
b0b1 *
b0b1 +
b0b1 0
b0b1 7
b0b1 =
b0b1 @

#1150
b0b0 "
#1200
b0b1 "

b0b0 *
b0b0 .
b0b0 0
b0b0 7
b0b010 9
b0b00000100 ?
b0b0 @
b0b0 I

#1250
b0b0 "
#1300
b0b1 "

b0b00000001 ;
b0b110 J

#1350
b0b0 "
#1400
b0b1 "

b0b1 1
b0b0 3
b0b00000010 ;
b0b100 J

#1450
b0b0 "
#1500
b0b1 "

b0b0 1
b0b00000011 ;
b0b000 J

#1550
b0b0 "
#1600
b0b1 "

b0b00000100 ;

#1650
b0b0 "
#1700
b0b1 "

b0b011 9
b0b00111111 :
b0b00000000 ;
b0b1 >

#1750
b0b0 "
#1800
b0b1 "

b0b1 )
b0b00000001 ;
b0b0001 <

#1850
b0b0 "
#1900
b0b1 "

b0b00000111 &
b0b1 *
b0b00000010 ;
b0b0010 <
b0b001 E

#1950
b0b0 "
#2000
b0b1 "

b0b1 5
b0b00000011 ;
b0b0011 <
b0b1 B
b0b1 D
b0b011 E

#2050
b0b0 "
#2100
b0b1 "

b0b00000100 ;
b0b0000 <
b0b0 B
b0b0 D
b0b111 E

#2150
b0b0 "
#2200
b0b1 "

b0b0 )
b0b0110 8
b0b00000101 ;
b0b0001 <

#2250
b0b0 "
#2300
b0b1 "

b0b00000110 ;
b0b0010 <
b0b110 E

#2350
b0b0 "
#2400
b0b1 "

b0b0 5
b0b00000111 ;
b0b0011 <
b0b1 C
b0b100 E
b0b1 K

#2450
b0b0 "
#2500
b0b1 "

b0b00001000 ;
b0b0000 <
b0b0 C
b0b000 E
b0b0 K

#2550
b0b0 "
#2600
b0b1 "

b0b1 )
b0b00001001 ;
b0b0001 <

#2650
b0b0 "
#2700
b0b1 "

b0b00001010 ;
b0b0010 <
b0b001 E

#2750
b0b0 "
#2800
b0b1 "

b0b1 5
b0b00001011 ;
b0b0011 <
b0b1 B
b0b1 D
b0b011 E

#2850
b0b0 "
#2900
b0b1 "

b0b00001100 ;
b0b0000 <
b0b0 B
b0b0 D
b0b111 E

#2950
b0b0 "
#3000
b0b1 "

b0b0 )
b0b0101 8
b0b00001101 ;
b0b0001 <

#3050
b0b0 "
#3100
b0b1 "

b0b00001110 ;
b0b0010 <
b0b110 E

#3150
b0b0 "
#3200
b0b1 "

b0b0 5
b0b00001111 ;
b0b0011 <
b0b1 C
b0b100 E
b0b1 K

#3250
b0b0 "
#3300
b0b1 "

b0b00010000 ;
b0b0000 <
b0b0 C
b0b000 E
b0b0 K

#3350
b0b0 "
#3400
b0b1 "

b0b1 )
b0b00010001 ;
b0b0001 <

#3450
b0b0 "
#3500
b0b1 "

b0b00010010 ;
b0b0010 <
b0b001 E

#3550
b0b0 "
#3600
b0b1 "

b0b1 5
b0b00010011 ;
b0b0011 <
b0b1 B
b0b1 D
b0b011 E

#3650
b0b0 "
#3700
b0b1 "

b0b00010100 ;
b0b0000 <
b0b0 B
b0b0 D
b0b111 E

#3750
b0b0 "
#3800
b0b1 "

b0b0 )
b0b0100 8
b0b00010101 ;
b0b0001 <

#3850
b0b0 "
#3900
b0b1 "

b0b00010110 ;
b0b0010 <
b0b110 E

#3950
b0b0 "
#4000
b0b1 "

b0b0 5
b0b00010111 ;
b0b0011 <
b0b1 C
b0b100 E
b0b1 K

#4050
b0b0 "
#4100
b0b1 "

b0b00011000 ;
b0b0000 <
b0b0 C
b0b000 E
b0b0 K

#4150
b0b0 "
#4200
b0b1 "

b0b1 )
b0b00011001 ;
b0b0001 <

#4250
b0b0 "
#4300
b0b1 "

b0b00011010 ;
b0b0010 <
b0b001 E

#4350
b0b0 "
#4400
b0b1 "

b0b1 5
b0b00011011 ;
b0b0011 <
b0b1 B
b0b1 D
b0b011 E

#4450
b0b0 "
#4500
b0b1 "

b0b00011100 ;
b0b0000 <
b0b0 B
b0b0 D
b0b111 E

#4550
b0b0 "
#4600
b0b1 "

b0b0 )
b0b0011 8
b0b00011101 ;
b0b0001 <

#4650
b0b0 "
#4700
b0b1 "

b0b00011110 ;
b0b0010 <
b0b110 E

#4750
b0b0 "
#4800
b0b1 "

b0b0 5
b0b00011111 ;
b0b0011 <
b0b1 C
b0b100 E
b0b1 K

#4850
b0b0 "
#4900
b0b1 "

b0b00100000 ;
b0b0000 <
b0b0 C
b0b000 E
b0b0 K

#4950
b0b0 "
#5000
b0b1 "

b0b1 )
b0b00100001 ;
b0b0001 <

#5050
b0b0 "
#5100
b0b1 "

b0b00100010 ;
b0b0010 <
b0b001 E

#5150
b0b0 "
#5200
b0b1 "

b0b1 5
b0b00100011 ;
b0b0011 <
b0b1 B
b0b1 D
b0b011 E

#5250
b0b0 "
#5300
b0b1 "

b0b00100100 ;
b0b0000 <
b0b0 B
b0b0 D
b0b111 E

#5350
b0b0 "
#5400
b0b1 "

b0b0 )
b0b1 ,
b0b0010 8
b0b00100101 ;
b0b0001 <

#5450
b0b0 "
#5500
b0b1 "

b0b00100110 ;
b0b0010 <
b0b110 E
b0b001 F

#5550
b0b0 "
#5600
b0b1 "

b0b1 #
b0b0 5
b0b00100111 ;
b0b0011 <
b0b1 C
b0b100 E
b0b011 F
b0b1 G
b0b1 K

#5650
b0b0 "
#5700
b0b1 "

b0b00101000 ;
b0b0000 <
b0b0 C
b0b000 E
b0b111 F
b0b0 G
b0b0 K

#5750
b0b0 "
#5800
b0b1 "

b0b1 )
b0b00101001 ;
b0b0001 <

#5850
b0b0 "
#5900
b0b1 "

b0b00101010 ;
b0b0010 <
b0b001 E

#5950
b0b0 "
#6000
b0b1 "

b0b1 5
b0b00101011 ;
b0b0011 <
b0b1 B
b0b1 D
b0b011 E

#6050
b0b0 "
#6100
b0b1 "

b0b00000001 /
b0b00101100 ;
b0b0000 <
b0b0 B
b0b0 D
b0b111 E

#6150
b0b0 "
#6200
b0b1 "

b0b0 )
b0b0 ,
b0b0001 8
b0b00101101 ;
b0b0001 <

#6250
b0b0 "
#6300
b0b1 "

b0b00101110 ;
b0b0010 <
b0b110 E
b0b110 F

#6350
b0b0 "
#6400
b0b1 "

b0b0 #
b0b0 5
b0b00101111 ;
b0b0011 <
b0b1 C
b0b100 E
b0b100 F
b0b1 H
b0b1 K

#6450
b0b0 "
#6500
b0b1 "

b0b00110000 ;
b0b0000 <
b0b0 C
b0b000 E
b0b000 F
b0b0 H
b0b0 K

#6550
b0b0 "
#6600
b0b1 "

b0b1 )
b0b00110001 ;
b0b0001 <

#6650
b0b0 "
#6700
b0b1 "

b0b00110010 ;
b0b0010 <
b0b001 E

#6750
b0b0 "
#6800
b0b1 "

b0b1 5
b0b00110011 ;
b0b0011 <
b0b1 B
b0b1 D
b0b011 E

#6850
b0b0 "
#6900
b0b1 "

b0b00000010 /
b0b00110100 ;
b0b0000 <
b0b0 B
b0b0 D
b0b111 E

#6950
b0b0 "
#7000
b0b1 "

b0b0 )
b0b0000 8
b0b00110101 ;
b0b0001 <

#7050
b0b0 "
#7100
b0b1 "

b0b00110110 ;
b0b0010 <
b0b110 E

#7150
b0b0 "
#7200
b0b1 "

b0b0 5
b0b00110111 ;
b0b0011 <
b0b1 C
b0b100 E
b0b1 K

#7250
b0b0 "
#7300
b0b1 "

b0b00111000 ;
b0b0000 <
b0b0 C
b0b000 E
b0b0 K

#7350
b0b0 "
#7400
b0b1 "

b0b1 )
b0b00111001 ;
b0b0001 <

#7450
b0b0 "
#7500
b0b1 "

b0b00111010 ;
b0b0010 <
b0b001 E

#7550
b0b0 "
#7600
b0b1 "

b0b1 5
b0b00111011 ;
b0b0011 <
b0b1 B
b0b1 D
b0b011 E

#7650
b0b0 "
#7700
b0b1 "

b0b00000100 /
b0b00111100 ;
b0b0000 <
b0b0 B
b0b0 D
b0b111 E

#7750
b0b0 "
#7800
b0b1 "

b0b0 )
b0b00111101 ;
b0b0001 <

#7850
b0b0 "
#7900
b0b1 "

b0b00111110 ;
b0b0010 <
b0b110 E

#7950
b0b0 "
#8000
b0b1 "

b0b0 5
b0b00111111 ;
b0b0011 <
b0b1 C
b0b100 E
b0b1 K

#8050
b0b0 "
#8100
b0b1 "

b0b100 9
b0b00000100 :
b0b00000000 ;
b0b0000 <
b0b0 >
b0b0 C
b0b000 E
b0b0 K

#8150
b0b0 "
#8200
b0b1 "

b0b00000001 ;

#8250
b0b0 "
#8300
b0b1 "

b0b00000010 ;

#8350
b0b0 "
#8400
b0b1 "

b0b00000011 ;

#8450
b0b0 "
#8500
b0b1 "

b0b00000100 ;

#8550
b0b0 "
#8600
b0b1 "

b0b1 '
b0b1 .
b0b1 6
b0b101 9
b0b00000000 ;
b0b1 I

#8650
b0b0 "
#8700
b0b1 "

b0b0 +
b0b00000001 ;
b0b001 J

#8750
b0b0 "
#8800
b0b1 "

b0b1 3
b0b1 4
b0b00000010 ;
b0b011 J

#8850
b0b0 "
#8900
b0b1 "

b0b0 4
b0b00000011 ;
b0b111 J

#8950
b0b0 "
#9000
b0b1 "

b0b00000100 ;

#9050
b0b0 "
#9100
b0b1 "

b0b0 '
b0b0 6
b0b001 9
b0b00000000 ;
b0b1 @

#9150
b0b0 "
#9200
b0b1 "

b0b0111 8
b0b00000111 ?

#9250
b0b0 "
#9300
b0b1 "


#9350
b0b0 "
#9400
b0b1 "

b0b1 +
b0b1 0
b0b1 7

#9450
b0b0 "
#9500
b0b1 "

b0b0 *
b0b0 .
b0b0 0
b0b0 7
b0b010 9
b0b0 @
b0b0 I

#9550
b0b0 "
#9600
b0b1 "

b0b00000001 ;
b0b110 J

#9650
b0b0 "
#9700
b0b1 "

b0b1 1
b0b0 3
b0b00000010 ;
b0b100 J

#9750
b0b0 "
#9800
b0b1 "

b0b0 1
b0b00000011 ;
b0b000 J
b0b00000100 L

#9850
b0b0 "
#9900
b0b1 "

b0b00000100 ;

#9950
b0b0 "
#10000
b0b1 "

b0b011 9
b0b00111111 :
b0b00000000 ;
b0b1 >

#10050
b0b0 "
#10100
b0b1 "

b0b1 )
b0b00000001 ;
b0b0001 <

#10150
b0b0 "
#10200
b0b1 "

b0b00000110 &
b0b1 *
b0b00000010 ;
b0b0010 <
b0b001 E

#10250
b0b0 "
#10300
b0b1 "

b0b1 5
b0b00000011 ;
b0b0011 <
b0b1 B
b0b1 D
b0b011 E

#10350
b0b0 "
#10400
b0b1 "

b0b00001000 /
b0b00000100 ;
b0b0000 <
b0b0 B
b0b0 D
b0b111 E

#10450
b0b0 "
#10500
b0b1 "

b0b0 )
b0b0110 8
b0b00000101 ;
b0b0001 <

#10550
b0b0 "
#10600
b0b1 "

b0b00000110 ;
b0b0010 <
b0b110 E

#10650
b0b0 "
#10700
b0b1 "

b0b0 5
b0b00000111 ;
b0b0011 <
b0b1 C
b0b100 E
b0b1 K

#10750
b0b0 "
#10800
b0b1 "

b0b00001000 ;
b0b0000 <
b0b0 C
b0b000 E
b0b0 K
b0b00001000 L

#10850
b0b0 "
#10900
b0b1 "

b0b1 )
b0b00001001 ;
b0b0001 <

#10950
b0b0 "
#11000
b0b1 "

b0b00001010 ;
b0b0010 <
b0b001 E

#11050
b0b0 "
#11100
b0b1 "

b0b1 5
b0b00001011 ;
b0b0011 <
b0b1 B
b0b1 D
b0b011 E

#11150
b0b0 "
#11200
b0b1 "

b0b00010000 /
b0b00001100 ;
b0b0000 <
b0b0 B
b0b0 D
b0b111 E

#11250
b0b0 "
#11300
b0b1 "

b0b0 )
b0b0101 8
b0b00001101 ;
b0b0001 <

#11350
b0b0 "
#11400
b0b1 "

b0b00001110 ;
b0b0010 <
b0b110 E

#11450
b0b0 "
#11500
b0b1 "

b0b0 5
b0b00001111 ;
b0b0011 <
b0b1 C
b0b100 E
b0b1 K

#11550
b0b0 "
#11600
b0b1 "

b0b00010000 ;
b0b0000 <
b0b0 C
b0b000 E
b0b0 K
b0b00010000 L

#11650
b0b0 "
#11700
b0b1 "

b0b1 )
b0b00010001 ;
b0b0001 <

#11750
b0b0 "
#11800
b0b1 "

b0b00010010 ;
b0b0010 <
b0b001 E

#11850
b0b0 "
#11900
b0b1 "

b0b1 5
b0b00010011 ;
b0b0011 <
b0b1 B
b0b1 D
b0b011 E

#11950
b0b0 "
#12000
b0b1 "

b0b00100000 /
b0b00010100 ;
b0b0000 <
b0b0 B
b0b0 D
b0b111 E

#12050
b0b0 "
#12100
b0b1 "

b0b0 )
b0b0100 8
b0b00010101 ;
b0b0001 <

#12150
b0b0 "
#12200
b0b1 "

b0b00010110 ;
b0b0010 <
b0b110 E

#12250
b0b0 "
#12300
b0b1 "

b0b0 5
b0b00010111 ;
b0b0011 <
b0b1 C
b0b100 E
b0b1 K

#12350
b0b0 "
#12400
b0b1 "

b0b00011000 ;
b0b0000 <
b0b0 C
b0b000 E
b0b0 K
b0b00100000 L

#12450
b0b0 "
#12500
b0b1 "

b0b1 )
b0b00011001 ;
b0b0001 <

#12550
b0b0 "
#12600
b0b1 "

b0b00011010 ;
b0b0010 <
b0b001 E

#12650
b0b0 "
#12700
b0b1 "

b0b1 5
b0b00011011 ;
b0b0011 <
b0b1 B
b0b1 D
b0b011 E

#12750
b0b0 "
#12800
b0b1 "

b0b01000000 /
b0b00011100 ;
b0b0000 <
b0b0 B
b0b0 D
b0b111 E

#12850
b0b0 "
#12900
b0b1 "

b0b0 )
b0b0011 8
b0b00011101 ;
b0b0001 <

#12950
b0b0 "
#13000
b0b1 "

b0b00011110 ;
b0b0010 <
b0b110 E

#13050
b0b0 "
#13100
b0b1 "

b0b0 5
b0b00011111 ;
b0b0011 <
b0b1 C
b0b100 E
b0b1 K

#13150
b0b0 "
#13200
b0b1 "

b0b00100000 ;
b0b0000 <
b0b0 C
b0b000 E
b0b0 K
b0b01000000 L

#13250
b0b0 "
#13300
b0b1 "

b0b1 )
b0b00100001 ;
b0b0001 <

#13350
b0b0 "
#13400
b0b1 "

b0b00100010 ;
b0b0010 <
b0b001 E

#13450
b0b0 "
#13500
b0b1 "

b0b1 5
b0b00100011 ;
b0b0011 <
b0b1 B
b0b1 D
b0b011 E

#13550
b0b0 "
#13600
b0b1 "

b0b10000000 /
b0b00100100 ;
b0b0000 <
b0b0 B
b0b0 D
b0b111 E

#13650
b0b0 "
#13700
b0b1 "

b0b0 )
b0b1 ,
b0b0010 8
b0b00100101 ;
b0b0001 <

#13750
b0b0 "
#13800
b0b1 "

b0b00100110 ;
b0b0010 <
b0b110 E
b0b001 F

#13850
b0b0 "
#13900
b0b1 "

b0b1 #
b0b0 5
b0b00100111 ;
b0b0011 <
b0b1 C
b0b100 E
b0b011 F
b0b1 G
b0b1 K

#13950
b0b0 "
#14000
b0b1 "

b0b1 %
b0b00101000 ;
b0b0000 <
b0b0 C
b0b000 E
b0b111 F
b0b0 G
b0b0 K
b0b10000000 L

#14050
b0b0 "
#14100
b0b1 "

b0b00000001 (
b0b1 )
b0b00101001 ;
b0b0001 <

#14150
b0b0 "
#14200
b0b1 "

b0b00101010 ;
b0b0010 <
b0b001 E

#14250
b0b0 "
#14300
b0b1 "

b0b1 5
b0b00101011 ;
b0b0011 <
b0b1 B
b0b1 D
b0b011 E

#14350
b0b0 "
#14400
b0b1 "

b0b00000001 /
b0b00101100 ;
b0b0000 <
b0b0 B
b0b0 D
b0b111 E

#14450
b0b0 "
#14500
b0b1 "

b0b0 )
b0b0001 8
b0b00101101 ;
b0b0001 <

#14550
b0b0 "
#14600
b0b1 "

b0b00101110 ;
b0b0010 <
b0b110 E

#14650
b0b0 "
#14700
b0b1 "

b0b0 5
b0b00101111 ;
b0b0011 <
b0b1 C
b0b100 E
b0b1 K

#14750
b0b0 "
#14800
b0b1 "

b0b0 %
b0b00110000 ;
b0b0000 <
b0b0 C
b0b000 E
b0b0 K
b0b00000000 L

#14850
b0b0 "
#14900
b0b1 "

b0b00000010 (
b0b1 )
b0b00110001 ;
b0b0001 <

#14950
b0b0 "
#15000
b0b1 "

b0b00110010 ;
b0b0010 <
b0b001 E

#15050
b0b0 "
#15100
b0b1 "

b0b1 5
b0b00110011 ;
b0b0011 <
b0b1 B
b0b1 D
b0b011 E

#15150
b0b0 "
#15200
b0b1 "

b0b00000011 /
b0b00110100 ;
b0b0000 <
b0b0 B
b0b0 D
b0b111 E

#15250
b0b0 "
#15300
b0b1 "

b0b0 )
b0b0000 8
b0b00110101 ;
b0b0001 <

#15350
b0b0 "
#15400
b0b1 "

b0b00110110 ;
b0b0010 <
b0b110 E

#15450
b0b0 "
#15500
b0b1 "

b0b0 5
b0b00110111 ;
b0b0011 <
b0b1 C
b0b100 E
b0b1 K

#15550
b0b0 "
#15600
b0b1 "

b0b00111000 ;
b0b0000 <
b0b0 C
b0b000 E
b0b0 K

#15650
b0b0 "
#15700
b0b1 "

b0b00000100 (
b0b1 )
b0b00111001 ;
b0b0001 <

#15750
b0b0 "
#15800
b0b1 "

b0b00111010 ;
b0b0010 <
b0b001 E

#15850
b0b0 "
#15900
b0b1 "

b0b1 5
b0b00111011 ;
b0b0011 <
b0b1 B
b0b1 D
b0b011 E

#15950
b0b0 "
#16000
b0b1 "

b0b00000111 /
b0b00111100 ;
b0b0000 <
b0b0 B
b0b0 D
b0b111 E

#16050
b0b0 "
#16100
b0b1 "

b0b0 )
b0b00111101 ;
b0b0001 <

#16150
b0b0 "
#16200
b0b1 "

b0b00111110 ;
b0b0010 <
b0b110 E

#16250
b0b0 "
#16300
b0b1 "

b0b0 5
b0b00111111 ;
b0b0011 <
b0b1 C
b0b100 E
b0b1 K

#16350
b0b0 "
#16400
b0b1 "

b0b100 9
b0b00000100 :
b0b00000000 ;
b0b0000 <
b0b0 >
b0b0 C
b0b000 E
b0b0 K

#16450
b0b0 "
#16500
b0b1 "

b0b00000001 ;

#16550
b0b0 "
#16600
b0b1 "

b0b00000010 ;

#16650
b0b0 "
#16700
b0b1 "

b0b00000011 ;

#16750
b0b0 "
#16800
b0b1 "

b0b00000100 ;

#16850
b0b0 "
#16900
b0b1 "

b0b1 '
b0b1 .
b0b1 6
b0b101 9
b0b00000000 ;
b0b1 I

#16950
b0b0 "
#17000
b0b1 "

b0b0 +
b0b00000001 ;
b0b001 J

#17050
b0b0 "
#17100
b0b1 "

b0b1 3
b0b1 4
b0b00000010 ;
b0b011 J

#17150
b0b0 "
#17200
b0b1 "

b0b0 4
b0b00000011 ;
b0b111 J

#17250
b0b0 "
#17300
b0b1 "

b0b00000100 ;

#17350
b0b0 "
#17400
b0b1 "

b0b0 '
b0b0 6
b0b001 9
b0b00000000 ;
b0b1 @

#17450
b0b0 "
#17500
b0b1 "

b0b00000000 (
b0b0 ,
b0b0111 8
b0b00000110 ?

#17550
b0b0 "
#17600
b0b1 "

b0b110 F

#17650
b0b0 "
#17700
b0b1 "

b0b0 #
b0b1 +
b0b1 0
b0b1 7
b0b100 F
b0b1 H

#17750
b0b0 "
#17800
b0b1 "

b0b0 *
b0b0 .
b0b0 0
b0b0 7
b0b010 9
b0b0 @
b0b000 F
b0b0 H
b0b0 I

#17850
b0b0 "
#17900
b0b1 "

b0b00000001 ;
b0b110 J

#17950
b0b0 "
#18000
b0b1 "

b0b1 1
b0b0 3
b0b00000010 ;
b0b100 J

#18050
b0b0 "
#18100
b0b1 "

b0b0 1
b0b00000011 ;
b0b000 J
b0b00000111 L

#18150
b0b0 "
#18200
b0b1 "

b0b00000100 ;

#18250
b0b0 "
#18300
b0b1 "

b0b011 9
b0b00111111 :
b0b00000000 ;
b0b1 >

#18350
b0b0 "
#18400
b0b1 "

b0b1 )
b0b00000001 ;
b0b0001 <

#18450
b0b0 "
#18500
b0b1 "

b0b00001000 &
b0b1 *
b0b00000010 ;
b0b0010 <
b0b001 E

#18550
b0b0 "
#18600
b0b1 "

b0b1 5
b0b00000011 ;
b0b0011 <
b0b1 B
b0b1 D
b0b011 E

#18650
b0b0 "
#18700
b0b1 "

b0b00001110 /
b0b00000100 ;
b0b0000 <
b0b0 B
b0b0 D
b0b111 E

#18750
b0b0 "
#18800
b0b1 "

b0b0 )
b0b0110 8
b0b00000101 ;
b0b0001 <

#18850
b0b0 "
#18900
b0b1 "

b0b00000110 ;
b0b0010 <
b0b110 E

#18950
b0b0 "
#19000
b0b1 "

b0b0 5
b0b00000111 ;
b0b0011 <
b0b1 C
b0b100 E
b0b1 K

#19050
b0b0 "
#19100
b0b1 "

b0b00001000 ;
b0b0000 <
b0b0 C
b0b000 E
b0b0 K
b0b00001110 L

#19150
b0b0 "
#19200
b0b1 "

b0b1 )
b0b00001001 ;
b0b0001 <

#19250
b0b0 "
#19300
b0b1 "

b0b00001010 ;
b0b0010 <
b0b001 E

#19350
b0b0 "
#19400
b0b1 "

b0b1 5
b0b00001011 ;
b0b0011 <
b0b1 B
b0b1 D
b0b011 E

#19450
b0b0 "
#19500
b0b1 "

b0b00011100 /
b0b00001100 ;
b0b0000 <
b0b0 B
b0b0 D
b0b111 E

#19550
b0b0 "
#19600
b0b1 "

b0b0 )
b0b0101 8
b0b00001101 ;
b0b0001 <

#19650
b0b0 "
#19700
b0b1 "

b0b00001110 ;
b0b0010 <
b0b110 E

#19750
b0b0 "
#19800
b0b1 "

b0b0 5
b0b00001111 ;
b0b0011 <
b0b1 C
b0b100 E
b0b1 K

#19850
b0b0 "
#19900
b0b1 "

b0b00010000 ;
b0b0000 <
b0b0 C
b0b000 E
b0b0 K
b0b00011100 L

#19950
b0b0 "
#20000
b0b1 "

b0b1 )
b0b00010001 ;
b0b0001 <

#20050
b0b0 "
#20100
b0b1 "

b0b00010010 ;
b0b0010 <
b0b001 E

#20150
b0b0 "
#20200
b0b1 "

b0b1 5
b0b00010011 ;
b0b0011 <
b0b1 B
b0b1 D
b0b011 E

#20250
b0b0 "
#20300
b0b1 "

b0b00111000 /
b0b00010100 ;
b0b0000 <
b0b0 B
b0b0 D
b0b111 E

#20350
b0b0 "
#20400
b0b1 "

b0b0 )
b0b0100 8
b0b00010101 ;
b0b0001 <

#20450
b0b0 "
#20500
b0b1 "

b0b00010110 ;
b0b0010 <
b0b110 E

#20550
b0b0 "
#20600
b0b1 "

b0b0 5
b0b00010111 ;
b0b0011 <
b0b1 C
b0b100 E
b0b1 K

#20650
b0b0 "
#20700
b0b1 "

b0b00011000 ;
b0b0000 <
b0b0 C
b0b000 E
b0b0 K
b0b00111000 L

#20750
b0b0 "
#20800
b0b1 "

b0b1 )
b0b00011001 ;
b0b0001 <

#20850
b0b0 "
#20900
b0b1 "

b0b00011010 ;
b0b0010 <
b0b001 E

#20950
b0b0 "
#21000
b0b1 "

b0b1 5
b0b00011011 ;
b0b0011 <
b0b1 B
b0b1 D
b0b011 E

#21050
b0b0 "
#21100
b0b1 "

b0b01110000 /
b0b00011100 ;
b0b0000 <
b0b0 B
b0b0 D
b0b111 E

#21150
b0b0 "
#21200
b0b1 "

b0b0 )
b0b0011 8
b0b00011101 ;
b0b0001 <

#21250
b0b0 "
#21300
b0b1 "

b0b00011110 ;
b0b0010 <
b0b110 E

#21350
b0b0 "
#21400
b0b1 "

b0b0 5
b0b00011111 ;
b0b0011 <
b0b1 C
b0b100 E
b0b1 K

#21450
b0b0 "
#21500
b0b1 "

b0b00100000 ;
b0b0000 <
b0b0 C
b0b000 E
b0b0 K
b0b01110000 L

#21550
b0b0 "
#21600
b0b1 "

b0b1 )
b0b00100001 ;
b0b0001 <

#21650
b0b0 "
#21700
b0b1 "

b0b00100010 ;
b0b0010 <
b0b001 E

#21750
b0b0 "
#21800
b0b1 "

b0b1 5
b0b00100011 ;
b0b0011 <
b0b1 B
b0b1 D
b0b011 E

#21850
b0b0 "
#21900
b0b1 "

b0b11100000 /
b0b00100100 ;
b0b0000 <
b0b0 B
b0b0 D
b0b111 E

#21950
b0b0 "
#22000
b0b1 "

b0b0 )
b0b1 ,
b0b0010 8
b0b00100101 ;
b0b0001 <

#22050
b0b0 "
#22100
b0b1 "

b0b00100110 ;
b0b0010 <
b0b110 E
b0b001 F

#22150
b0b0 "
#22200
b0b1 "

b0b1 #
b0b0 5
b0b00100111 ;
b0b0011 <
b0b1 C
b0b100 E
b0b011 F
b0b1 G
b0b1 K

#22250
b0b0 "
#22300
b0b1 "

b0b1 %
b0b00101000 ;
b0b0000 <
b0b0 C
b0b000 E
b0b111 F
b0b0 G
b0b0 K
b0b11100000 L

#22350
b0b0 "
#22400
b0b1 "

b0b00000001 (
b0b1 )
b0b00101001 ;
b0b0001 <

#22450
b0b0 "
#22500
b0b1 "

b0b00101010 ;
b0b0010 <
b0b001 E

#22550
b0b0 "
#22600
b0b1 "

b0b1 5
b0b00101011 ;
b0b0011 <
b0b1 B
b0b1 D
b0b011 E

#22650
b0b0 "
#22700
b0b1 "

b0b11000001 /
b0b00101100 ;
b0b0000 <
b0b0 B
b0b0 D
b0b111 E

