Vcdwavedir/TestBench.sim__test_stack_8bit_basic_1x5.vcd
$date
  Tue Mar 22 19:59:03 2022
$end
$version
  PyMTL 3 (Mamba)
$end
$timescale
 10ps
$end

$scope module top $end
  $var reg 1 # clk $end
  $var reg 1 $ reset $end
  $scope module src $end
    $var reg 8 % send.msg $end
    $var reg 1 , send.val $end
    $var reg 1 ) send.rdy $end
    $var reg 1 # clk $end
    $var reg 1 $ reset $end
  $upscope $end
  $scope module master $end
    $var reg 1 - master_infer.cs $end
    $var reg 1 $ reset $end
    $var reg 8 ' resp.msg $end
    $var reg 1 1 resp.val $end
    $var reg 1 2 resp.rdy $end
    $var reg 3 6 state $end
    $var reg 1 ) req.rdy $end
    $var reg 8 7 cntr $end
    $var reg 8 8 cntr_max $end
    $var reg 4 9 mosi_reg_pointer $end
    $var reg 1 , req.val $end
    $var reg 8 ' miso_reg $end
    $var reg 8 % req.msg $end
    $var reg 1 : msg_from_slave $end
    $var reg 1 # clk $end
    $var reg 1 ; sclk_en $end
    $var reg 1 < result_read $end
    $var reg 4 = sclk_cntr $end
    $var reg 1 0 master_infer.mosi $end
    $var reg 1 > val_progressing $end
    $var reg 1 / master_infer.miso $end
    $var reg 1 . master_infer.sclk $end
    $scope module mosi_reg $end
      $var reg 1 $ reset $end
      $var reg 8 % in_ $end
      $var reg 8 ? out $end
      $var reg 1 @ en $end
      $var reg 1 # clk $end
    $upscope $end
  $upscope $end
  $scope module sink $end
    $var reg 1 $ reset $end
    $var reg 8 ' recv.msg $end
    $var reg 1 1 recv.val $end
    $var reg 1 # clk $end
    $var reg 1 2 recv.rdy $end
  $upscope $end
  $scope module slave $end
    $var reg 1 # clk $end
    $var reg 8 A pull.msg $end
    $var reg 1 0 slave_inter.mosi $end
    $var reg 1 - slave_inter.cs $end
    $var reg 1 . slave_inter.sclk $end
    $var reg 1 $ reset $end
    $var reg 1 ! push.en $end
    $var reg 1 / slave_inter.miso $end
    $var reg 1 & pull.en $end
    $var reg 8 " push.msg $end
    $scope module sclk_sync $end
      $var reg 3 B shreg $end
      $var reg 1 . in_ $end
      $var reg 1 # clk $end
      $var reg 1 $ reset $end
      $var reg 1 + out $end
      $var reg 1 C posedge_ $end
      $var reg 1 D negedge_ $end
    $upscope $end
    $scope module cs_sync $end
      $var reg 1 E in_ $end
      $var reg 3 F shreg $end
      $var reg 1 ( out $end
      $var reg 1 # clk $end
      $var reg 1 & negedge_ $end
      $var reg 1 ! posedge_ $end
      $var reg 1 $ reset $end
    $upscope $end
    $scope module mosi_sync $end
      $var reg 1 * out $end
      $var reg 1 $ reset $end
      $var reg 1 G posedge_ $end
      $var reg 1 H negedge_ $end
      $var reg 3 I shreg $end
      $var reg 1 0 in_ $end
      $var reg 1 # clk $end
    $upscope $end
    $scope module shreg_out $end
      $var reg 1 J shift_en $end
      $var reg 8 " load_data $end
      $var reg 1 $ reset $end
      $var reg 8 K out $end
      $var reg 1 # clk $end
      $var reg 1 & load_en $end
      $var reg 1 4 in_ $end
    $upscope $end
    $scope module shreg_in $end
      $var reg 1 $ reset $end
      $var reg 1 # clk $end
      $var reg 8 3 load_data $end
      $var reg 1 L shift_en $end
      $var reg 1 * in_ $end
      $var reg 1 5 load_en $end
      $var reg 8 " out $end
    $upscope $end
  $upscope $end
$upscope $end
$enddefinitions $end

b0b0 !
b0b00000000 "
b0b0 #
b0b0 $
b0b00000000 %
b0b0 &
b0b00000000 '
b0b0 (
b0b0 )
b0b0 *
b0b0 +
b0b0 ,
b0b0 -
b0b0 .
b0b0 /
b0b0 0
b0b0 1
b0b0 2
b0b00000000 3
b0b0 4
b0b0 5
b0b000 6
b0b00000000 7
b0b00000000 8
b0b0000 9
b0b0 :
b0b0 ;
b0b0 <
b0b0000 =
b0b0 >
b0b00000000 ?
b0b0 @
b0b00000000 A
b0b000 B
b0b0 C
b0b0 D
b0b0 E
b0b000 F
b0b0 G
b0b0 H
b0b000 I
b0b0 J
b0b00000000 K
b0b0 L

#0
b0b1 #

b0b1 $
b0b00000000 %
b0b0 &
b0b00000000 '
b0b0 (
b0b1 -
b0b00000000 3
b0b0 4
b0b000 6
b0b00000000 7
b0b00000100 8
b0b0000 9
b0b0 :
b0b0000 =
b0b0 >
b0b00000000 ?
b0b0 @
b0b00000000 A
b0b000 B
b0b0 C
b0b1 E
b0b000 F
b0b0 G
b0b000 I
b0b0 J
b0b00000000 K
b0b0 L

#50
b0b0 #
#100
b0b1 #

b0b001 6
b0b00000001 7
b0b001 F

#150
b0b0 #
#200
b0b1 #

b0b1 !
b0b1 (
b0b000 6
b0b00000000 7
b0b0111 9
b0b011 F

#250
b0b0 #
#300
b0b1 #

b0b0 !
b0b0 $
b0b001 6
b0b00000001 7
b0b111 F

#350
b0b0 #
#400
b0b1 #

b0b00000000 7

#450
b0b0 #
#500
b0b1 #

b0b00000100 %
b0b1 ,
b0b1 >
b0b1 @

#550
b0b0 #
#600
b0b1 #

b0b00000100 ?

#650
b0b0 #
#700
b0b1 #


#750
b0b0 #
#800
b0b1 #


#850
b0b0 #
#900
b0b1 #

b0b1 )
b0b1 2
b0b1 <

#950
b0b0 #
#1000
b0b1 #

b0b0 )
b0b0 ,
b0b0 -
b0b010 6
b0b0 <
b0b0 @
b0b0 E

#1050
b0b0 #
#1100
b0b1 #

b0b00000111 %
b0b1 ,
b0b00000001 7
b0b110 F

#1150
b0b0 #
#1200
b0b1 #

b0b1 &
b0b0 (
b0b00000010 7
b0b100 F

#1250
b0b0 #
#1300
b0b1 #

b0b0 &
b0b00000011 7
b0b000 F

#1350
b0b0 #
#1400
b0b1 #

b0b00000100 7

#1450
b0b0 #
#1500
b0b1 #

b0b011 6
b0b00000000 7
b0b00111111 8
b0b1 ;

#1550
b0b0 #
#1600
b0b1 #

b0b1 .
b0b00000001 7
b0b0001 =

#1650
b0b0 #
#1700
b0b1 #

b0b00000010 7
b0b0010 =
b0b001 B

#1750
b0b0 #
#1800
b0b1 #

b0b1 +
b0b00000011 7
b0b0011 =
b0b011 B
b0b1 C
b0b1 L

#1850
b0b0 #
#1900
b0b1 #

b0b00000100 7
b0b0000 =
b0b111 B
b0b0 C
b0b0 L

#1950
b0b0 #
#2000
b0b1 #

b0b0 .
b0b00000101 7
b0b0110 9
b0b0001 =

#2050
b0b0 #
#2100
b0b1 #

b0b00000110 7
b0b0010 =
b0b110 B

#2150
b0b0 #
#2200
b0b1 #

b0b0 +
b0b00000111 7
b0b0011 =
b0b100 B
b0b1 D
b0b1 J

#2250
b0b0 #
#2300
b0b1 #

b0b00001000 7
b0b0000 =
b0b000 B
b0b0 D
b0b0 J

#2350
b0b0 #
#2400
b0b1 #

b0b1 .
b0b00001001 7
b0b0001 =

#2450
b0b0 #
#2500
b0b1 #

b0b00001010 7
b0b0010 =
b0b001 B

#2550
b0b0 #
#2600
b0b1 #

b0b1 +
b0b00001011 7
b0b0011 =
b0b011 B
b0b1 C
b0b1 L

#2650
b0b0 #
#2700
b0b1 #

b0b00001100 7
b0b0000 =
b0b111 B
b0b0 C
b0b0 L

#2750
b0b0 #
#2800
b0b1 #

b0b0 .
b0b00001101 7
b0b0101 9
b0b0001 =

#2850
b0b0 #
#2900
b0b1 #

b0b00001110 7
b0b0010 =
b0b110 B

#2950
b0b0 #
#3000
b0b1 #

b0b0 +
b0b00001111 7
b0b0011 =
b0b100 B
b0b1 D
b0b1 J

#3050
b0b0 #
#3100
b0b1 #

b0b00010000 7
b0b0000 =
b0b000 B
b0b0 D
b0b0 J

#3150
b0b0 #
#3200
b0b1 #

b0b1 .
b0b00010001 7
b0b0001 =

#3250
b0b0 #
#3300
b0b1 #

b0b00010010 7
b0b0010 =
b0b001 B

#3350
b0b0 #
#3400
b0b1 #

b0b1 +
b0b00010011 7
b0b0011 =
b0b011 B
b0b1 C
b0b1 L

#3450
b0b0 #
#3500
b0b1 #

b0b00010100 7
b0b0000 =
b0b111 B
b0b0 C
b0b0 L

#3550
b0b0 #
#3600
b0b1 #

b0b0 .
b0b00010101 7
b0b0100 9
b0b0001 =

#3650
b0b0 #
#3700
b0b1 #

b0b00010110 7
b0b0010 =
b0b110 B

#3750
b0b0 #
#3800
b0b1 #

b0b0 +
b0b00010111 7
b0b0011 =
b0b100 B
b0b1 D
b0b1 J

#3850
b0b0 #
#3900
b0b1 #

b0b00011000 7
b0b0000 =
b0b000 B
b0b0 D
b0b0 J

#3950
b0b0 #
#4000
b0b1 #

b0b1 .
b0b00011001 7
b0b0001 =

#4050
b0b0 #
#4100
b0b1 #

b0b00011010 7
b0b0010 =
b0b001 B

#4150
b0b0 #
#4200
b0b1 #

b0b1 +
b0b00011011 7
b0b0011 =
b0b011 B
b0b1 C
b0b1 L

#4250
b0b0 #
#4300
b0b1 #

b0b00011100 7
b0b0000 =
b0b111 B
b0b0 C
b0b0 L

#4350
b0b0 #
#4400
b0b1 #

b0b0 .
b0b00011101 7
b0b0011 9
b0b0001 =

#4450
b0b0 #
#4500
b0b1 #

b0b00011110 7
b0b0010 =
b0b110 B

#4550
b0b0 #
#4600
b0b1 #

b0b0 +
b0b00011111 7
b0b0011 =
b0b100 B
b0b1 D
b0b1 J

#4650
b0b0 #
#4700
b0b1 #

b0b00100000 7
b0b0000 =
b0b000 B
b0b0 D
b0b0 J

#4750
b0b0 #
#4800
b0b1 #

b0b1 .
b0b00100001 7
b0b0001 =

#4850
b0b0 #
#4900
b0b1 #

b0b00100010 7
b0b0010 =
b0b001 B

#4950
b0b0 #
#5000
b0b1 #

b0b1 +
b0b00100011 7
b0b0011 =
b0b011 B
b0b1 C
b0b1 L

#5050
b0b0 #
#5100
b0b1 #

b0b00100100 7
b0b0000 =
b0b111 B
b0b0 C
b0b0 L

#5150
b0b0 #
#5200
b0b1 #

b0b0 .
b0b1 0
b0b00100101 7
b0b0010 9
b0b0001 =

#5250
b0b0 #
#5300
b0b1 #

b0b00100110 7
b0b0010 =
b0b110 B
b0b001 I

#5350
b0b0 #
#5400
b0b1 #

b0b1 *
b0b0 +
b0b00100111 7
b0b0011 =
b0b100 B
b0b1 D
b0b1 G
b0b011 I
b0b1 J

#5450
b0b0 #
#5500
b0b1 #

b0b00101000 7
b0b0000 =
b0b000 B
b0b0 D
b0b0 G
b0b111 I
b0b0 J

#5550
b0b0 #
#5600
b0b1 #

b0b1 .
b0b00101001 7
b0b0001 =

#5650
b0b0 #
#5700
b0b1 #

b0b00101010 7
b0b0010 =
b0b001 B

#5750
b0b0 #
#5800
b0b1 #

b0b1 +
b0b00101011 7
b0b0011 =
b0b011 B
b0b1 C
b0b1 L

#5850
b0b0 #
#5900
b0b1 #

b0b00000001 "
b0b00101100 7
b0b0000 =
b0b111 B
b0b0 C
b0b0 L

#5950
b0b0 #
#6000
b0b1 #

b0b0 .
b0b0 0
b0b00101101 7
b0b0001 9
b0b0001 =

#6050
b0b0 #
#6100
b0b1 #

b0b00101110 7
b0b0010 =
b0b110 B
b0b110 I

#6150
b0b0 #
#6200
b0b1 #

b0b0 *
b0b0 +
b0b00101111 7
b0b0011 =
b0b100 B
b0b1 D
b0b1 H
b0b100 I
b0b1 J

#6250
b0b0 #
#6300
b0b1 #

b0b00110000 7
b0b0000 =
b0b000 B
b0b0 D
b0b0 H
b0b000 I
b0b0 J

#6350
b0b0 #
#6400
b0b1 #

b0b1 .
b0b00110001 7
b0b0001 =

#6450
b0b0 #
#6500
b0b1 #

b0b00110010 7
b0b0010 =
b0b001 B

#6550
b0b0 #
#6600
b0b1 #

b0b1 +
b0b00110011 7
b0b0011 =
b0b011 B
b0b1 C
b0b1 L

#6650
b0b0 #
#6700
b0b1 #

b0b00000010 "
b0b00110100 7
b0b0000 =
b0b111 B
b0b0 C
b0b0 L

#6750
b0b0 #
#6800
b0b1 #

b0b0 .
b0b00110101 7
b0b0000 9
b0b0001 =

#6850
b0b0 #
#6900
b0b1 #

b0b00110110 7
b0b0010 =
b0b110 B

#6950
b0b0 #
#7000
b0b1 #

b0b0 +
b0b00110111 7
b0b0011 =
b0b100 B
b0b1 D
b0b1 J

#7050
b0b0 #
#7100
b0b1 #

b0b00111000 7
b0b0000 =
b0b000 B
b0b0 D
b0b0 J

#7150
b0b0 #
#7200
b0b1 #

b0b1 .
b0b00111001 7
b0b0001 =

#7250
b0b0 #
#7300
b0b1 #

b0b00111010 7
b0b0010 =
b0b001 B

#7350
b0b0 #
#7400
b0b1 #

b0b1 +
b0b00111011 7
b0b0011 =
b0b011 B
b0b1 C
b0b1 L

#7450
b0b0 #
#7500
b0b1 #

b0b00000100 "
b0b00111100 7
b0b0000 =
b0b111 B
b0b0 C
b0b0 L

#7550
b0b0 #
#7600
b0b1 #

b0b0 .
b0b00111101 7
b0b0001 =

#7650
b0b0 #
#7700
b0b1 #

b0b00111110 7
b0b0010 =
b0b110 B

#7750
b0b0 #
#7800
b0b1 #

b0b0 +
b0b00111111 7
b0b0011 =
b0b100 B
b0b1 D
b0b1 J

#7850
b0b0 #
#7900
b0b1 #

b0b100 6
b0b00000000 7
b0b00000100 8
b0b0 ;
b0b0000 =
b0b000 B
b0b0 D
b0b0 J

#7950
b0b0 #
#8000
b0b1 #

b0b00000001 7

#8050
b0b0 #
#8100
b0b1 #

b0b00000010 7

#8150
b0b0 #
#8200
b0b1 #

b0b00000011 7

#8250
b0b0 #
#8300
b0b1 #

b0b00000100 7

#8350
b0b0 #
#8400
b0b1 #

b0b1 -
b0b1 1
b0b101 6
b0b00000000 7
b0b1 :
b0b1 E

#8450
b0b0 #
#8500
b0b1 #

b0b0 2
b0b00000001 7
b0b001 F

#8550
b0b0 #
#8600
b0b1 #

b0b1 !
b0b1 (
b0b00000010 7
b0b011 F

#8650
b0b0 #
#8700
b0b1 #

b0b0 !
b0b00000011 7
b0b111 F

#8750
b0b0 #
#8800
b0b1 #

b0b00000100 7

#8850
b0b0 #
#8900
b0b1 #

b0b0 1
b0b001 6
b0b00000000 7
b0b0 :
b0b1 @

#8950
b0b0 #
#9000
b0b1 #

b0b1 )
b0b1 2
b0b0111 9
b0b1 <
b0b00000111 ?

#9050
b0b0 #
#9100
b0b1 #

b0b0 )
b0b0 ,
b0b0 -
b0b010 6
b0b0 <
b0b0 @
b0b0 E

#9150
b0b0 #
#9200
b0b1 #

b0b00000110 %
b0b1 ,
b0b00000001 7
b0b110 F

#9250
b0b0 #
#9300
b0b1 #

b0b1 &
b0b0 (
b0b00000010 7
b0b100 F

#9350
b0b0 #
#9400
b0b1 #

b0b0 &
b0b00000011 7
b0b000 F
b0b00000100 K

#9450
b0b0 #
#9500
b0b1 #

b0b00000100 7

#9550
b0b0 #
#9600
b0b1 #

b0b011 6
b0b00000000 7
b0b00111111 8
b0b1 ;

#9650
b0b0 #
#9700
b0b1 #

b0b1 .
b0b00000001 7
b0b0001 =

#9750
b0b0 #
#9800
b0b1 #

b0b00000010 7
b0b0010 =
b0b001 B

#9850
b0b0 #
#9900
b0b1 #

b0b1 +
b0b00000011 7
b0b0011 =
b0b011 B
b0b1 C
b0b1 L

#9950
b0b0 #
#10000
b0b1 #

b0b00001000 "
b0b00000100 7
b0b0000 =
b0b111 B
b0b0 C
b0b0 L

#10050
b0b0 #
#10100
b0b1 #

b0b0 .
b0b00000101 7
b0b0110 9
b0b0001 =

#10150
b0b0 #
#10200
b0b1 #

b0b00000110 7
b0b0010 =
b0b110 B

#10250
b0b0 #
#10300
b0b1 #

b0b0 +
b0b00000111 7
b0b0011 =
b0b100 B
b0b1 D
b0b1 J

#10350
b0b0 #
#10400
b0b1 #

b0b00001000 7
b0b0000 =
b0b000 B
b0b0 D
b0b0 J
b0b00001000 K

#10450
b0b0 #
#10500
b0b1 #

b0b1 .
b0b00001001 7
b0b0001 =

#10550
b0b0 #
#10600
b0b1 #

b0b00001010 7
b0b0010 =
b0b001 B

#10650
b0b0 #
#10700
b0b1 #

b0b1 +
b0b00001011 7
b0b0011 =
b0b011 B
b0b1 C
b0b1 L

#10750
b0b0 #
#10800
b0b1 #

b0b00010000 "
b0b00001100 7
b0b0000 =
b0b111 B
b0b0 C
b0b0 L

#10850
b0b0 #
#10900
b0b1 #

b0b0 .
b0b00001101 7
b0b0101 9
b0b0001 =

#10950
b0b0 #
#11000
b0b1 #

b0b00001110 7
b0b0010 =
b0b110 B

#11050
b0b0 #
#11100
b0b1 #

b0b0 +
b0b00001111 7
b0b0011 =
b0b100 B
b0b1 D
b0b1 J

#11150
b0b0 #
#11200
b0b1 #

b0b00010000 7
b0b0000 =
b0b000 B
b0b0 D
b0b0 J
b0b00010000 K

#11250
b0b0 #
#11300
b0b1 #

b0b1 .
b0b00010001 7
b0b0001 =

#11350
b0b0 #
#11400
b0b1 #

b0b00010010 7
b0b0010 =
b0b001 B

#11450
b0b0 #
#11500
b0b1 #

b0b1 +
b0b00010011 7
b0b0011 =
b0b011 B
b0b1 C
b0b1 L

#11550
b0b0 #
#11600
b0b1 #

b0b00100000 "
b0b00010100 7
b0b0000 =
b0b111 B
b0b0 C
b0b0 L

#11650
b0b0 #
#11700
b0b1 #

b0b0 .
b0b00010101 7
b0b0100 9
b0b0001 =

#11750
b0b0 #
#11800
b0b1 #

b0b00010110 7
b0b0010 =
b0b110 B

#11850
b0b0 #
#11900
b0b1 #

b0b0 +
b0b00010111 7
b0b0011 =
b0b100 B
b0b1 D
b0b1 J

#11950
b0b0 #
#12000
b0b1 #

b0b00011000 7
b0b0000 =
b0b000 B
b0b0 D
b0b0 J
b0b00100000 K

#12050
b0b0 #
#12100
b0b1 #

b0b1 .
b0b00011001 7
b0b0001 =

#12150
b0b0 #
#12200
b0b1 #

b0b00011010 7
b0b0010 =
b0b001 B

#12250
b0b0 #
#12300
b0b1 #

b0b1 +
b0b00011011 7
b0b0011 =
b0b011 B
b0b1 C
b0b1 L

#12350
b0b0 #
#12400
b0b1 #

b0b01000000 "
b0b00011100 7
b0b0000 =
b0b111 B
b0b0 C
b0b0 L

#12450
b0b0 #
#12500
b0b1 #

b0b0 .
b0b00011101 7
b0b0011 9
b0b0001 =

#12550
b0b0 #
#12600
b0b1 #

b0b00011110 7
b0b0010 =
b0b110 B

#12650
b0b0 #
#12700
b0b1 #

b0b0 +
b0b00011111 7
b0b0011 =
b0b100 B
b0b1 D
b0b1 J

#12750
b0b0 #
#12800
b0b1 #

b0b00100000 7
b0b0000 =
b0b000 B
b0b0 D
b0b0 J
b0b01000000 K

#12850
b0b0 #
#12900
b0b1 #

b0b1 .
b0b00100001 7
b0b0001 =

#12950
b0b0 #
#13000
b0b1 #

b0b00100010 7
b0b0010 =
b0b001 B

#13050
b0b0 #
#13100
b0b1 #

b0b1 +
b0b00100011 7
b0b0011 =
b0b011 B
b0b1 C
b0b1 L

#13150
b0b0 #
#13200
b0b1 #

b0b10000000 "
b0b00100100 7
b0b0000 =
b0b111 B
b0b0 C
b0b0 L

#13250
b0b0 #
#13300
b0b1 #

b0b0 .
b0b1 0
b0b00100101 7
b0b0010 9
b0b0001 =

#13350
b0b0 #
#13400
b0b1 #

b0b00100110 7
b0b0010 =
b0b110 B
b0b001 I

#13450
b0b0 #
#13500
b0b1 #

b0b1 *
b0b0 +
b0b00100111 7
b0b0011 =
b0b100 B
b0b1 D
b0b1 G
b0b011 I
b0b1 J

#13550
b0b0 #
#13600
b0b1 #

b0b1 /
b0b00101000 7
b0b0000 =
b0b000 B
b0b0 D
b0b0 G
b0b111 I
b0b0 J
b0b10000000 K

#13650
b0b0 #
#13700
b0b1 #

b0b00000001 '
b0b1 .
b0b00101001 7
b0b0001 =

#13750
b0b0 #
#13800
b0b1 #

b0b00101010 7
b0b0010 =
b0b001 B

#13850
b0b0 #
#13900
b0b1 #

b0b1 +
b0b00101011 7
b0b0011 =
b0b011 B
b0b1 C
b0b1 L

#13950
b0b0 #
#14000
b0b1 #

b0b00000001 "
b0b00101100 7
b0b0000 =
b0b111 B
b0b0 C
b0b0 L

#14050
b0b0 #
#14100
b0b1 #

b0b0 .
b0b00101101 7
b0b0001 9
b0b0001 =

#14150
b0b0 #
#14200
b0b1 #

b0b00101110 7
b0b0010 =
b0b110 B

#14250
b0b0 #
#14300
b0b1 #

b0b0 +
b0b00101111 7
b0b0011 =
b0b100 B
b0b1 D
b0b1 J

#14350
b0b0 #
#14400
b0b1 #

b0b0 /
b0b00110000 7
b0b0000 =
b0b000 B
b0b0 D
b0b0 J
b0b00000000 K

#14450
b0b0 #
#14500
b0b1 #

b0b00000010 '
b0b1 .
b0b00110001 7
b0b0001 =

#14550
b0b0 #
#14600
b0b1 #

b0b00110010 7
b0b0010 =
b0b001 B

#14650
b0b0 #
#14700
b0b1 #

b0b1 +
b0b00110011 7
b0b0011 =
b0b011 B
b0b1 C
b0b1 L

#14750
b0b0 #
#14800
b0b1 #

b0b00000011 "
b0b00110100 7
b0b0000 =
b0b111 B
b0b0 C
b0b0 L

#14850
b0b0 #
#14900
b0b1 #

b0b0 .
b0b00110101 7
b0b0000 9
b0b0001 =

#14950
b0b0 #
#15000
b0b1 #

b0b00110110 7
b0b0010 =
b0b110 B

#15050
b0b0 #
#15100
b0b1 #

b0b0 +
b0b00110111 7
b0b0011 =
b0b100 B
b0b1 D
b0b1 J

#15150
b0b0 #
#15200
b0b1 #

b0b00111000 7
b0b0000 =
b0b000 B
b0b0 D
b0b0 J

#15250
b0b0 #
#15300
b0b1 #

b0b00000100 '
b0b1 .
b0b00111001 7
b0b0001 =

#15350
b0b0 #
#15400
b0b1 #

b0b00111010 7
b0b0010 =
b0b001 B

#15450
b0b0 #
#15500
b0b1 #

b0b1 +
b0b00111011 7
b0b0011 =
b0b011 B
b0b1 C
b0b1 L

#15550
b0b0 #
#15600
b0b1 #

b0b00000111 "
b0b00111100 7
b0b0000 =
b0b111 B
b0b0 C
b0b0 L

#15650
b0b0 #
#15700
b0b1 #

b0b0 .
b0b00111101 7
b0b0001 =

#15750
b0b0 #
#15800
b0b1 #

b0b00111110 7
b0b0010 =
b0b110 B

#15850
b0b0 #
#15900
b0b1 #

b0b0 +
b0b00111111 7
b0b0011 =
b0b100 B
b0b1 D
b0b1 J

#15950
b0b0 #
#16000
b0b1 #

b0b100 6
b0b00000000 7
b0b00000100 8
b0b0 ;
b0b0000 =
b0b000 B
b0b0 D
b0b0 J

#16050
b0b0 #
#16100
b0b1 #

b0b00000001 7

#16150
b0b0 #
#16200
b0b1 #

b0b00000010 7

#16250
b0b0 #
#16300
b0b1 #

b0b00000011 7

#16350
b0b0 #
#16400
b0b1 #

b0b00000100 7

#16450
b0b0 #
#16500
b0b1 #

b0b1 -
b0b1 1
b0b101 6
b0b00000000 7
b0b1 :
b0b1 E

#16550
b0b0 #
#16600
b0b1 #

b0b0 2
b0b00000001 7
b0b001 F

#16650
b0b0 #
#16700
b0b1 #

b0b1 !
b0b1 (
b0b00000010 7
b0b011 F

#16750
b0b0 #
#16800
b0b1 #

b0b0 !
b0b00000011 7
b0b111 F

#16850
b0b0 #
#16900
b0b1 #

b0b00000100 7

#16950
b0b0 #
#17000
b0b1 #

b0b0 1
b0b001 6
b0b00000000 7
b0b0 :
b0b1 @

#17050
b0b0 #
#17100
b0b1 #

b0b00000000 '
b0b1 )
b0b0 0
b0b1 2
b0b0111 9
b0b1 <
b0b00000110 ?

#17150
b0b0 #
#17200
b0b1 #

b0b0 )
b0b0 ,
b0b0 -
b0b010 6
b0b0 <
b0b0 @
b0b0 E
b0b110 I

#17250
b0b0 #
#17300
b0b1 #

b0b00001000 %
b0b0 *
b0b1 ,
b0b00000001 7
b0b110 F
b0b1 H
b0b100 I

#17350
b0b0 #
#17400
b0b1 #

b0b1 &
b0b0 (
b0b00000010 7
b0b100 F
b0b0 H
b0b000 I

#17450
b0b0 #
#17500
b0b1 #

b0b0 &
b0b00000011 7
b0b000 F
b0b00000111 K

#17550
b0b0 #
#17600
b0b1 #

b0b00000100 7

#17650
b0b0 #
#17700
b0b1 #

b0b011 6
b0b00000000 7
b0b00111111 8
b0b1 ;

#17750
b0b0 #
#17800
b0b1 #

b0b1 .
b0b00000001 7
b0b0001 =

#17850
b0b0 #
#17900
b0b1 #

b0b00000010 7
b0b0010 =
b0b001 B

#17950
b0b0 #
#18000
b0b1 #

b0b1 +
b0b00000011 7
b0b0011 =
b0b011 B
b0b1 C
b0b1 L

#18050
b0b0 #
#18100
b0b1 #

b0b00001110 "
b0b00000100 7
b0b0000 =
b0b111 B
b0b0 C
b0b0 L

#18150
b0b0 #
#18200
b0b1 #

b0b0 .
b0b00000101 7
b0b0110 9
b0b0001 =

#18250
b0b0 #
#18300
b0b1 #

b0b00000110 7
b0b0010 =
b0b110 B

#18350
b0b0 #
#18400
b0b1 #

b0b0 +
b0b00000111 7
b0b0011 =
b0b100 B
b0b1 D
b0b1 J

#18450
b0b0 #
#18500
b0b1 #

b0b00001000 7
b0b0000 =
b0b000 B
b0b0 D
b0b0 J
b0b00001110 K

#18550
b0b0 #
#18600
b0b1 #

b0b1 .
b0b00001001 7
b0b0001 =

#18650
b0b0 #
#18700
b0b1 #

b0b00001010 7
b0b0010 =
b0b001 B

#18750
b0b0 #
#18800
b0b1 #

b0b1 +
b0b00001011 7
b0b0011 =
b0b011 B
b0b1 C
b0b1 L

#18850
b0b0 #
#18900
b0b1 #

b0b00011100 "
b0b00001100 7
b0b0000 =
b0b111 B
b0b0 C
b0b0 L

#18950
b0b0 #
#19000
b0b1 #

b0b0 .
b0b00001101 7
b0b0101 9
b0b0001 =

#19050
b0b0 #
#19100
b0b1 #

b0b00001110 7
b0b0010 =
b0b110 B

#19150
b0b0 #
#19200
b0b1 #

b0b0 +
b0b00001111 7
b0b0011 =
b0b100 B
b0b1 D
b0b1 J

#19250
b0b0 #
#19300
b0b1 #

b0b00010000 7
b0b0000 =
b0b000 B
b0b0 D
b0b0 J
b0b00011100 K

#19350
b0b0 #
#19400
b0b1 #

b0b1 .
b0b00010001 7
b0b0001 =

#19450
b0b0 #
#19500
b0b1 #

b0b00010010 7
b0b0010 =
b0b001 B

#19550
b0b0 #
#19600
b0b1 #

b0b1 +
b0b00010011 7
b0b0011 =
b0b011 B
b0b1 C
b0b1 L

#19650
b0b0 #
#19700
b0b1 #

b0b00111000 "
b0b00010100 7
b0b0000 =
b0b111 B
b0b0 C
b0b0 L

#19750
b0b0 #
#19800
b0b1 #

b0b0 .
b0b00010101 7
b0b0100 9
b0b0001 =

#19850
b0b0 #
#19900
b0b1 #

b0b00010110 7
b0b0010 =
b0b110 B

#19950
b0b0 #
#20000
b0b1 #

b0b0 +
b0b00010111 7
b0b0011 =
b0b100 B
b0b1 D
b0b1 J

#20050
b0b0 #
#20100
b0b1 #

b0b00011000 7
b0b0000 =
b0b000 B
b0b0 D
b0b0 J
b0b00111000 K

#20150
b0b0 #
#20200
b0b1 #

b0b1 .
b0b00011001 7
b0b0001 =

#20250
b0b0 #
#20300
b0b1 #

b0b00011010 7
b0b0010 =
b0b001 B

#20350
b0b0 #
#20400
b0b1 #

b0b1 +
b0b00011011 7
b0b0011 =
b0b011 B
b0b1 C
b0b1 L

#20450
b0b0 #
#20500
b0b1 #

b0b01110000 "
b0b00011100 7
b0b0000 =
b0b111 B
b0b0 C
b0b0 L

#20550
b0b0 #
#20600
b0b1 #

b0b0 .
b0b00011101 7
b0b0011 9
b0b0001 =

#20650
b0b0 #
#20700
b0b1 #

b0b00011110 7
b0b0010 =
b0b110 B

#20750
b0b0 #
#20800
b0b1 #

b0b0 +
b0b00011111 7
b0b0011 =
b0b100 B
b0b1 D
b0b1 J

#20850
b0b0 #
#20900
b0b1 #

b0b00100000 7
b0b0000 =
b0b000 B
b0b0 D
b0b0 J
b0b01110000 K

#20950
b0b0 #
#21000
b0b1 #

b0b1 .
b0b00100001 7
b0b0001 =

#21050
b0b0 #
#21100
b0b1 #

b0b00100010 7
b0b0010 =
b0b001 B

#21150
b0b0 #
#21200
b0b1 #

b0b1 +
b0b00100011 7
b0b0011 =
b0b011 B
b0b1 C
b0b1 L

#21250
b0b0 #
#21300
b0b1 #

b0b11100000 "
b0b00100100 7
b0b0000 =
b0b111 B
b0b0 C
b0b0 L

#21350
b0b0 #
#21400
b0b1 #

b0b0 .
b0b1 0
b0b00100101 7
b0b0010 9
b0b0001 =

#21450
b0b0 #
#21500
b0b1 #

b0b00100110 7
b0b0010 =
b0b110 B
b0b001 I

#21550
b0b0 #
#21600
b0b1 #

b0b1 *
b0b0 +
b0b00100111 7
b0b0011 =
b0b100 B
b0b1 D
b0b1 G
b0b011 I
b0b1 J

#21650
b0b0 #
#21700
b0b1 #

b0b1 /
b0b00101000 7
b0b0000 =
b0b000 B
b0b0 D
b0b0 G
b0b111 I
b0b0 J
b0b11100000 K

#21750
b0b0 #
#21800
b0b1 #

b0b00000001 '
b0b1 .
b0b00101001 7
b0b0001 =

#21850
b0b0 #
#21900
b0b1 #

b0b00101010 7
b0b0010 =
b0b001 B

#21950
b0b0 #
#22000
b0b1 #

b0b1 +
b0b00101011 7
b0b0011 =
b0b011 B
b0b1 C
b0b1 L

#22050
b0b0 #
#22100
b0b1 #

b0b11000001 "
b0b00101100 7
b0b0000 =
b0b111 B
b0b0 C
b0b0 L

#22150
b0b0 #
#22200
b0b1 #

b0b0 .
b0b00101101 7
b0b0001 9
b0b0001 =

#22250
b0b0 #
#22300
b0b1 #

b0b00101110 7
b0b0010 =
b0b110 B

#22350
b0b0 #
#22400
b0b1 #

b0b0 +
b0b00101111 7
b0b0011 =
b0b100 B
b0b1 D
b0b1 J

#22450
b0b0 #
#22500
b0b1 #

b0b00110000 7
b0b0000 =
b0b000 B
b0b0 D
b0b0 J
b0b11000000 K

#22550
b0b0 #
#22600
b0b1 #

b0b00000011 '
b0b1 .
b0b00110001 7
b0b0001 =

#22650
b0b0 #
