Vcdwavedir/TestBench.sim__test_stack_16bit_more_larger_3x1.vcd
$date
  Tue Mar 22 19:59:08 2022
$end
$version
  PyMTL 3 (Mamba)
$end
$timescale
 10ps
$end

$scope module top $end
  $var reg 1 ! reset $end
  $var reg 1 & clk $end
  $scope module slave $end
    $var reg 1 ! reset $end
    $var reg 1 ( slave_inter.miso $end
    $var reg 1 % pull.en $end
    $var reg 16 " push.msg $end
    $var reg 1 . slave_inter.mosi $end
    $var reg 1 & clk $end
    $var reg 16 6 pull.msg $end
    $var reg 1 / slave_inter.cs $end
    $var reg 1 - push.en $end
    $var reg 1 0 slave_inter.sclk $end
    $scope module mosi_sync $end
      $var reg 3 7 shreg $end
      $var reg 1 8 posedge_ $end
      $var reg 1 . in_ $end
      $var reg 1 ! reset $end
      $var reg 1 & clk $end
      $var reg 1 9 negedge_ $end
      $var reg 1 + out $end
    $upscope $end
    $scope module shreg_out $end
      $var reg 1 % load_en $end
      $var reg 1 & clk $end
      $var reg 16 : out $end
      $var reg 1 3 in_ $end
      $var reg 16 " load_data $end
      $var reg 1 ; shift_en $end
      $var reg 1 ! reset $end
    $upscope $end
    $scope module shreg_in $end
      $var reg 1 ! reset $end
      $var reg 16 " out $end
      $var reg 1 & clk $end
      $var reg 16 5 load_data $end
      $var reg 1 4 load_en $end
      $var reg 1 + in_ $end
      $var reg 1 < shift_en $end
    $upscope $end
    $scope module cs_sync $end
      $var reg 1 ! reset $end
      $var reg 1 % negedge_ $end
      $var reg 1 = in_ $end
      $var reg 3 > shreg $end
      $var reg 1 , out $end
      $var reg 1 & clk $end
      $var reg 1 - posedge_ $end
    $upscope $end
    $scope module sclk_sync $end
      $var reg 1 & clk $end
      $var reg 1 ? posedge_ $end
      $var reg 1 $ out $end
      $var reg 1 ! reset $end
      $var reg 3 @ shreg $end
      $var reg 1 A negedge_ $end
      $var reg 1 0 in_ $end
    $upscope $end
  $upscope $end
  $scope module src $end
    $var reg 16 # send.msg $end
    $var reg 1 * send.rdy $end
    $var reg 1 & clk $end
    $var reg 1 ) send.val $end
    $var reg 1 ! reset $end
  $upscope $end
  $scope module master $end
    $var reg 3 B state $end
    $var reg 1 . master_infer.mosi $end
    $var reg 8 C cntr $end
    $var reg 16 ' resp.msg $end
    $var reg 1 0 master_infer.sclk $end
    $var reg 1 ( master_infer.miso $end
    $var reg 8 D cntr_max $end
    $var reg 4 E mosi_reg_pointer $end
    $var reg 1 / master_infer.cs $end
    $var reg 16 ' miso_reg $end
    $var reg 1 F sclk_en $end
    $var reg 1 G result_read $end
    $var reg 4 H sclk_cntr $end
    $var reg 1 ! reset $end
    $var reg 16 # req.msg $end
    $var reg 1 ) req.val $end
    $var reg 1 I val_progressing $end
    $var reg 1 & clk $end
    $var reg 1 * req.rdy $end
    $var reg 1 J msg_from_slave $end
    $var reg 1 2 resp.val $end
    $var reg 1 1 resp.rdy $end
    $scope module mosi_reg $end
      $var reg 1 ! reset $end
      $var reg 16 K out $end
      $var reg 16 # in_ $end
      $var reg 1 & clk $end
      $var reg 1 L en $end
    $upscope $end
  $upscope $end
  $scope module sink $end
    $var reg 1 ! reset $end
    $var reg 1 & clk $end
    $var reg 16 ' recv.msg $end
    $var reg 1 1 recv.rdy $end
    $var reg 1 2 recv.val $end
  $upscope $end
$upscope $end
$enddefinitions $end

b0b0 !
b0b0000000000000000 "
b0b0000000000000000 #
b0b0 $
b0b0 %
b0b0 &
b0b0000000000000000 '
b0b0 (
b0b0 )
b0b0 *
b0b0 +
b0b0 ,
b0b0 -
b0b0 .
b0b0 /
b0b0 0
b0b0 1
b0b0 2
b0b0 3
b0b0 4
b0b0000000000000000 5
b0b0000000000000000 6
b0b000 7
b0b0 8
b0b0 9
b0b0000000000000000 :
b0b0 ;
b0b0 <
b0b0 =
b0b000 >
b0b0 ?
b0b000 @
b0b0 A
b0b000 B
b0b00000000 C
b0b00000000 D
b0b0000 E
b0b0 F
b0b0 G
b0b0000 H
b0b0 I
b0b0 J
b0b0000000000000000 K
b0b0 L

#0
b0b1 &

b0b1 !
b0b0000000000000000 '
b0b0 (
b0b1 /
b0b0000000000000000 5
b0b000 7
b0b0 8
b0b0000000000000000 :
b0b0 ;
b0b1 =
b0b000 >
b0b0 ?
b0b000 @
b0b0 A
b0b000 B
b0b00000000 C
b0b00000100 D
b0b0000 E
b0b0 F
b0b0000 H
b0b0 I
b0b0000000000000000 K
b0b0 L

#50
b0b0 &
#100
b0b1 &

b0b001 >
b0b001 B
b0b00000001 C

#150
b0b0 &
#200
b0b1 &

b0b1 ,
b0b1 -
b0b011 >
b0b000 B
b0b00000000 C
b0b1111 E

#250
b0b0 &
#300
b0b1 &

b0b0 !
b0b0 -
b0b111 >
b0b001 B
b0b00000001 C

#350
b0b0 &
#400
b0b1 &

b0b00000000 C

#450
b0b0 &
#500
b0b1 &

b0b1 *
b0b1 1
b0b1 G

#550
b0b0 &
#600
b0b1 &


#650
b0b0 &
#700
b0b1 &

b0b0000100110110000 #
b0b1 )
b0b1 I
b0b1 L

#750
b0b0 &
#800
b0b1 &

b0b0 )
b0b0 *
b0b0 /
b0b0 =
b0b010 B
b0b0 G
b0b0000100110110000 K
b0b0 L

#850
b0b0 &
#900
b0b1 &

b0b110 >
b0b00000001 C

#950
b0b0 &
#1000
b0b1 &

b0b1 %
b0b0 ,
b0b100 >
b0b00000010 C

#1050
b0b0 &
#1100
b0b1 &

b0b0001000010110011 #
b0b0 %
b0b1 )
b0b000 >
b0b00000011 C

#1150
b0b0 &
#1200
b0b1 &

b0b00000100 C

#1250
b0b0 &
#1300
b0b1 &

b0b011 B
b0b00000000 C
b0b01111111 D
b0b1 F

#1350
b0b0 &
#1400
b0b1 &

b0b1 0
b0b00000001 C
b0b0001 H

#1450
b0b0 &
#1500
b0b1 &

b0b001 @
b0b00000010 C
b0b0010 H

#1550
b0b0 &
#1600
b0b1 &

b0b1 $
b0b1 <
b0b1 ?
b0b011 @
b0b00000011 C
b0b0011 H

#1650
b0b0 &
#1700
b0b1 &

b0b0 <
b0b0 ?
b0b111 @
b0b00000100 C
b0b0000 H

#1750
b0b0 &
#1800
b0b1 &

b0b0 0
b0b00000101 C
b0b1110 E
b0b0001 H

#1850
b0b0 &
#1900
b0b1 &

b0b110 @
b0b00000110 C
b0b0010 H

#1950
b0b0 &
#2000
b0b1 &

b0b0 $
b0b1 ;
b0b100 @
b0b1 A
b0b00000111 C
b0b0011 H

#2050
b0b0 &
#2100
b0b1 &

b0b0 ;
b0b000 @
b0b0 A
b0b00001000 C
b0b0000 H

#2150
b0b0 &
#2200
b0b1 &

b0b1 0
b0b00001001 C
b0b0001 H

#2250
b0b0 &
#2300
b0b1 &

b0b001 @
b0b00001010 C
b0b0010 H

#2350
b0b0 &
#2400
b0b1 &

b0b1 $
b0b1 <
b0b1 ?
b0b011 @
b0b00001011 C
b0b0011 H

#2450
b0b0 &
#2500
b0b1 &

b0b0 <
b0b0 ?
b0b111 @
b0b00001100 C
b0b0000 H

#2550
b0b0 &
#2600
b0b1 &

b0b0 0
b0b00001101 C
b0b1101 E
b0b0001 H

#2650
b0b0 &
#2700
b0b1 &

b0b110 @
b0b00001110 C
b0b0010 H

#2750
b0b0 &
#2800
b0b1 &

b0b0 $
b0b1 ;
b0b100 @
b0b1 A
b0b00001111 C
b0b0011 H

#2850
b0b0 &
#2900
b0b1 &

b0b0 ;
b0b000 @
b0b0 A
b0b00010000 C
b0b0000 H

#2950
b0b0 &
#3000
b0b1 &

b0b1 0
b0b00010001 C
b0b0001 H

#3050
b0b0 &
#3100
b0b1 &

b0b001 @
b0b00010010 C
b0b0010 H

#3150
b0b0 &
#3200
b0b1 &

b0b1 $
b0b1 <
b0b1 ?
b0b011 @
b0b00010011 C
b0b0011 H

#3250
b0b0 &
#3300
b0b1 &

b0b0 <
b0b0 ?
b0b111 @
b0b00010100 C
b0b0000 H

#3350
b0b0 &
#3400
b0b1 &

b0b0 0
b0b00010101 C
b0b1100 E
b0b0001 H

#3450
b0b0 &
#3500
b0b1 &

b0b110 @
b0b00010110 C
b0b0010 H

#3550
b0b0 &
#3600
b0b1 &

b0b0 $
b0b1 ;
b0b100 @
b0b1 A
b0b00010111 C
b0b0011 H

#3650
b0b0 &
#3700
b0b1 &

b0b0 ;
b0b000 @
b0b0 A
b0b00011000 C
b0b0000 H

#3750
b0b0 &
#3800
b0b1 &

b0b1 0
b0b00011001 C
b0b0001 H

#3850
b0b0 &
#3900
b0b1 &

b0b001 @
b0b00011010 C
b0b0010 H

#3950
b0b0 &
#4000
b0b1 &

b0b1 $
b0b1 <
b0b1 ?
b0b011 @
b0b00011011 C
b0b0011 H

#4050
b0b0 &
#4100
b0b1 &

b0b0 <
b0b0 ?
b0b111 @
b0b00011100 C
b0b0000 H

#4150
b0b0 &
#4200
b0b1 &

b0b1 .
b0b0 0
b0b00011101 C
b0b1011 E
b0b0001 H

#4250
b0b0 &
#4300
b0b1 &

b0b001 7
b0b110 @
b0b00011110 C
b0b0010 H

#4350
b0b0 &
#4400
b0b1 &

b0b0 $
b0b1 +
b0b011 7
b0b1 8
b0b1 ;
b0b100 @
b0b1 A
b0b00011111 C
b0b0011 H

#4450
b0b0 &
#4500
b0b1 &

b0b111 7
b0b0 8
b0b0 ;
b0b000 @
b0b0 A
b0b00100000 C
b0b0000 H

#4550
b0b0 &
#4600
b0b1 &

b0b1 0
b0b00100001 C
b0b0001 H

#4650
b0b0 &
#4700
b0b1 &

b0b001 @
b0b00100010 C
b0b0010 H

#4750
b0b0 &
#4800
b0b1 &

b0b1 $
b0b1 <
b0b1 ?
b0b011 @
b0b00100011 C
b0b0011 H

#4850
b0b0 &
#4900
b0b1 &

b0b0000000000000001 "
b0b0 <
b0b0 ?
b0b111 @
b0b00100100 C
b0b0000 H

#4950
b0b0 &
#5000
b0b1 &

b0b0 .
b0b0 0
b0b00100101 C
b0b1010 E
b0b0001 H

#5050
b0b0 &
#5100
b0b1 &

b0b110 7
b0b110 @
b0b00100110 C
b0b0010 H

#5150
b0b0 &
#5200
b0b1 &

b0b0 $
b0b0 +
b0b100 7
b0b1 9
b0b1 ;
b0b100 @
b0b1 A
b0b00100111 C
b0b0011 H

#5250
b0b0 &
#5300
b0b1 &

b0b000 7
b0b0 9
b0b0 ;
b0b000 @
b0b0 A
b0b00101000 C
b0b0000 H

#5350
b0b0 &
#5400
b0b1 &

b0b1 0
b0b00101001 C
b0b0001 H

#5450
b0b0 &
#5500
b0b1 &

b0b001 @
b0b00101010 C
b0b0010 H

#5550
b0b0 &
#5600
b0b1 &

b0b1 $
b0b1 <
b0b1 ?
b0b011 @
b0b00101011 C
b0b0011 H

#5650
b0b0 &
#5700
b0b1 &

b0b0000000000000010 "
b0b0 <
b0b0 ?
b0b111 @
b0b00101100 C
b0b0000 H

#5750
b0b0 &
#5800
b0b1 &

b0b0 0
b0b00101101 C
b0b1001 E
b0b0001 H

#5850
b0b0 &
#5900
b0b1 &

b0b110 @
b0b00101110 C
b0b0010 H

#5950
b0b0 &
#6000
b0b1 &

b0b0 $
b0b1 ;
b0b100 @
b0b1 A
b0b00101111 C
b0b0011 H

#6050
b0b0 &
#6100
b0b1 &

b0b0 ;
b0b000 @
b0b0 A
b0b00110000 C
b0b0000 H

#6150
b0b0 &
#6200
b0b1 &

b0b1 0
b0b00110001 C
b0b0001 H

#6250
b0b0 &
#6300
b0b1 &

b0b001 @
b0b00110010 C
b0b0010 H

#6350
b0b0 &
#6400
b0b1 &

b0b1 $
b0b1 <
b0b1 ?
b0b011 @
b0b00110011 C
b0b0011 H

#6450
b0b0 &
#6500
b0b1 &

b0b0000000000000100 "
b0b0 <
b0b0 ?
b0b111 @
b0b00110100 C
b0b0000 H

#6550
b0b0 &
#6600
b0b1 &

b0b1 .
b0b0 0
b0b00110101 C
b0b1000 E
b0b0001 H

#6650
b0b0 &
#6700
b0b1 &

b0b001 7
b0b110 @
b0b00110110 C
b0b0010 H

#6750
b0b0 &
#6800
b0b1 &

b0b0 $
b0b1 +
b0b011 7
b0b1 8
b0b1 ;
b0b100 @
b0b1 A
b0b00110111 C
b0b0011 H

#6850
b0b0 &
#6900
b0b1 &

b0b111 7
b0b0 8
b0b0 ;
b0b000 @
b0b0 A
b0b00111000 C
b0b0000 H

#6950
b0b0 &
#7000
b0b1 &

b0b1 0
b0b00111001 C
b0b0001 H

#7050
b0b0 &
#7100
b0b1 &

b0b001 @
b0b00111010 C
b0b0010 H

#7150
b0b0 &
#7200
b0b1 &

b0b1 $
b0b1 <
b0b1 ?
b0b011 @
b0b00111011 C
b0b0011 H

#7250
b0b0 &
#7300
b0b1 &

b0b0000000000001001 "
b0b0 <
b0b0 ?
b0b111 @
b0b00111100 C
b0b0000 H

#7350
b0b0 &
#7400
b0b1 &

b0b0 0
b0b00111101 C
b0b0111 E
b0b0001 H

#7450
b0b0 &
#7500
b0b1 &

b0b110 @
b0b00111110 C
b0b0010 H

#7550
b0b0 &
#7600
b0b1 &

b0b0 $
b0b1 ;
b0b100 @
b0b1 A
b0b00111111 C
b0b0011 H

#7650
b0b0 &
#7700
b0b1 &

b0b0 ;
b0b000 @
b0b0 A
b0b01000000 C
b0b0000 H

#7750
b0b0 &
#7800
b0b1 &

b0b1 0
b0b01000001 C
b0b0001 H

#7850
b0b0 &
#7900
b0b1 &

b0b001 @
b0b01000010 C
b0b0010 H

#7950
b0b0 &
#8000
b0b1 &

b0b1 $
b0b1 <
b0b1 ?
b0b011 @
b0b01000011 C
b0b0011 H

#8050
b0b0 &
#8100
b0b1 &

b0b0000000000010011 "
b0b0 <
b0b0 ?
b0b111 @
b0b01000100 C
b0b0000 H

#8150
b0b0 &
#8200
b0b1 &

b0b0 .
b0b0 0
b0b01000101 C
b0b0110 E
b0b0001 H

#8250
b0b0 &
#8300
b0b1 &

b0b110 7
b0b110 @
b0b01000110 C
b0b0010 H

#8350
b0b0 &
#8400
b0b1 &

b0b0 $
b0b0 +
b0b100 7
b0b1 9
b0b1 ;
b0b100 @
b0b1 A
b0b01000111 C
b0b0011 H

#8450
b0b0 &
#8500
b0b1 &

b0b000 7
b0b0 9
b0b0 ;
b0b000 @
b0b0 A
b0b01001000 C
b0b0000 H

#8550
b0b0 &
#8600
b0b1 &

b0b1 0
b0b01001001 C
b0b0001 H

#8650
b0b0 &
#8700
b0b1 &

b0b001 @
b0b01001010 C
b0b0010 H

#8750
b0b0 &
#8800
b0b1 &

b0b1 $
b0b1 <
b0b1 ?
b0b011 @
b0b01001011 C
b0b0011 H

#8850
b0b0 &
#8900
b0b1 &

b0b0000000000100110 "
b0b0 <
b0b0 ?
b0b111 @
b0b01001100 C
b0b0000 H

#8950
b0b0 &
#9000
b0b1 &

b0b1 .
b0b0 0
b0b01001101 C
b0b0101 E
b0b0001 H

#9050
b0b0 &
#9100
b0b1 &

b0b001 7
b0b110 @
b0b01001110 C
b0b0010 H

#9150
b0b0 &
#9200
b0b1 &

b0b0 $
b0b1 +
b0b011 7
b0b1 8
b0b1 ;
b0b100 @
b0b1 A
b0b01001111 C
b0b0011 H

#9250
b0b0 &
#9300
b0b1 &

b0b111 7
b0b0 8
b0b0 ;
b0b000 @
b0b0 A
b0b01010000 C
b0b0000 H

#9350
b0b0 &
#9400
b0b1 &

b0b1 0
b0b01010001 C
b0b0001 H

#9450
b0b0 &
#9500
b0b1 &

b0b001 @
b0b01010010 C
b0b0010 H

#9550
b0b0 &
#9600
b0b1 &

b0b1 $
b0b1 <
b0b1 ?
b0b011 @
b0b01010011 C
b0b0011 H

#9650
b0b0 &
#9700
b0b1 &

b0b0000000001001101 "
b0b0 <
b0b0 ?
b0b111 @
b0b01010100 C
b0b0000 H

#9750
b0b0 &
#9800
b0b1 &

b0b0 0
b0b01010101 C
b0b0100 E
b0b0001 H

#9850
b0b0 &
#9900
b0b1 &

b0b110 @
b0b01010110 C
b0b0010 H

#9950
b0b0 &
#10000
b0b1 &

b0b0 $
b0b1 ;
b0b100 @
b0b1 A
b0b01010111 C
b0b0011 H

#10050
b0b0 &
#10100
b0b1 &

b0b0 ;
b0b000 @
b0b0 A
b0b01011000 C
b0b0000 H

#10150
b0b0 &
#10200
b0b1 &

b0b1 0
b0b01011001 C
b0b0001 H

#10250
b0b0 &
#10300
b0b1 &

b0b001 @
b0b01011010 C
b0b0010 H

#10350
b0b0 &
#10400
b0b1 &

b0b1 $
b0b1 <
b0b1 ?
b0b011 @
b0b01011011 C
b0b0011 H

#10450
b0b0 &
#10500
b0b1 &

b0b0000000010011011 "
b0b0 <
b0b0 ?
b0b111 @
b0b01011100 C
b0b0000 H

#10550
b0b0 &
#10600
b0b1 &

b0b0 .
b0b0 0
b0b01011101 C
b0b0011 E
b0b0001 H

#10650
b0b0 &
#10700
b0b1 &

b0b110 7
b0b110 @
b0b01011110 C
b0b0010 H

#10750
b0b0 &
#10800
b0b1 &

b0b0 $
b0b0 +
b0b100 7
b0b1 9
b0b1 ;
b0b100 @
b0b1 A
b0b01011111 C
b0b0011 H

#10850
b0b0 &
#10900
b0b1 &

b0b000 7
b0b0 9
b0b0 ;
b0b000 @
b0b0 A
b0b01100000 C
b0b0000 H

#10950
b0b0 &
#11000
b0b1 &

b0b1 0
b0b01100001 C
b0b0001 H

#11050
b0b0 &
#11100
b0b1 &

b0b001 @
b0b01100010 C
b0b0010 H

#11150
b0b0 &
#11200
b0b1 &

b0b1 $
b0b1 <
b0b1 ?
b0b011 @
b0b01100011 C
b0b0011 H

#11250
b0b0 &
#11300
b0b1 &

b0b0000000100110110 "
b0b0 <
b0b0 ?
b0b111 @
b0b01100100 C
b0b0000 H

#11350
b0b0 &
#11400
b0b1 &

b0b0 0
b0b01100101 C
b0b0010 E
b0b0001 H

#11450
b0b0 &
#11500
b0b1 &

b0b110 @
b0b01100110 C
b0b0010 H

#11550
b0b0 &
#11600
b0b1 &

b0b0 $
b0b1 ;
b0b100 @
b0b1 A
b0b01100111 C
b0b0011 H

#11650
b0b0 &
#11700
b0b1 &

b0b0 ;
b0b000 @
b0b0 A
b0b01101000 C
b0b0000 H

#11750
b0b0 &
#11800
b0b1 &

b0b1 0
b0b01101001 C
b0b0001 H

#11850
b0b0 &
#11900
b0b1 &

b0b001 @
b0b01101010 C
b0b0010 H

#11950
b0b0 &
#12000
b0b1 &

b0b1 $
b0b1 <
b0b1 ?
b0b011 @
b0b01101011 C
b0b0011 H

#12050
b0b0 &
#12100
b0b1 &

b0b0000001001101100 "
b0b0 <
b0b0 ?
b0b111 @
b0b01101100 C
b0b0000 H

#12150
b0b0 &
#12200
b0b1 &

b0b0 0
b0b01101101 C
b0b0001 E
b0b0001 H

#12250
b0b0 &
#12300
b0b1 &

b0b110 @
b0b01101110 C
b0b0010 H

#12350
b0b0 &
#12400
b0b1 &

b0b0 $
b0b1 ;
b0b100 @
b0b1 A
b0b01101111 C
b0b0011 H

#12450
b0b0 &
#12500
b0b1 &

b0b0 ;
b0b000 @
b0b0 A
b0b01110000 C
b0b0000 H

#12550
b0b0 &
#12600
b0b1 &

b0b1 0
b0b01110001 C
b0b0001 H

#12650
b0b0 &
#12700
b0b1 &

b0b001 @
b0b01110010 C
b0b0010 H

#12750
b0b0 &
#12800
b0b1 &

b0b1 $
b0b1 <
b0b1 ?
b0b011 @
b0b01110011 C
b0b0011 H

#12850
b0b0 &
#12900
b0b1 &

b0b0000010011011000 "
b0b0 <
b0b0 ?
b0b111 @
b0b01110100 C
b0b0000 H

#12950
b0b0 &
#13000
b0b1 &

b0b0 0
b0b01110101 C
b0b0000 E
b0b0001 H

#13050
b0b0 &
#13100
b0b1 &

b0b110 @
b0b01110110 C
b0b0010 H

#13150
b0b0 &
#13200
b0b1 &

b0b0 $
b0b1 ;
b0b100 @
b0b1 A
b0b01110111 C
b0b0011 H

#13250
b0b0 &
#13300
b0b1 &

b0b0 ;
b0b000 @
b0b0 A
b0b01111000 C
b0b0000 H

#13350
b0b0 &
#13400
b0b1 &

b0b1 0
b0b01111001 C
b0b0001 H

#13450
b0b0 &
#13500
b0b1 &

b0b001 @
b0b01111010 C
b0b0010 H

#13550
b0b0 &
#13600
b0b1 &

b0b1 $
b0b1 <
b0b1 ?
b0b011 @
b0b01111011 C
b0b0011 H

#13650
b0b0 &
#13700
b0b1 &

b0b0000100110110000 "
b0b0 <
b0b0 ?
b0b111 @
b0b01111100 C
b0b0000 H

#13750
b0b0 &
#13800
b0b1 &

b0b0 0
b0b01111101 C
b0b0001 H

#13850
b0b0 &
#13900
b0b1 &

b0b110 @
b0b01111110 C
b0b0010 H

#13950
b0b0 &
#14000
b0b1 &

b0b0 $
b0b1 ;
b0b100 @
b0b1 A
b0b01111111 C
b0b0011 H

#14050
b0b0 &
#14100
b0b1 &

b0b0 ;
b0b000 @
b0b0 A
b0b100 B
b0b00000000 C
b0b00000100 D
b0b0 F
b0b0000 H

#14150
b0b0 &
#14200
b0b1 &

b0b00000001 C

#14250
b0b0 &
#14300
b0b1 &

b0b00000010 C

#14350
b0b0 &
#14400
b0b1 &

b0b00000011 C

#14450
b0b0 &
#14500
b0b1 &

b0b00000100 C

#14550
b0b0 &
#14600
b0b1 &

b0b1 /
b0b1 2
b0b1 =
b0b101 B
b0b00000000 C
b0b1 J

#14650
b0b0 &
#14700
b0b1 &

b0b0 1
b0b001 >
b0b00000001 C

#14750
b0b0 &
#14800
b0b1 &

b0b1 ,
b0b1 -
b0b1 1
b0b0 2
b0b011 >
b0b00000010 C
b0b1 G

#14850
b0b0 &
#14900
b0b1 &

b0b0 -
b0b111 >
b0b00000011 C

#14950
b0b0 &
#15000
b0b1 &

b0b00000100 C

#15050
b0b0 &
#15100
b0b1 &

b0b1 *
b0b001 B
b0b00000000 C
b0b0 J
b0b1 L

#15150
b0b0 &
#15200
b0b1 &

b0b0 )
b0b0 *
b0b0 /
b0b0 =
b0b010 B
b0b1111 E
b0b0 G
b0b0001000010110011 K
b0b0 L

#15250
b0b0 &
#15300
b0b1 &

b0b110 >
b0b00000001 C

#15350
b0b0 &
#15400
b0b1 &

b0b1 %
b0b0 ,
b0b100 >
b0b00000010 C

#15450
b0b0 &
#15500
b0b1 &

b0b0000011101010011 #
b0b0 %
b0b1 )
b0b0000100110110000 :
b0b000 >
b0b00000011 C

#15550
b0b0 &
#15600
b0b1 &

b0b00000100 C

#15650
b0b0 &
#15700
b0b1 &

b0b011 B
b0b00000000 C
b0b01111111 D
b0b1 F

#15750
b0b0 &
#15800
b0b1 &

b0b1 0
b0b00000001 C
b0b0001 H

#15850
b0b0 &
#15900
b0b1 &

b0b001 @
b0b00000010 C
b0b0010 H

#15950
b0b0 &
#16000
b0b1 &

b0b1 $
b0b1 <
b0b1 ?
b0b011 @
b0b00000011 C
b0b0011 H

#16050
b0b0 &
#16100
b0b1 &

b0b0001001101100000 "
b0b0 <
b0b0 ?
b0b111 @
b0b00000100 C
b0b0000 H

#16150
b0b0 &
#16200
b0b1 &

b0b0 0
b0b00000101 C
b0b1110 E
b0b0001 H

#16250
b0b0 &
#16300
b0b1 &

b0b110 @
b0b00000110 C
b0b0010 H

#16350
b0b0 &
#16400
b0b1 &

b0b0 $
b0b1 ;
b0b100 @
b0b1 A
b0b00000111 C
b0b0011 H

#16450
b0b0 &
#16500
b0b1 &

b0b0001001101100000 :
b0b0 ;
b0b000 @
b0b0 A
b0b00001000 C
b0b0000 H

#16550
b0b0 &
#16600
b0b1 &

b0b1 0
b0b00001001 C
b0b0001 H

#16650
b0b0 &
#16700
b0b1 &

b0b001 @
b0b00001010 C
b0b0010 H

#16750
b0b0 &
#16800
b0b1 &

b0b1 $
b0b1 <
b0b1 ?
b0b011 @
b0b00001011 C
b0b0011 H

#16850
b0b0 &
#16900
b0b1 &

b0b0010011011000000 "
b0b0 <
b0b0 ?
b0b111 @
b0b00001100 C
b0b0000 H

#16950
b0b0 &
#17000
b0b1 &

b0b0 0
b0b00001101 C
b0b1101 E
b0b0001 H

#17050
b0b0 &
#17100
b0b1 &

b0b110 @
b0b00001110 C
b0b0010 H

#17150
b0b0 &
#17200
b0b1 &

b0b0 $
b0b1 ;
b0b100 @
b0b1 A
b0b00001111 C
b0b0011 H

#17250
b0b0 &
#17300
b0b1 &

b0b0010011011000000 :
b0b0 ;
b0b000 @
b0b0 A
b0b00010000 C
b0b0000 H

#17350
b0b0 &
#17400
b0b1 &

b0b1 0
b0b00010001 C
b0b0001 H

#17450
b0b0 &
#17500
b0b1 &

b0b001 @
b0b00010010 C
b0b0010 H

#17550
b0b0 &
#17600
b0b1 &

b0b1 $
b0b1 <
b0b1 ?
b0b011 @
b0b00010011 C
b0b0011 H

#17650
b0b0 &
#17700
b0b1 &

b0b0100110110000000 "
b0b0 <
b0b0 ?
b0b111 @
b0b00010100 C
b0b0000 H

#17750
b0b0 &
#17800
b0b1 &

b0b1 .
b0b0 0
b0b00010101 C
b0b1100 E
b0b0001 H

#17850
b0b0 &
#17900
b0b1 &

b0b001 7
b0b110 @
b0b00010110 C
b0b0010 H

#17950
b0b0 &
#18000
b0b1 &

b0b0 $
b0b1 +
b0b011 7
b0b1 8
b0b1 ;
b0b100 @
b0b1 A
b0b00010111 C
b0b0011 H

#18050
b0b0 &
#18100
b0b1 &

b0b111 7
b0b0 8
b0b0100110110000000 :
b0b0 ;
b0b000 @
b0b0 A
b0b00011000 C
b0b0000 H

#18150
b0b0 &
#18200
b0b1 &

b0b1 0
b0b00011001 C
b0b0001 H

#18250
b0b0 &
#18300
b0b1 &

b0b001 @
b0b00011010 C
b0b0010 H

#18350
b0b0 &
#18400
b0b1 &

b0b1 $
b0b1 <
b0b1 ?
b0b011 @
b0b00011011 C
b0b0011 H

#18450
b0b0 &
#18500
b0b1 &

b0b1001101100000001 "
b0b0 <
b0b0 ?
b0b111 @
b0b00011100 C
b0b0000 H

#18550
b0b0 &
#18600
b0b1 &

b0b0 .
b0b0 0
b0b00011101 C
b0b1011 E
b0b0001 H

#18650
b0b0 &
#18700
b0b1 &

b0b110 7
b0b110 @
b0b00011110 C
b0b0010 H

#18750
b0b0 &
#18800
b0b1 &

b0b0 $
b0b0 +
b0b100 7
b0b1 9
b0b1 ;
b0b100 @
b0b1 A
b0b00011111 C
b0b0011 H

#18850
b0b0 &
#18900
b0b1 &

b0b1 (
b0b000 7
b0b0 9
b0b1001101100000000 :
b0b0 ;
b0b000 @
b0b0 A
b0b00100000 C
b0b0000 H

#18950
b0b0 &
#19000
b0b1 &

b0b0000000000000001 '
b0b1 0
b0b00100001 C
b0b0001 H

#19050
b0b0 &
#19100
b0b1 &

b0b001 @
b0b00100010 C
b0b0010 H

#19150
b0b0 &
#19200
b0b1 &

b0b1 $
b0b1 <
b0b1 ?
b0b011 @
b0b00100011 C
b0b0011 H

#19250
b0b0 &
#19300
b0b1 &

b0b0011011000000010 "
b0b0 <
b0b0 ?
b0b111 @
b0b00100100 C
b0b0000 H

#19350
b0b0 &
#19400
b0b1 &

b0b0 0
b0b00100101 C
b0b1010 E
b0b0001 H

#19450
b0b0 &
#19500
b0b1 &

b0b110 @
b0b00100110 C
b0b0010 H

#19550
b0b0 &
#19600
b0b1 &

b0b0 $
b0b1 ;
b0b100 @
b0b1 A
b0b00100111 C
b0b0011 H

#19650
b0b0 &
#19700
b0b1 &

b0b0 (
b0b0011011000000000 :
b0b0 ;
b0b000 @
b0b0 A
b0b00101000 C
b0b0000 H

#19750
b0b0 &
#19800
b0b1 &

b0b0000000000000010 '
b0b1 0
b0b00101001 C
b0b0001 H

#19850
b0b0 &
#19900
b0b1 &

b0b001 @
b0b00101010 C
b0b0010 H

#19950
b0b0 &
#20000
b0b1 &

b0b1 $
b0b1 <
b0b1 ?
b0b011 @
b0b00101011 C
b0b0011 H

#20050
b0b0 &
#20100
b0b1 &

b0b0110110000000100 "
b0b0 <
b0b0 ?
b0b111 @
b0b00101100 C
b0b0000 H

#20150
b0b0 &
#20200
b0b1 &

b0b0 0
b0b00101101 C
b0b1001 E
b0b0001 H

#20250
b0b0 &
#20300
b0b1 &

b0b110 @
b0b00101110 C
b0b0010 H

#20350
b0b0 &
#20400
b0b1 &

b0b0 $
b0b1 ;
b0b100 @
b0b1 A
b0b00101111 C
b0b0011 H

#20450
b0b0 &
#20500
b0b1 &

b0b0110110000000000 :
b0b0 ;
b0b000 @
b0b0 A
b0b00110000 C
b0b0000 H

#20550
b0b0 &
#20600
b0b1 &

b0b0000000000000100 '
b0b1 0
b0b00110001 C
b0b0001 H

#20650
b0b0 &
#20700
b0b1 &

b0b001 @
b0b00110010 C
b0b0010 H

#20750
b0b0 &
#20800
b0b1 &

b0b1 $
b0b1 <
b0b1 ?
b0b011 @
b0b00110011 C
b0b0011 H

#20850
b0b0 &
#20900
b0b1 &

b0b1101100000001000 "
b0b0 <
b0b0 ?
b0b111 @
b0b00110100 C
b0b0000 H

#20950
b0b0 &
#21000
b0b1 &

b0b0 0
b0b00110101 C
b0b1000 E
b0b0001 H

#21050
b0b0 &
#21100
b0b1 &

b0b110 @
b0b00110110 C
b0b0010 H

#21150
b0b0 &
#21200
b0b1 &

b0b0 $
b0b1 ;
b0b100 @
b0b1 A
b0b00110111 C
b0b0011 H

#21250
b0b0 &
#21300
b0b1 &

b0b1 (
b0b1101100000000000 :
b0b0 ;
b0b000 @
b0b0 A
b0b00111000 C
b0b0000 H

#21350
b0b0 &
#21400
b0b1 &

b0b0000000000001001 '
b0b1 0
b0b00111001 C
b0b0001 H

#21450
b0b0 &
#21500
b0b1 &

b0b001 @
b0b00111010 C
b0b0010 H

#21550
b0b0 &
#21600
b0b1 &

b0b1 $
b0b1 <
b0b1 ?
b0b011 @
b0b00111011 C
b0b0011 H

#21650
b0b0 &
