Vcdwavedir/TestBench.sim__test_stack_8bit_basic_0x0.vcd
$date
  Tue Mar 22 19:59:02 2022
$end
$version
  PyMTL 3 (Mamba)
$end
$timescale
 10ps
$end

$scope module top $end
  $var reg 1 * clk $end
  $var reg 1 + reset $end
  $scope module slave $end
    $var reg 8 ! push.msg $end
    $var reg 1 3 slave_inter.mosi $end
    $var reg 8 6 pull.msg $end
    $var reg 1 * clk $end
    $var reg 1 & pull.en $end
    $var reg 1 . slave_inter.cs $end
    $var reg 1 2 slave_inter.sclk $end
    $var reg 1 - push.en $end
    $var reg 1 1 slave_inter.miso $end
    $var reg 1 + reset $end
    $scope module cs_sync $end
      $var reg 1 & negedge_ $end
      $var reg 1 + reset $end
      $var reg 1 7 in_ $end
      $var reg 3 8 shreg $end
      $var reg 1 * clk $end
      $var reg 1 # out $end
      $var reg 1 - posedge_ $end
    $upscope $end
    $scope module shreg_in $end
      $var reg 1 * clk $end
      $var reg 1 9 shift_en $end
      $var reg 8 ! out $end
      $var reg 1 / in_ $end
      $var reg 8 5 load_data $end
      $var reg 1 4 load_en $end
      $var reg 1 + reset $end
    $upscope $end
    $scope module mosi_sync $end
      $var reg 3 : shreg $end
      $var reg 1 * clk $end
      $var reg 1 / out $end
      $var reg 1 3 in_ $end
      $var reg 1 + reset $end
      $var reg 1 ; posedge_ $end
      $var reg 1 < negedge_ $end
    $upscope $end
    $scope module shreg_out $end
      $var reg 1 = shift_en $end
      $var reg 1 0 in_ $end
      $var reg 8 ! load_data $end
      $var reg 1 + reset $end
      $var reg 1 & load_en $end
      $var reg 1 * clk $end
      $var reg 8 > out $end
    $upscope $end
    $scope module sclk_sync $end
      $var reg 1 ? negedge_ $end
      $var reg 1 * clk $end
      $var reg 3 @ shreg $end
      $var reg 1 2 in_ $end
      $var reg 1 % out $end
      $var reg 1 A posedge_ $end
      $var reg 1 + reset $end
    $upscope $end
  $upscope $end
  $scope module sink $end
    $var reg 8 ' recv.msg $end
    $var reg 1 * clk $end
    $var reg 1 ) recv.rdy $end
    $var reg 1 ( recv.val $end
    $var reg 1 + reset $end
  $upscope $end
  $scope module master $end
    $var reg 1 * clk $end
    $var reg 8 ' resp.msg $end
    $var reg 1 2 master_infer.sclk $end
    $var reg 1 " req.val $end
    $var reg 1 3 master_infer.mosi $end
    $var reg 8 $ req.msg $end
    $var reg 8 B cntr $end
    $var reg 4 C sclk_cntr $end
    $var reg 1 ( resp.val $end
    $var reg 1 . master_infer.cs $end
    $var reg 1 D sclk_en $end
    $var reg 8 E cntr_max $end
    $var reg 1 + reset $end
    $var reg 1 ) resp.rdy $end
    $var reg 1 F msg_from_slave $end
    $var reg 8 ' miso_reg $end
    $var reg 3 G state $end
    $var reg 1 , req.rdy $end
    $var reg 4 H mosi_reg_pointer $end
    $var reg 1 1 master_infer.miso $end
    $var reg 1 I result_read $end
    $var reg 1 J val_progressing $end
    $scope module mosi_reg $end
      $var reg 1 + reset $end
      $var reg 8 K out $end
      $var reg 1 * clk $end
      $var reg 1 L en $end
      $var reg 8 $ in_ $end
    $upscope $end
  $upscope $end
  $scope module src $end
    $var reg 1 + reset $end
    $var reg 1 " send.val $end
    $var reg 1 * clk $end
    $var reg 1 , send.rdy $end
    $var reg 8 $ send.msg $end
  $upscope $end
$upscope $end
$enddefinitions $end

b0b00000000 !
b0b0 "
b0b0 #
b0b00000000 $
b0b0 %
b0b0 &
b0b00000000 '
b0b0 (
b0b0 )
b0b0 *
b0b0 +
b0b0 ,
b0b0 -
b0b0 .
b0b0 /
b0b0 0
b0b0 1
b0b0 2
b0b0 3
b0b0 4
b0b00000000 5
b0b00000000 6
b0b0 7
b0b000 8
b0b0 9
b0b000 :
b0b0 ;
b0b0 <
b0b0 =
b0b00000000 >
b0b0 ?
b0b000 @
b0b0 A
b0b00000000 B
b0b0000 C
b0b0 D
b0b00000000 E
b0b0 F
b0b000 G
b0b0000 H
b0b0 I
b0b0 J
b0b00000000 K
b0b0 L

#0
b0b1 *

b0b1 +
b0b1 .
b0b00000000 5
b0b1 7
b0b000 8
b0b0 9
b0b000 :
b0b0 ;
b0b00000000 >
b0b0 ?
b0b000 @
b0b0 A
b0b00000000 B
b0b0000 C
b0b0 D
b0b00000100 E
b0b0 F
b0b000 G
b0b0000 H
b0b0 I
b0b00000000 K
b0b0 L

#50
b0b0 *
#100
b0b1 *

b0b1 )
b0b1 ,
b0b001 8
b0b00000001 B
b0b001 G
b0b1 I

#150
b0b0 *
#200
b0b1 *

b0b1 #
b0b0 ,
b0b1 -
b0b011 8
b0b00000000 B
b0b000 G
b0b0111 H
b0b0 I

#250
b0b0 *
#300
b0b1 *

b0b0 +
b0b1 ,
b0b0 -
b0b111 8
b0b00000001 B
b0b001 G
b0b1 I

#350
b0b0 *
#400
b0b1 *

b0b1 "
b0b00000100 $
b0b00000000 B
b0b1 J
b0b1 L

#450
b0b0 *
#500
b0b1 *

b0b00000111 $
b0b0 ,
b0b0 .
b0b0 7
b0b010 G
b0b0 I
b0b00000100 K
b0b0 L

#550
b0b0 *
#600
b0b1 *

b0b110 8
b0b00000001 B

#650
b0b0 *
#700
b0b1 *

b0b0 #
b0b1 &
b0b100 8
b0b00000010 B

#750
b0b0 *
#800
b0b1 *

b0b0 &
b0b000 8
b0b00000011 B

#850
b0b0 *
#900
b0b1 *

b0b00000100 B

#950
b0b0 *
#1000
b0b1 *

b0b00000000 B
b0b1 D
b0b00111111 E
b0b011 G

#1050
b0b0 *
#1100
b0b1 *

b0b1 2
b0b00000001 B
b0b0001 C

#1150
b0b0 *
#1200
b0b1 *

b0b001 @
b0b00000010 B
b0b0010 C

#1250
b0b0 *
#1300
b0b1 *

b0b1 %
b0b1 9
b0b011 @
b0b1 A
b0b00000011 B
b0b0011 C

#1350
b0b0 *
#1400
b0b1 *

b0b0 9
b0b111 @
b0b0 A
b0b00000100 B
b0b0000 C

#1450
b0b0 *
#1500
b0b1 *

b0b0 2
b0b00000101 B
b0b0001 C
b0b0110 H

#1550
b0b0 *
#1600
b0b1 *

b0b110 @
b0b00000110 B
b0b0010 C

#1650
b0b0 *
#1700
b0b1 *

b0b0 %
b0b1 =
b0b1 ?
b0b100 @
b0b00000111 B
b0b0011 C

#1750
b0b0 *
#1800
b0b1 *

b0b0 =
b0b0 ?
b0b000 @
b0b00001000 B
b0b0000 C

#1850
b0b0 *
#1900
b0b1 *

b0b1 2
b0b00001001 B
b0b0001 C

#1950
b0b0 *
#2000
b0b1 *

b0b001 @
b0b00001010 B
b0b0010 C

#2050
b0b0 *
#2100
b0b1 *

b0b1 %
b0b1 9
b0b011 @
b0b1 A
b0b00001011 B
b0b0011 C

#2150
b0b0 *
#2200
b0b1 *

b0b0 9
b0b111 @
b0b0 A
b0b00001100 B
b0b0000 C

#2250
b0b0 *
#2300
b0b1 *

b0b0 2
b0b00001101 B
b0b0001 C
b0b0101 H

#2350
b0b0 *
#2400
b0b1 *

b0b110 @
b0b00001110 B
b0b0010 C

#2450
b0b0 *
#2500
b0b1 *

b0b0 %
b0b1 =
b0b1 ?
b0b100 @
b0b00001111 B
b0b0011 C

#2550
b0b0 *
#2600
b0b1 *

b0b0 =
b0b0 ?
b0b000 @
b0b00010000 B
b0b0000 C

#2650
b0b0 *
#2700
b0b1 *

b0b1 2
b0b00010001 B
b0b0001 C

#2750
b0b0 *
#2800
b0b1 *

b0b001 @
b0b00010010 B
b0b0010 C

#2850
b0b0 *
#2900
b0b1 *

b0b1 %
b0b1 9
b0b011 @
b0b1 A
b0b00010011 B
b0b0011 C

#2950
b0b0 *
#3000
b0b1 *

b0b0 9
b0b111 @
b0b0 A
b0b00010100 B
b0b0000 C

#3050
b0b0 *
#3100
b0b1 *

b0b0 2
b0b00010101 B
b0b0001 C
b0b0100 H

#3150
b0b0 *
#3200
b0b1 *

b0b110 @
b0b00010110 B
b0b0010 C

#3250
b0b0 *
#3300
b0b1 *

b0b0 %
b0b1 =
b0b1 ?
b0b100 @
b0b00010111 B
b0b0011 C

#3350
b0b0 *
#3400
b0b1 *

b0b0 =
b0b0 ?
b0b000 @
b0b00011000 B
b0b0000 C

#3450
b0b0 *
#3500
b0b1 *

b0b1 2
b0b00011001 B
b0b0001 C

#3550
b0b0 *
#3600
b0b1 *

b0b001 @
b0b00011010 B
b0b0010 C

#3650
b0b0 *
#3700
b0b1 *

b0b1 %
b0b1 9
b0b011 @
b0b1 A
b0b00011011 B
b0b0011 C

#3750
b0b0 *
#3800
b0b1 *

b0b0 9
b0b111 @
b0b0 A
b0b00011100 B
b0b0000 C

#3850
b0b0 *
#3900
b0b1 *

b0b0 2
b0b00011101 B
b0b0001 C
b0b0011 H

#3950
b0b0 *
#4000
b0b1 *

b0b110 @
b0b00011110 B
b0b0010 C

#4050
b0b0 *
#4100
b0b1 *

b0b0 %
b0b1 =
b0b1 ?
b0b100 @
b0b00011111 B
b0b0011 C

#4150
b0b0 *
#4200
b0b1 *

b0b0 =
b0b0 ?
b0b000 @
b0b00100000 B
b0b0000 C

#4250
b0b0 *
#4300
b0b1 *

b0b1 2
b0b00100001 B
b0b0001 C

#4350
b0b0 *
#4400
b0b1 *

b0b001 @
b0b00100010 B
b0b0010 C

#4450
b0b0 *
#4500
b0b1 *

b0b1 %
b0b1 9
b0b011 @
b0b1 A
b0b00100011 B
b0b0011 C

#4550
b0b0 *
#4600
b0b1 *

b0b0 9
b0b111 @
b0b0 A
b0b00100100 B
b0b0000 C

#4650
b0b0 *
#4700
b0b1 *

b0b0 2
b0b1 3
b0b00100101 B
b0b0001 C
b0b0010 H

#4750
b0b0 *
#4800
b0b1 *

b0b001 :
b0b110 @
b0b00100110 B
b0b0010 C

#4850
b0b0 *
#4900
b0b1 *

b0b0 %
b0b1 /
b0b011 :
b0b1 ;
b0b1 =
b0b1 ?
b0b100 @
b0b00100111 B
b0b0011 C

#4950
b0b0 *
#5000
b0b1 *

b0b111 :
b0b0 ;
b0b0 =
b0b0 ?
b0b000 @
b0b00101000 B
b0b0000 C

#5050
b0b0 *
#5100
b0b1 *

b0b1 2
b0b00101001 B
b0b0001 C

#5150
b0b0 *
#5200
b0b1 *

b0b001 @
b0b00101010 B
b0b0010 C

#5250
b0b0 *
#5300
b0b1 *

b0b1 %
b0b1 9
b0b011 @
b0b1 A
b0b00101011 B
b0b0011 C

#5350
b0b0 *
#5400
b0b1 *

b0b00000001 !
b0b0 9
b0b111 @
b0b0 A
b0b00101100 B
b0b0000 C

#5450
b0b0 *
#5500
b0b1 *

b0b0 2
b0b0 3
b0b00101101 B
b0b0001 C
b0b0001 H

#5550
b0b0 *
#5600
b0b1 *

b0b110 :
b0b110 @
b0b00101110 B
b0b0010 C

#5650
b0b0 *
#5700
b0b1 *

b0b0 %
b0b0 /
b0b100 :
b0b1 <
b0b1 =
b0b1 ?
b0b100 @
b0b00101111 B
b0b0011 C

#5750
b0b0 *
#5800
b0b1 *

b0b000 :
b0b0 <
b0b0 =
b0b0 ?
b0b000 @
b0b00110000 B
b0b0000 C

#5850
b0b0 *
#5900
b0b1 *

b0b1 2
b0b00110001 B
b0b0001 C

#5950
b0b0 *
#6000
b0b1 *

b0b001 @
b0b00110010 B
b0b0010 C

#6050
b0b0 *
#6100
b0b1 *

b0b1 %
b0b1 9
b0b011 @
b0b1 A
b0b00110011 B
b0b0011 C

#6150
b0b0 *
#6200
b0b1 *

b0b00000010 !
b0b0 9
b0b111 @
b0b0 A
b0b00110100 B
b0b0000 C

#6250
b0b0 *
#6300
b0b1 *

b0b0 2
b0b00110101 B
b0b0001 C
b0b0000 H

#6350
b0b0 *
#6400
b0b1 *

b0b110 @
b0b00110110 B
b0b0010 C

#6450
b0b0 *
#6500
b0b1 *

b0b0 %
b0b1 =
b0b1 ?
b0b100 @
b0b00110111 B
b0b0011 C

#6550
b0b0 *
#6600
b0b1 *

b0b0 =
b0b0 ?
b0b000 @
b0b00111000 B
b0b0000 C

#6650
b0b0 *
#6700
b0b1 *

b0b1 2
b0b00111001 B
b0b0001 C

#6750
b0b0 *
#6800
b0b1 *

b0b001 @
b0b00111010 B
b0b0010 C

#6850
b0b0 *
#6900
b0b1 *

b0b1 %
b0b1 9
b0b011 @
b0b1 A
b0b00111011 B
b0b0011 C

#6950
b0b0 *
#7000
b0b1 *

b0b00000100 !
b0b0 9
b0b111 @
b0b0 A
b0b00111100 B
b0b0000 C

#7050
b0b0 *
#7100
b0b1 *

b0b0 2
b0b00111101 B
b0b0001 C

#7150
b0b0 *
#7200
b0b1 *

b0b110 @
b0b00111110 B
b0b0010 C

#7250
b0b0 *
#7300
b0b1 *

b0b0 %
b0b1 =
b0b1 ?
b0b100 @
b0b00111111 B
b0b0011 C

#7350
b0b0 *
#7400
b0b1 *

b0b0 =
b0b0 ?
b0b000 @
b0b00000000 B
b0b0000 C
b0b0 D
b0b00000100 E
b0b100 G

#7450
b0b0 *
#7500
b0b1 *

b0b00000001 B

#7550
b0b0 *
#7600
b0b1 *

b0b00000010 B

#7650
b0b0 *
#7700
b0b1 *

b0b00000011 B

#7750
b0b0 *
#7800
b0b1 *

b0b00000100 B

#7850
b0b0 *
#7900
b0b1 *

b0b1 (
b0b1 .
b0b1 7
b0b00000000 B
b0b1 F
b0b101 G

#7950
b0b0 *
#8000
b0b1 *

b0b0 (
b0b001 8
b0b00000001 B
b0b1 I

#8050
b0b0 *
#8100
b0b1 *

b0b1 #
b0b1 -
b0b011 8
b0b00000010 B

#8150
b0b0 *
#8200
b0b1 *

b0b0 -
b0b111 8
b0b00000011 B

#8250
b0b0 *
#8300
b0b1 *

b0b00000100 B

#8350
b0b0 *
#8400
b0b1 *

b0b1 ,
b0b00000000 B
b0b0 F
b0b001 G
b0b1 L

#8450
b0b0 *
#8500
b0b1 *

b0b00000110 $
b0b0 ,
b0b0 .
b0b0 7
b0b010 G
b0b0111 H
b0b0 I
b0b00000111 K
b0b0 L

#8550
b0b0 *
#8600
b0b1 *

b0b110 8
b0b00000001 B

#8650
b0b0 *
#8700
b0b1 *

b0b0 #
b0b1 &
b0b100 8
b0b00000010 B

#8750
b0b0 *
#8800
b0b1 *

b0b0 &
b0b000 8
b0b00000100 >
b0b00000011 B

#8850
b0b0 *
#8900
b0b1 *

b0b00000100 B

#8950
b0b0 *
#9000
b0b1 *

b0b00000000 B
b0b1 D
b0b00111111 E
b0b011 G

#9050
b0b0 *
#9100
b0b1 *

b0b1 2
b0b00000001 B
b0b0001 C

#9150
b0b0 *
#9200
b0b1 *

b0b001 @
b0b00000010 B
b0b0010 C

#9250
b0b0 *
#9300
b0b1 *

b0b1 %
b0b1 9
b0b011 @
b0b1 A
b0b00000011 B
b0b0011 C

#9350
b0b0 *
#9400
b0b1 *

b0b00001000 !
b0b0 9
b0b111 @
b0b0 A
b0b00000100 B
b0b0000 C

#9450
b0b0 *
#9500
b0b1 *

b0b0 2
b0b00000101 B
b0b0001 C
b0b0110 H

#9550
b0b0 *
#9600
b0b1 *

b0b110 @
b0b00000110 B
b0b0010 C

#9650
b0b0 *
#9700
b0b1 *

b0b0 %
b0b1 =
b0b1 ?
b0b100 @
b0b00000111 B
b0b0011 C

#9750
b0b0 *
#9800
b0b1 *

b0b0 =
b0b00001000 >
b0b0 ?
b0b000 @
b0b00001000 B
b0b0000 C

#9850
b0b0 *
#9900
b0b1 *

b0b1 2
b0b00001001 B
b0b0001 C

#9950
b0b0 *
#10000
b0b1 *

b0b001 @
b0b00001010 B
b0b0010 C

#10050
b0b0 *
#10100
b0b1 *

b0b1 %
b0b1 9
b0b011 @
b0b1 A
b0b00001011 B
b0b0011 C

#10150
b0b0 *
#10200
b0b1 *

b0b00010000 !
b0b0 9
b0b111 @
b0b0 A
b0b00001100 B
b0b0000 C

#10250
b0b0 *
#10300
b0b1 *

b0b0 2
b0b00001101 B
b0b0001 C
b0b0101 H

#10350
b0b0 *
#10400
b0b1 *

b0b110 @
b0b00001110 B
b0b0010 C

#10450
b0b0 *
#10500
b0b1 *

b0b0 %
b0b1 =
b0b1 ?
b0b100 @
b0b00001111 B
b0b0011 C

#10550
b0b0 *
#10600
b0b1 *

b0b0 =
b0b00010000 >
b0b0 ?
b0b000 @
b0b00010000 B
b0b0000 C

#10650
b0b0 *
#10700
b0b1 *

b0b1 2
b0b00010001 B
b0b0001 C

#10750
b0b0 *
#10800
b0b1 *

b0b001 @
b0b00010010 B
b0b0010 C

#10850
b0b0 *
#10900
b0b1 *

b0b1 %
b0b1 9
b0b011 @
b0b1 A
b0b00010011 B
b0b0011 C

#10950
b0b0 *
#11000
b0b1 *

b0b00100000 !
b0b0 9
b0b111 @
b0b0 A
b0b00010100 B
b0b0000 C

#11050
b0b0 *
#11100
b0b1 *

b0b0 2
b0b00010101 B
b0b0001 C
b0b0100 H

#11150
b0b0 *
#11200
b0b1 *

b0b110 @
b0b00010110 B
b0b0010 C

#11250
b0b0 *
#11300
b0b1 *

b0b0 %
b0b1 =
b0b1 ?
b0b100 @
b0b00010111 B
b0b0011 C

#11350
b0b0 *
#11400
b0b1 *

b0b0 =
b0b00100000 >
b0b0 ?
b0b000 @
b0b00011000 B
b0b0000 C

#11450
b0b0 *
#11500
b0b1 *

b0b1 2
b0b00011001 B
b0b0001 C

#11550
b0b0 *
#11600
b0b1 *

b0b001 @
b0b00011010 B
b0b0010 C

#11650
b0b0 *
#11700
b0b1 *

b0b1 %
b0b1 9
b0b011 @
b0b1 A
b0b00011011 B
b0b0011 C

#11750
b0b0 *
#11800
b0b1 *

b0b01000000 !
b0b0 9
b0b111 @
b0b0 A
b0b00011100 B
b0b0000 C

#11850
b0b0 *
#11900
b0b1 *

b0b0 2
b0b00011101 B
b0b0001 C
b0b0011 H

#11950
b0b0 *
#12000
b0b1 *

b0b110 @
b0b00011110 B
b0b0010 C

#12050
b0b0 *
#12100
b0b1 *

b0b0 %
b0b1 =
b0b1 ?
b0b100 @
b0b00011111 B
b0b0011 C

#12150
b0b0 *
#12200
b0b1 *

b0b0 =
b0b01000000 >
b0b0 ?
b0b000 @
b0b00100000 B
b0b0000 C

#12250
b0b0 *
#12300
b0b1 *

b0b1 2
b0b00100001 B
b0b0001 C

#12350
b0b0 *
#12400
b0b1 *

b0b001 @
b0b00100010 B
b0b0010 C

#12450
b0b0 *
#12500
b0b1 *

b0b1 %
b0b1 9
b0b011 @
b0b1 A
b0b00100011 B
b0b0011 C

#12550
b0b0 *
#12600
b0b1 *

b0b10000000 !
b0b0 9
b0b111 @
b0b0 A
b0b00100100 B
b0b0000 C

#12650
b0b0 *
#12700
b0b1 *

b0b0 2
b0b1 3
b0b00100101 B
b0b0001 C
b0b0010 H

#12750
b0b0 *
#12800
b0b1 *

b0b001 :
b0b110 @
b0b00100110 B
b0b0010 C

#12850
b0b0 *
#12900
b0b1 *

b0b0 %
b0b1 /
b0b011 :
b0b1 ;
b0b1 =
b0b1 ?
b0b100 @
b0b00100111 B
b0b0011 C

#12950
b0b0 *
#13000
b0b1 *

b0b1 1
b0b111 :
b0b0 ;
b0b0 =
b0b10000000 >
b0b0 ?
b0b000 @
b0b00101000 B
b0b0000 C

#13050
b0b0 *
#13100
b0b1 *

b0b00000001 '
b0b1 2
b0b00101001 B
b0b0001 C

#13150
b0b0 *
#13200
b0b1 *

b0b001 @
b0b00101010 B
b0b0010 C

#13250
b0b0 *
#13300
b0b1 *

b0b1 %
b0b1 9
b0b011 @
b0b1 A
b0b00101011 B
b0b0011 C

#13350
b0b0 *
#13400
b0b1 *

b0b00000001 !
b0b0 9
b0b111 @
b0b0 A
b0b00101100 B
b0b0000 C

#13450
b0b0 *
#13500
b0b1 *

b0b0 2
b0b00101101 B
b0b0001 C
b0b0001 H

#13550
b0b0 *
#13600
b0b1 *

b0b110 @
b0b00101110 B
b0b0010 C

#13650
b0b0 *
#13700
b0b1 *

b0b0 %
b0b1 =
b0b1 ?
b0b100 @
b0b00101111 B
b0b0011 C

#13750
b0b0 *
#13800
b0b1 *

b0b0 1
b0b0 =
b0b00000000 >
b0b0 ?
b0b000 @
b0b00110000 B
b0b0000 C

#13850
b0b0 *
#13900
b0b1 *

b0b00000010 '
b0b1 2
b0b00110001 B
b0b0001 C

#13950
b0b0 *
#14000
b0b1 *

b0b001 @
b0b00110010 B
b0b0010 C

#14050
b0b0 *
#14100
b0b1 *

b0b1 %
b0b1 9
b0b011 @
b0b1 A
b0b00110011 B
b0b0011 C

#14150
b0b0 *
#14200
b0b1 *

b0b00000011 !
b0b0 9
b0b111 @
b0b0 A
b0b00110100 B
b0b0000 C

#14250
b0b0 *
#14300
b0b1 *

b0b0 2
b0b00110101 B
b0b0001 C
b0b0000 H

#14350
b0b0 *
#14400
b0b1 *

b0b110 @
b0b00110110 B
b0b0010 C

#14450
b0b0 *
#14500
b0b1 *

b0b0 %
b0b1 =
b0b1 ?
b0b100 @
b0b00110111 B
b0b0011 C

#14550
b0b0 *
#14600
b0b1 *

b0b0 =
b0b0 ?
b0b000 @
b0b00111000 B
b0b0000 C

#14650
b0b0 *
#14700
b0b1 *

b0b00000100 '
b0b1 2
b0b00111001 B
b0b0001 C

#14750
b0b0 *
#14800
b0b1 *

b0b001 @
b0b00111010 B
b0b0010 C

#14850
b0b0 *
#14900
b0b1 *

b0b1 %
b0b1 9
b0b011 @
b0b1 A
b0b00111011 B
b0b0011 C

#14950
b0b0 *
#15000
b0b1 *

b0b00000111 !
b0b0 9
b0b111 @
b0b0 A
b0b00111100 B
b0b0000 C

#15050
b0b0 *
#15100
b0b1 *

b0b0 2
b0b00111101 B
b0b0001 C

#15150
b0b0 *
#15200
b0b1 *

b0b110 @
b0b00111110 B
b0b0010 C

#15250
b0b0 *
#15300
b0b1 *

b0b0 %
b0b1 =
b0b1 ?
b0b100 @
b0b00111111 B
b0b0011 C

#15350
b0b0 *
#15400
b0b1 *

b0b0 =
b0b0 ?
b0b000 @
b0b00000000 B
b0b0000 C
b0b0 D
b0b00000100 E
b0b100 G

#15450
b0b0 *
#15500
b0b1 *

b0b00000001 B

#15550
b0b0 *
#15600
b0b1 *

b0b00000010 B

#15650
b0b0 *
#15700
b0b1 *

b0b00000011 B

#15750
b0b0 *
#15800
b0b1 *

b0b00000100 B

#15850
b0b0 *
#15900
b0b1 *

b0b1 (
b0b1 .
b0b1 7
b0b00000000 B
b0b1 F
b0b101 G

#15950
b0b0 *
#16000
b0b1 *

b0b0 (
b0b001 8
b0b00000001 B
b0b1 I

#16050
b0b0 *
#16100
b0b1 *

b0b1 #
b0b1 -
b0b011 8
b0b00000010 B

#16150
b0b0 *
#16200
b0b1 *

b0b0 -
b0b111 8
b0b00000011 B

#16250
b0b0 *
#16300
b0b1 *

b0b00000100 B

#16350
b0b0 *
#16400
b0b1 *

b0b1 ,
b0b00000000 B
b0b0 F
b0b001 G
b0b1 L

#16450
b0b0 *
#16500
b0b1 *

b0b00001000 $
b0b00000000 '
b0b0 ,
b0b0 .
b0b0 3
b0b0 7
b0b010 G
b0b0111 H
b0b0 I
b0b00000110 K
b0b0 L

#16550
b0b0 *
#16600
b0b1 *

b0b110 8
b0b110 :
b0b00000001 B

#16650
b0b0 *
#16700
b0b1 *

b0b0 #
b0b1 &
b0b0 /
b0b100 8
b0b100 :
b0b1 <
b0b00000010 B

#16750
b0b0 *
#16800
b0b1 *

b0b0 &
b0b000 8
b0b000 :
b0b0 <
b0b00000111 >
b0b00000011 B

#16850
b0b0 *
#16900
b0b1 *

b0b00000100 B

#16950
b0b0 *
#17000
b0b1 *

b0b00000000 B
b0b1 D
b0b00111111 E
b0b011 G

#17050
b0b0 *
#17100
b0b1 *

b0b1 2
b0b00000001 B
b0b0001 C

#17150
b0b0 *
#17200
b0b1 *

b0b001 @
b0b00000010 B
b0b0010 C

#17250
b0b0 *
#17300
b0b1 *

b0b1 %
b0b1 9
b0b011 @
b0b1 A
b0b00000011 B
b0b0011 C

#17350
b0b0 *
#17400
b0b1 *

b0b00001110 !
b0b0 9
b0b111 @
b0b0 A
b0b00000100 B
b0b0000 C

#17450
b0b0 *
#17500
b0b1 *

b0b0 2
b0b00000101 B
b0b0001 C
b0b0110 H

#17550
b0b0 *
#17600
b0b1 *

b0b110 @
b0b00000110 B
b0b0010 C

#17650
b0b0 *
#17700
b0b1 *

b0b0 %
b0b1 =
b0b1 ?
b0b100 @
b0b00000111 B
b0b0011 C

#17750
b0b0 *
#17800
b0b1 *

b0b0 =
b0b00001110 >
b0b0 ?
b0b000 @
b0b00001000 B
b0b0000 C

#17850
b0b0 *
#17900
b0b1 *

b0b1 2
b0b00001001 B
b0b0001 C

#17950
b0b0 *
#18000
b0b1 *

b0b001 @
b0b00001010 B
b0b0010 C

#18050
b0b0 *
#18100
b0b1 *

b0b1 %
b0b1 9
b0b011 @
b0b1 A
b0b00001011 B
b0b0011 C

#18150
b0b0 *
#18200
b0b1 *

b0b00011100 !
b0b0 9
b0b111 @
b0b0 A
b0b00001100 B
b0b0000 C

#18250
b0b0 *
#18300
b0b1 *

b0b0 2
b0b00001101 B
b0b0001 C
b0b0101 H

#18350
b0b0 *
#18400
b0b1 *

b0b110 @
b0b00001110 B
b0b0010 C

#18450
b0b0 *
#18500
b0b1 *

b0b0 %
b0b1 =
b0b1 ?
b0b100 @
b0b00001111 B
b0b0011 C

#18550
b0b0 *
#18600
b0b1 *

b0b0 =
b0b00011100 >
b0b0 ?
b0b000 @
b0b00010000 B
b0b0000 C

#18650
b0b0 *
#18700
b0b1 *

b0b1 2
b0b00010001 B
b0b0001 C

#18750
b0b0 *
#18800
b0b1 *

b0b001 @
b0b00010010 B
b0b0010 C

#18850
b0b0 *
#18900
b0b1 *

b0b1 %
b0b1 9
b0b011 @
b0b1 A
b0b00010011 B
b0b0011 C

#18950
b0b0 *
#19000
b0b1 *

b0b00111000 !
b0b0 9
b0b111 @
b0b0 A
b0b00010100 B
b0b0000 C

#19050
b0b0 *
#19100
b0b1 *

b0b0 2
b0b00010101 B
b0b0001 C
b0b0100 H

#19150
b0b0 *
#19200
b0b1 *

b0b110 @
b0b00010110 B
b0b0010 C

#19250
b0b0 *
#19300
b0b1 *

b0b0 %
b0b1 =
b0b1 ?
b0b100 @
b0b00010111 B
b0b0011 C

#19350
b0b0 *
#19400
b0b1 *

b0b0 =
b0b00111000 >
b0b0 ?
b0b000 @
b0b00011000 B
b0b0000 C

#19450
b0b0 *
#19500
b0b1 *

b0b1 2
b0b00011001 B
b0b0001 C

#19550
b0b0 *
#19600
b0b1 *

b0b001 @
b0b00011010 B
b0b0010 C

#19650
b0b0 *
#19700
b0b1 *

b0b1 %
b0b1 9
b0b011 @
b0b1 A
b0b00011011 B
b0b0011 C

#19750
b0b0 *
#19800
b0b1 *

b0b01110000 !
b0b0 9
b0b111 @
b0b0 A
b0b00011100 B
b0b0000 C

#19850
b0b0 *
#19900
b0b1 *

b0b0 2
b0b00011101 B
b0b0001 C
b0b0011 H

#19950
b0b0 *
#20000
b0b1 *

b0b110 @
b0b00011110 B
b0b0010 C

#20050
b0b0 *
#20100
b0b1 *

b0b0 %
b0b1 =
b0b1 ?
b0b100 @
b0b00011111 B
b0b0011 C

#20150
b0b0 *
#20200
b0b1 *

b0b0 =
b0b01110000 >
b0b0 ?
b0b000 @
b0b00100000 B
b0b0000 C

#20250
b0b0 *
#20300
b0b1 *

b0b1 2
b0b00100001 B
b0b0001 C

#20350
b0b0 *
#20400
b0b1 *

b0b001 @
b0b00100010 B
b0b0010 C

#20450
b0b0 *
#20500
b0b1 *

b0b1 %
b0b1 9
b0b011 @
b0b1 A
b0b00100011 B
b0b0011 C

#20550
b0b0 *
#20600
b0b1 *

b0b11100000 !
b0b0 9
b0b111 @
b0b0 A
b0b00100100 B
b0b0000 C

#20650
b0b0 *
#20700
b0b1 *

b0b0 2
b0b1 3
b0b00100101 B
b0b0001 C
b0b0010 H

#20750
b0b0 *
#20800
b0b1 *

b0b001 :
b0b110 @
b0b00100110 B
b0b0010 C

#20850
b0b0 *
#20900
b0b1 *

b0b0 %
b0b1 /
b0b011 :
b0b1 ;
b0b1 =
b0b1 ?
b0b100 @
b0b00100111 B
b0b0011 C

#20950
b0b0 *
#21000
b0b1 *

b0b1 1
b0b111 :
b0b0 ;
b0b0 =
b0b11100000 >
b0b0 ?
b0b000 @
b0b00101000 B
b0b0000 C

#21050
b0b0 *
#21100
b0b1 *

b0b00000001 '
b0b1 2
b0b00101001 B
b0b0001 C

#21150
b0b0 *
#21200
b0b1 *

b0b001 @
b0b00101010 B
b0b0010 C

#21250
b0b0 *
#21300
b0b1 *

b0b1 %
b0b1 9
b0b011 @
b0b1 A
b0b00101011 B
b0b0011 C

#21350
b0b0 *
#21400
b0b1 *

b0b11000001 !
b0b0 9
b0b111 @
b0b0 A
b0b00101100 B
b0b0000 C

#21450
b0b0 *
#21500
b0b1 *

b0b0 2
b0b00101101 B
b0b0001 C
b0b0001 H

#21550
b0b0 *
#21600
b0b1 *

b0b110 @
b0b00101110 B
b0b0010 C

#21650
b0b0 *
#21700
b0b1 *

b0b0 %
b0b1 =
b0b1 ?
b0b100 @
b0b00101111 B
b0b0011 C

#21750
b0b0 *
#21800
b0b1 *

b0b0 =
b0b11000000 >
b0b0 ?
b0b000 @
b0b00110000 B
b0b0000 C

#21850
b0b0 *
#21900
b0b1 *

b0b00000011 '
b0b1 2
b0b00110001 B
b0b0001 C

#21950
b0b0 *
#22000
b0b1 *

b0b001 @
b0b00110010 B
b0b0010 C

#22050
b0b0 *
#22100
b0b1 *

b0b1 %
b0b1 9
b0b011 @
b0b1 A
b0b00110011 B
b0b0011 C

#22150
b0b0 *
#22200
b0b1 *

b0b10000011 !
b0b0 9
b0b111 @
b0b0 A
b0b00110100 B
b0b0000 C

#22250
b0b0 *
